{
    "dc_per_class_pp_all": {
        "1": 0.6718425654881302,
        "10": 0.732918003991888,
        "11": 0.7320298640102781,
        "12": 0.7434898036158264,
        "13": 0.7449010672954013,
        "14": 0.715323637733548,
        "15": 0.6817041354673181,
        "16": 0.5431187842281826,
        "17": 0.713107344069447,
        "18": 0.7189331855988499,
        "19": 0.8052046477090057,
        "2": 0.8005029594727744,
        "20": 0.7928094795462449,
        "3": 0.8000608337816817,
        "4": 0.7951614165000175,
        "5": 0.7977255571678613,
        "6": 0.7613158537207425,
        "7": 0.7604151053477298,
        "8": 0.7034100517808269,
        "9": 0.7011200882827451
    },
    "dc_per_class_pp_per_class": {
        "1": 0.672455396605232,
        "10": 0.7329625867778488,
        "11": 0.7320576636302419,
        "12": 0.7433402000512834,
        "13": 0.7448368532093032,
        "14": 0.7121925194600431,
        "15": 0.6129674868077976,
        "16": 0.3680029828936727,
        "17": 0.7131246559030622,
        "18": 0.7191557799870131,
        "19": 0.8052597560796501,
        "2": 0.8005163268565277,
        "20": 0.8046486600620357,
        "3": 0.8001317574285348,
        "4": 0.7952485382184381,
        "5": 0.7977959449888511,
        "6": 0.7614273445847027,
        "7": 0.7605993899224325,
        "8": 0.7034254705153147,
        "9": 0.7015385132830374
    },
    "dc_per_class_raw": {
        "1": 0.6718965643075592,
        "10": 0.7329729741075756,
        "11": 0.732022225872655,
        "12": 0.7433806302871576,
        "13": 0.7449831766034375,
        "14": 0.7153414799859346,
        "15": 0.6818054642496666,
        "16": 0.5431839460038149,
        "17": 0.7130489334503481,
        "18": 0.7188397782425883,
        "19": 0.8051576744626056,
        "2": 0.8004538743667114,
        "20": 0.8046237635738964,
        "3": 0.7997849567656652,
        "4": 0.7948391583713276,
        "5": 0.7973858487228961,
        "6": 0.7612828511611103,
        "7": 0.7603846264425614,
        "8": 0.7033719732949076,
        "9": 0.7010858354414852
    },
    "for_which_classes": [
        1,
        11,
        17,
        18,
        19,
        2,
        20,
        3,
        4,
        5,
        6,
        7,
        8,
        9
    ],
    "min_valid_object_sizes": "None",
    "num_samples": 70,
    "validation_final": "cv_niftis_postprocessed",
    "validation_raw": "cv_niftis_raw"
}