{
    "504": {
        "1": {
            "dice": {
                "0": 0.954983035103789,
                "1": 0.9389838810905139,
                "2": 0.9479712033730628,
                "3": 0.9492229524081642,
                "4": 0.9236830229765125
            },
            "s_DSC": {
                "0": 0.9926055392687836,
                "1": 0.9494972419878637,
                "2": 0.9651134485311101,
                "3": 0.9596599338455132,
                "4": 0.934493580060307
            },
            "hd95": {
                "0": 1.5350363846095725,
                "1": 2.0667044637332754,
                "2": 1.6710878734615038,
                "3": 1.85510270975367,
                "4": 2.6897313479554796
            }
        },
        "2": {
            "dice": {
                "0": 0.8428395568321707,
                "1": 0.8508333333333333,
                "2": 0.8236397748592871,
                "3": 0.7753789618741387,
                "4": 0.8239043824701195
            },
            "s_DSC": {
                "0": 0.999999995,
                "1": 0.999999995,
                "2": 0.999999995,
                "3": 0.999999995,
                "4": 0.999999995
            },
            "hd95": {
                "0": 0.7219884627991264,
                "1": 0.6415264030655016,
                "2": 0.7219884627991264,
                "3": 0.8902441692199343,
                "4": 0.7219884627991264
            }
        },
        "3": {
            "dice": {
                "0": 0.49516648764769067,
                "1": 0.8768171384850804,
                "2": 0.6954225352112676,
                "3": 0.4830554061323292,
                "4": 0.7293940534437335
            },
            "s_DSC": {
                "0": 0.9970645742710372,
                "1": 0.999999995,
                "2": 0.9902152592367908,
                "3": 0.903131110944227,
                "4": 0.999999995
            },
            "hd95": {
                "0": 1.5878499111739262,
                "1": 0.52083331346511,
                "2": 1.56249994039533,
                "3": 2.7910875363610015,
                "4": 1.2419881967354163
            }
        },
        "4": {
            "dice": {
                "0": 0.8058001035732781,
                "1": 0.8676803435668272,
                "2": 0.8242829646925188,
                "3": 0.819274983094699,
                "4": 0.8758196134574088
            },
            "s_DSC": {
                "0": 0.9255921768729116,
                "1": 0.9568746316321481,
                "2": 0.9215920702179994,
                "3": 0.9435773085992132,
                "4": 0.9888121706062546
            },
            "hd95": {
                "0": 2.3143760934807522,
                "1": 1.877891217668263,
                "2": 2.5379925263356093,
                "3": 2.127551509457666,
                "4": 1.1646186938544425
            }
        },
        "5": {
            "dice": {
                "0": 0.8929279904780797,
                "1": 0.8544847562472384,
                "2": 0.8928959264590752,
                "3": 0.894663930220626,
                "4": 0.9035303372996362
            },
            "s_DSC": {
                "0": 0.9732584530786463,
                "1": 0.948779290223752,
                "2": 0.988449044050345,
                "3": 0.9920591232570922,
                "4": 0.9911353256934651
            },
            "hd95": {
                "0": 1.56249994039533,
                "1": 2.0667044637332754,
                "2": 1.2674133903644964,
                "3": 1.2419881967354163,
                "4": 1.2419881967354163
            }
        },
        "6": {
            "dice": {
                "0": 0.7384052074857608,
                "1": 0.8320089744788258,
                "2": 0.8233133578194471,
                "3": 0.8044952920927407,
                "4": 0.784247657154891
            },
            "s_DSC": {
                "0": 0.9911430686036747,
                "1": 0.999999995,
                "2": 0.999999995,
                "3": 0.999999995,
                "4": 0.999999995
            },
            "hd95": {
                "0": 1.5878499111739262,
                "1": 0.8902441692199343,
                "2": 1.0,
                "3": 1.04166662693022,
                "4": 1.04166662693022
            }
        },
        "7": {
            "dice": {
                "0": 0.7993926741317138,
                "1": 0.778987059730911,
                "2": 0.8429834807275154,
                "3": 0.8155145789808339,
                "4": 0.38369304556354916
            },
            "s_DSC": {
                "0": 0.9920981779727316,
                "1": 0.9995271817635935,
                "2": 0.999999995,
                "3": 0.999999995,
                "4": 0.7319148899574468
            },
            "hd95": {
                "0": 1.2419881967354163,
                "1": 1.1554520161651811,
                "2": 1.0,
                "3": 0.8902441692199343,
                "4": 18.976238048195793
            }
        },
        "8": {
            "dice": {
                "0": 0.8753721820501914,
                "1": 0.8699115044247787,
                "2": 0.6878914405010439,
                "3": 0.8351741716227697,
                "4": 0.8370526315789474
            },
            "s_DSC": {
                "0": 0.999999995,
                "1": 0.999999995,
                "2": 0.999999995,
                "3": 0.999999995,
                "4": 0.999999995
            },
            "hd95": {
                "0": 0.52083331346511,
                "1": 0.7219884627991264,
                "2": 1.2419881967354163,
                "3": 0.7219884627991264,
                "4": 0.7219884627991264
            }
        },
        "9": {
            "dice": {
                "0": 0.8956043956043956,
                "1": 0.8064133016627079,
                "2": 0.8324324324324325,
                "3": 0.8038768529076397,
                "4": 0.8101742816768723
            },
            "s_DSC": {
                "0": 0.999999995,
                "1": 0.999999995,
                "2": 0.999999995,
                "3": 0.999999995,
                "4": 0.999999995
            },
            "hd95": {
                "0": 0.52083331346511,
                "1": 0.7219884627991264,
                "2": 0.7219884627991264,
                "3": 0.7219884627991264,
                "4": 0.7219884627991264
            }
        }
    },
    "509": null
}