{
  "id": "110",
  "model_name": "AI AUH_DCPT HN_Level v1.0 (14-09-2023)",
  "threshold": false,
  "folds": ["0", "1", "2", "3", "4"],
  "inference_args":"--disable_tta",
  "surface_dice_threshold": 2.0,
  "split_labels": {
    "non_mirrored": [
      {
        "name": "Level1",
        "pre_val": 1,
        "post_val": 1
      },
      {
        "name": "Level2",
        "pre_val": 2,
        "post_val": 2
      },
      {
        "name": "Level3",
        "pre_val": 3,
        "post_val": 3
      },
      {
        "name": "Level4",
        "pre_val": 4,
        "post_val": 4
      },
      {
        "name": "Level5",
        "pre_val": 5,
        "post_val": 5
      },
      {
        "name": "Level6",
        "pre_val": 6,
        "post_val": 6
      },
      {
        "name": "Level7",
        "pre_val": 7,
        "post_val": 7
      },
      {
        "name": "Level8",
        "pre_val": 8,
        "post_val": 8
      },
      {
        "name": "Level9",
        "pre_val": 9,
        "post_val": 9
      },
      {
        "name": "Level10",
        "pre_val": 10,
        "post_val": 10
      },
      {
        "name": "Level11",
        "pre_val": 11,
        "post_val": 11
      },
      {
        "name": "Level12",
        "pre_val": 12,
        "post_val": 12
      },
      {
        "name": "Level13",
        "pre_val": 13,
        "post_val": 13
      },
      {
        "name": "Level14",
        "pre_val": 14,
        "post_val": 14
      },
      {
        "name": "Level15",
        "pre_val": 15,
        "post_val": 15
      },
      {
        "name": "Level16",
        "pre_val": 16,
        "post_val": 16
      },
      {
        "name": "Level17",
        "pre_val": 17,
        "post_val": 17
      },
      {
        "name": "Level18",
        "pre_val": 18,
        "post_val": 18
      },
      {
        "name": "Level19",
        "pre_val": 19,
        "post_val": 19
      },
      {
        "name": "Level20",
        "pre_val": 20,
        "post_val": 20
      }
    ],
    "mirrored": [
    ]
  },
  "final_contours": {
            "1": {"name": "Ia", "color": [0,255,0]},            
            "2": {"name": "Ib_L", "color": [0,255,0]},
            "3": {"name": "Ib_R", "color": [255,255,0]},
            "4": {"name": "II_L", "color": [255,255,0]},
            "5": {"name": "II_R", "color": [255,255,128]},
            "6": {"name": "III_L", "color": [0,150,0]},
            "7": {"name": "III_R", "color": [0,255,0]},
            "8": {"name": "IVa_L", "color": [255,0,255]},
            "9": {"name": "IVa_R", "color": [157,79,10]},            
            "10": {"name": "IVb_L", "color": [0,255,0]},            
            "11": {"name": "IVb_R", "color": [0,255,0]},
            "12": {"name": "V_L", "color": [255,255,0]},
            "13": {"name": "V_R", "color": [255,255,0]},
            "14": {"name": "VIa", "color": [255,255,128]},
            "15": {"name": "VIb", "color": [0,150,0]},
            "16": {"name": "VIIa", "color": [0,255,0]},
            "17": {"name": "VIIb_L", "color": [255,0,255]},
            "18": {"name": "VIIb_R", "color": [157,79,10]},
            "19": {"name": "VIII_L", "color": [157,79,10]},
            "20": {"name": "VIII_R", "color": [132,255,0]}
        }
}