{
  "id": "507",
  "model_name": "Task507_KADCPT_ATLAS_merged",
  "threshold": false,
  "folds": ["0"],
  "surface_dice_threshold": 2.0,
  "split_labels": {
    "non_mirrored": [
      {
        "name": "BrainStem",
        "pre_val": 1,
        "post_val": 1
      },
      {
        "name": "Chiasm",
        "pre_val": 2,
        "post_val": 2
      },
      {
        "name": "Pituitary",
        "pre_val": 3,
        "post_val": 3
      }
    ],
    "mirrored": [
      {
        "name": "Hippocampus",
        "pre_val": 4,
        "post_val": [
          4,
          5
        ]
      },
      {
        "name": "OpticNerve",
        "pre_val": 5,
        "post_val": [
          6,
          7
        ]
      },
      {
        "name": "OpticTract",
        "pre_val": 6,
        "post_val": [
          8,
          9
        ]
      }
    ]
  },
  "final_contours": {
            "1": {"name": "BrainStem", "color": [187, 255, 187]},
            "2": {"name": "Chiasm", "color": [250, 20, 250]},
            "3": {"name": "Pituitary", "color": [128, 0, 0]},
            "4": {"name": "Hippocampus_L", "color": [0, 127, 0]},
            "5": {"name": "Hippocampus_R", "color": [0, 64, 0]},
            "6": {"name": "OpticNerve_L", "color": [0, 64, 128]},
            "7": {"name": "OpticNerve_R", "color": [0, 0, 255]},
            "8": {"name": "OpticTract_L", "color": [250, 128, 114]},
            "9": {"name": "OpticTract_R", "color": [255, 0, 128]}
        }

}