{ 
 "name": "DCPT ATLAS segmentation", 
 "description": "DCPT ATLAS segmentation with merging of left and right structures",
"reference": " DCPT",
"licence":"CC-BY-SA 4.0",
"relase":"1.0 15/08/2021",
"tensorImageSize": "3D",
"modality": { 
   "0": "T1C MRI"
  }, 
 "labels": { 
   "0": "background", 
   "1": "BrainStem",
   "2": "Chiasm",
   "3": "Pituitary",
   "4": "Hippocampus_LR",
   "5": "OpticNerve_LR",
   "6": "OpticTract_LR"
 }, 
 "numTraining": 49, 
 "numTest": 1,
 "training":[{"image":".imagesTr/AIDCPTATLAS_001.nii.gz","label":"./labelsTr/AIDCPTATLAS_001.nii.gz"},
{"image":".imagesTr/AIDCPTATLAS_002.nii.gz","label":"./labelsTr/AIDCPTATLAS_002.nii.gz"},
{"image":".imagesTr/AIDCPTATLAS_003.nii.gz","label":"./labelsTr/AIDCPTATLAS_003.nii.gz"},
{"image":".imagesTr/AIDCPTATLAS_004.nii.gz","label":"./labelsTr/AIDCPTATLAS_004.nii.gz"},
{"image":".imagesTr/AIDCPTATLAS_005.nii.gz","label":"./labelsTr/AIDCPTATLAS_005.nii.gz"},
{"image":".imagesTr/AIDCPTATLAS_006.nii.gz","label":"./labelsTr/AIDCPTATLAS_006.nii.gz"},
{"image":".imagesTr/AIDCPTATLAS_007.nii.gz","label":"./labelsTr/AIDCPTATLAS_007.nii.gz"},
{"image":".imagesTr/AIDCPTATLAS_008.nii.gz","label":"./labelsTr/AIDCPTATLAS_008.nii.gz"},
{"image":".imagesTr/AIDCPTATLAS_009.nii.gz","label":"./labelsTr/AIDCPTATLAS_009.nii.gz"},
{"image":".imagesTr/AIDCPTATLAS_010.nii.gz","label":"./labelsTr/AIDCPTATLAS_010.nii.gz"},
{"image":".imagesTr/AIDCPTATLAS_011.nii.gz","label":"./labelsTr/AIDCPTATLAS_011.nii.gz"},
{"image":".imagesTr/AIDCPTATLAS_012.nii.gz","label":"./labelsTr/AIDCPTATLAS_012.nii.gz"},
{"image":".imagesTr/AIDCPTATLAS_013.nii.gz","label":"./labelsTr/AIDCPTATLAS_013.nii.gz"},
{"image":".imagesTr/AIDCPTATLAS_014.nii.gz","label":"./labelsTr/AIDCPTATLAS_014.nii.gz"},
{"image":".imagesTr/AIDCPTATLAS_015.nii.gz","label":"./labelsTr/AIDCPTATLAS_015.nii.gz"},
{"image":".imagesTr/AIDCPTATLAS_016.nii.gz","label":"./labelsTr/AIDCPTATLAS_016.nii.gz"},
{"image":".imagesTr/AIDCPTATLAS_017.nii.gz","label":"./labelsTr/AIDCPTATLAS_017.nii.gz"},
{"image":".imagesTr/AIDCPTATLAS_018.nii.gz","label":"./labelsTr/AIDCPTATLAS_018.nii.gz"},
{"image":".imagesTr/AIDCPTATLAS_019.nii.gz","label":"./labelsTr/AIDCPTATLAS_019.nii.gz"},
{"image":".imagesTr/AIDCPTATLAS_020.nii.gz","label":"./labelsTr/AIDCPTATLAS_020.nii.gz"},
{"image":".imagesTr/AIDCPTATLAS_021.nii.gz","label":"./labelsTr/AIDCPTATLAS_021.nii.gz"},
{"image":".imagesTr/AIDCPTATLAS_022.nii.gz","label":"./labelsTr/AIDCPTATLAS_022.nii.gz"},
{"image":".imagesTr/AIDCPTATLAS_023.nii.gz","label":"./labelsTr/AIDCPTATLAS_023.nii.gz"},
{"image":".imagesTr/AIDCPTATLAS_024.nii.gz","label":"./labelsTr/AIDCPTATLAS_024.nii.gz"},
{"image":".imagesTr/AIDCPTATLAS_025.nii.gz","label":"./labelsTr/AIDCPTATLAS_025.nii.gz"},
{"image":".imagesTr/AIDCPTATLAS_026.nii.gz","label":"./labelsTr/AIDCPTATLAS_026.nii.gz"},
{"image":".imagesTr/AIDCPTATLAS_027.nii.gz","label":"./labelsTr/AIDCPTATLAS_027.nii.gz"},
{"image":".imagesTr/AIDCPTATLAS_028.nii.gz","label":"./labelsTr/AIDCPTATLAS_028.nii.gz"},
{"image":".imagesTr/AIDCPTATLAS_029.nii.gz","label":"./labelsTr/AIDCPTATLAS_029.nii.gz"},
{"image":".imagesTr/AIDCPTATLAS_030.nii.gz","label":"./labelsTr/AIDCPTATLAS_030.nii.gz"},
{"image":".imagesTr/AIDCPTATLAS_031.nii.gz","label":"./labelsTr/AIDCPTATLAS_031.nii.gz"},
{"image":".imagesTr/AIDCPTATLAS_032.nii.gz","label":"./labelsTr/AIDCPTATLAS_032.nii.gz"},
{"image":".imagesTr/AIDCPTATLAS_033.nii.gz","label":"./labelsTr/AIDCPTATLAS_033.nii.gz"},
{"image":".imagesTr/AIDCPTATLAS_034.nii.gz","label":"./labelsTr/AIDCPTATLAS_034.nii.gz"},
{"image":".imagesTr/AIDCPTATLAS_035.nii.gz","label":"./labelsTr/AIDCPTATLAS_035.nii.gz"},
{"image":".imagesTr/AIDCPTATLAS_036.nii.gz","label":"./labelsTr/AIDCPTATLAS_036.nii.gz"},
{"image":".imagesTr/AIDCPTATLAS_037.nii.gz","label":"./labelsTr/AIDCPTATLAS_037.nii.gz"},
{"image":".imagesTr/AIDCPTATLAS_038.nii.gz","label":"./labelsTr/AIDCPTATLAS_038.nii.gz"},
{"image":".imagesTr/AIDCPTATLAS_039.nii.gz","label":"./labelsTr/AIDCPTATLAS_039.nii.gz"},
{"image":".imagesTr/AIDCPTATLAS_040.nii.gz","label":"./labelsTr/AIDCPTATLAS_040.nii.gz"},
{"image":".imagesTr/AIDCPTATLAS_041.nii.gz","label":"./labelsTr/AIDCPTATLAS_041.nii.gz"},
{"image":".imagesTr/AIDCPTATLAS_042.nii.gz","label":"./labelsTr/AIDCPTATLAS_042.nii.gz"},
{"image":".imagesTr/AIDCPTATLAS_043.nii.gz","label":"./labelsTr/AIDCPTATLAS_043.nii.gz"},
{"image":".imagesTr/AIDCPTATLAS_044.nii.gz","label":"./labelsTr/AIDCPTATLAS_044.nii.gz"},
{"image":".imagesTr/AIDCPTATLAS_045.nii.gz","label":"./labelsTr/AIDCPTATLAS_045.nii.gz"},
{"image":".imagesTr/AIDCPTATLAS_046.nii.gz","label":"./labelsTr/AIDCPTATLAS_046.nii.gz"},
{"image":".imagesTr/AIDCPTATLAS_047.nii.gz","label":"./labelsTr/AIDCPTATLAS_047.nii.gz"},
{"image":".imagesTr/AIDCPTATLAS_048.nii.gz","label":"./labelsTr/AIDCPTATLAS_048.nii.gz"},
{"image":".imagesTr/AIDCPTATLAS_049.nii.gz","label":"./labelsTr/AIDCPTATLAS_049.nii.gz"}],
 "test":["./imagesTs/AIDCPTATLAS_050.nii.gz"]
 }