{
    "all_tr_losses": "[0.50700754, 0.31848192, 0.28475544, 0.23396295, 0.21375798, 0.15612166, 0.11925199, 0.07512175, 0.04808229, 0.018758046, -0.03695775, -0.04717572, -0.119693235, -0.15770404, -0.16725333, -0.21039575, -0.2129136, -0.24065335, -0.23685844, -0.25245124, -0.26872978, -0.26984948, -0.26376045, -0.27202106, -0.2976908, -0.2921992, -0.2834068, -0.2939728, -0.30007818, -0.29871538, -0.2969517, -0.3012346, -0.30584937, -0.2803441, -0.30700865, -0.32800952, -0.32688606, -0.31822807, -0.31694245, -0.31497344, -0.31509516, -0.3461567, -0.32877037, -0.30294907, -0.3546518, -0.32396656, -0.3372455, -0.35376257, -0.3470756, -0.3534542, -0.34496337, -0.3532952, -0.35385644, -0.3346233, -0.35376042, -0.36535987, -0.36277524, -0.3589879, -0.33846173, -0.36545265, -0.36480212, -0.33643964, -0.34093535, -0.3617648, -0.36340678, -0.33455023, -0.3478883, -0.3530644, -0.37292644, -0.3296903, -0.35904616, -0.3628194, -0.3587199, -0.36074898, -0.38617596, -0.38060045, -0.3556771, -0.37733227, -0.38510376, -0.38084576, -0.36666372, -0.36985058, -0.35600686, -0.36649054, -0.36428833, -0.3373349, -0.373721, -0.33803448, -0.35072222, -0.36221924, -0.38492507, -0.3430395, -0.3642415, -0.35194844, -0.3902041, -0.37993938, -0.36363968, -0.39617065, -0.37597033, -0.3855677, -0.41055652, -0.3989485, -0.3798174, -0.37552583, -0.38646078, -0.3799058, -0.38682535, -0.36786452, -0.37217927, -0.4027728, -0.3688723, -0.38211277, -0.38612333, -0.38667524, -0.4007641, -0.4033111, -0.39111736, -0.39891192, -0.3872546, -0.405875, -0.40153596, -0.41948175, -0.40042475, -0.3956288, -0.37459233, -0.39748582, -0.39602557, -0.390711, -0.41947615, -0.37438488, -0.4141397, -0.3759165, -0.39487475, -0.3648775, -0.39392737, -0.38806272, -0.42205444, -0.38392016, -0.3772077, -0.4008432, -0.36676323, -0.39151034, -0.3780326, -0.40280467, -0.40470576, -0.38987955, -0.40112087, -0.3973138, -0.40972412, -0.41101757, -0.3964831, -0.39322558, -0.41590792, -0.3992954, -0.41318858, -0.3873816, -0.39072764, -0.41542056, -0.408462, -0.40868035, -0.37785852, -0.40138215, -0.4128237, -0.40222976, -0.39219445, -0.40948877, -0.41744584, -0.39616627, -0.39625975, -0.4236231, -0.40125507, -0.40724352, -0.4180669, -0.43585205, -0.413166, -0.41473964, -0.3834245, -0.41111395, -0.3815079, -0.3835295, -0.40034923, -0.4203548, -0.42130148, -0.40871242, -0.41389215, -0.41020054, -0.38705677, -0.43059286, -0.40936658, -0.39540485, -0.4027751, -0.36827165, -0.4318385, -0.42481133, -0.38954833, -0.41327426, -0.40566552, -0.42231542, -0.4221064, -0.40737623, -0.4289903, -0.41163945, -0.39508516, -0.43190807, -0.39802444, -0.44612047, -0.41602606, -0.41403908, -0.4195618, -0.41633356, -0.41141757, -0.41490206, -0.3924244, -0.4126752, -0.39659515, -0.40245476, -0.4012423, -0.4049383, -0.43691266, -0.41518897, -0.4071884, -0.40436324, -0.4086436, -0.41257477, -0.43328518, -0.39123306, -0.41036406, -0.42819026, -0.4222292, -0.42398125, -0.41258532, -0.40831146, -0.4133048, -0.38428986, -0.4055124, -0.44439155, -0.40050852, -0.40887207, -0.41307202, -0.41740885, -0.4128337, -0.40932098, -0.420298, -0.4328025, -0.4256683, -0.4115824, -0.40868142, -0.40300098, -0.38672292, -0.38956124, -0.3739975, -0.41896218, -0.40519276, -0.3991807, -0.41090026, -0.42024946, -0.4012545, -0.3931667, -0.4256199, -0.41306102, -0.43551832, -0.3933233, -0.4132292, -0.4292152, -0.43417913, -0.4126772, -0.4320017, -0.42931536, -0.4430955, -0.42541853, -0.419723, -0.43065795, -0.41394708, -0.40723318, -0.45474574, -0.4340112, -0.42963856, -0.41818726, -0.41025227, -0.41365063, -0.43360516, -0.422755, -0.42756727, -0.41958395, -0.4240724, -0.4143753, -0.4274671, -0.42485428, -0.43876752, -0.42091373, -0.43224573, -0.43492207, -0.41229212, -0.4178935, -0.4353905, -0.4048172, -0.41097584, -0.43665355, -0.4150764, -0.43058985, -0.42384169, -0.42587164, -0.4172403, -0.427702, -0.43173692, -0.43165833, -0.43353358, -0.42643926, -0.42011335, -0.4342846, -0.44982183, -0.4565802, -0.42266607, -0.4200448, -0.41896164, -0.4470293, -0.44222718, -0.41547158, -0.4308428, -0.4404795, -0.43289605, -0.43996418, -0.44253758, -0.42436096, -0.43130395, -0.42060107, -0.44189948, -0.44487384, -0.42878798, -0.43154055, -0.4216745, -0.44011876, -0.42512527, -0.40065914, -0.4459847, -0.44215164, -0.4573796, -0.45324954, -0.43604645, -0.46542856, -0.4244552, -0.4381956, -0.46418417, -0.45154265, -0.42066333, -0.42777735, -0.4413031, -0.46142468, -0.43961954, -0.40936604, -0.42852044, -0.4358728, -0.42124027, -0.42742583, -0.39808407, -0.3941672, -0.4234514, -0.42622364, -0.41969275, -0.43947053, -0.4319904, -0.41240254, -0.42257234, -0.43919924, -0.44877532, -0.4257411, -0.43225238, -0.47884497, -0.43806243, -0.4255293, -0.43065482, -0.45362708, -0.44260097, -0.43523517, -0.4472139, -0.45405054, -0.44429642, -0.41731074, -0.40429005, -0.43683502, -0.4499978, -0.42712742, -0.44252974, -0.43431383, -0.4457691, -0.43541402, -0.41609296, -0.45717734, -0.42596972, -0.4189109, -0.41843644, -0.43604782, -0.40692902, -0.45230007, -0.44121104, -0.44654226, -0.44303912, -0.41734412, -0.44509235, -0.4292631]",
    "all_val_eval_metrics": "[0.0, 6.119013403321521e-08, 0.046282937606180054, 0.05430110297138923, 0.06551080659052845, 0.09533050679134313, 0.08600177368794304, 0.138087885984414, 0.21475202547139077, 0.19924064349876988, 0.36893675280944166, 0.44040761539027834, 0.58129318107403, 0.6173189779568932, 0.6419141129967003, 0.6760217829949867, 0.684285208410941, 0.6896980383547364, 0.6968347484783993, 0.7027467623916348, 0.7128536307557932, 0.7126637098877219, 0.697418273215447, 0.721796935003793, 0.7350177765884927, 0.7263513018379468, 0.7152506006837398, 0.7371055823063788, 0.7119959603341102, 0.7279451952553276, 0.7347860460842327, 0.7086343803110412, 0.7419773421451772, 0.7035087032205062, 0.7335914173259762, 0.7201944727113521, 0.7327655599200249, 0.7230336973851957, 0.7246636850347585, 0.7181941305955039, 0.7425000835778796, 0.7543570093671861, 0.7451198301794378, 0.7388383011150637, 0.7371447712319227, 0.7541512523221314, 0.7452393005456958, 0.7549802246465152, 0.758503991601722, 0.7463605717725647, 0.7334242086523431, 0.7518898158856054, 0.7510916401502161, 0.7462204416039131, 0.7533681946231141, 0.7536423468128581, 0.7608369825905522, 0.7628956088536053, 0.7602905033621855, 0.7588945206040889, 0.76637549469892, 0.7492878696952379, 0.7559383207750464, 0.7530501135287705, 0.7392556429437392, 0.7663837812816966, 0.7587931380777662, 0.7523977875097055, 0.7630395695960815, 0.7506517682373441, 0.7542865836101282, 0.7556714364581573, 0.746253039517282, 0.7520099100165022, 0.7600753343543395, 0.7653569676148307, 0.7582716584212875, 0.7516859499853848, 0.7576858708154574, 0.7647041135636595, 0.7555600085444283, 0.7577258984033356, 0.7457104024099045, 0.7521207165820317, 0.7361957035461006, 0.741582342570922, 0.7546420563361479, 0.7593795293925283, 0.7509050401850019, 0.7599260175882883, 0.7658999256183818, 0.7642960108884002, 0.7539069160439472, 0.7565681551742067, 0.7628669104665249, 0.7672992945172628, 0.7605000788231863, 0.7551703156534137, 0.767013825516459, 0.7663476847513714, 0.7720738045333463, 0.7741310224516912, 0.7487793770696715, 0.7613041360033436, 0.7586518523280366, 0.754419539708827, 0.7627722554704774, 0.7598853343064002, 0.7578119765019601, 0.7641734009330758, 0.7610463553422765, 0.7631475395843167, 0.7677917485971779, 0.7559968196007496, 0.7632568147970665, 0.7682992618129497, 0.7653682693147851, 0.7705465710001839, 0.7725012398297778, 0.770164008709513, 0.7544525879976883, 0.7639518314937086, 0.7672236700085109, 0.7660139163670486, 0.7703323132309002, 0.7563025319544153, 0.763985051537624, 0.7569155293398443, 0.7633882298807585, 0.7635643031857376, 0.7643100551602278, 0.7607759130591826, 0.7651474345428305, 0.7683350879657453, 0.7648399177161174, 0.7602179601437741, 0.7760788231909254, 0.7698419846512703, 0.7612108816037726, 0.7733285879603758, 0.7481411815839543, 0.7451071857265666, 0.7679904304520941, 0.7547543323497401, 0.7651858676639468, 0.7660287652742437, 0.7477327599482574, 0.7675601580620568, 0.7649495658146694, 0.7651550340186634, 0.7610254456320056, 0.7537273161818484, 0.7714048634481081, 0.7657125034714413, 0.7651881310515223, 0.7674107618674725, 0.760475660863791, 0.7658330145441471, 0.76281237607482, 0.756919034866107, 0.7616832896143273, 0.7641545106658355, 0.7515091276569191, 0.7703421182180076, 0.7658975479890853, 0.7675247502759113, 0.7678292820089507, 0.7614028972226232, 0.758697678354152, 0.7668277863726413, 0.7705560037190075, 0.7682032349087333, 0.7645400493313399, 0.7569408066595826, 0.7648163929581937, 0.7594465511339338, 0.761901322635805, 0.7668291251838064, 0.7608536780073565, 0.7681697968617541, 0.7663731209000088, 0.7730827234226162, 0.7616597126217785, 0.7636976563141143, 0.7628242506641808, 0.767754731854949, 0.7649297163711822, 0.7644930097498396, 0.765405499345589, 0.7687712350236836, 0.7632629007877418, 0.7669828879931295, 0.768414780087435, 0.7615279594058871, 0.7711330876031002, 0.76348327399831, 0.7669270732813014, 0.7677198422038778, 0.7699912275191001, 0.7650116367168965, 0.7604419067889878, 0.7779837447774302, 0.7588990402643742, 0.7681461210346402, 0.7697706783511762, 0.7773791163274976, 0.7712422360465104, 0.7674310824198837, 0.7665480074821286, 0.7683669567625816, 0.7559950583794653, 0.7748887349106635, 0.7359847578846002, 0.767360704606157, 0.7646201416220219, 0.7632949207172657, 0.769316589253192, 0.7674775120489385, 0.7649328887617877, 0.7655292128289055, 0.7710339117526693, 0.7664241472739441, 0.7664029322508976, 0.7687888609644026, 0.7739871072715744, 0.7721104456230534, 0.7718857163171973, 0.7639105670185018, 0.7711639630876629, 0.7660106041466921, 0.7656910688336315, 0.7603007525048497, 0.7648190133963311, 0.768402933123361, 0.7726341283676533, 0.7647282420388838, 0.7667236635539577, 0.7662497667429953, 0.7625073839878673, 0.7670878430445299, 0.7651924992750726, 0.7473346282197824, 0.7671755302682233, 0.7735288567330424, 0.7762123624082911, 0.765887205994209, 0.7647756577735509, 0.7757543321154103, 0.7719504354270719, 0.7719830742537547, 0.7612513369466992, 0.7706416741604141, 0.7551661463891595, 0.7756569563611898, 0.7701754773685241, 0.7674209658711116, 0.7696970036765696, 0.7720404931022934, 0.7611700081928376, 0.772229542436721, 0.7736594097694631, 0.7715697727708879, 0.763992315519998, 0.7451295015386673, 0.7744345009522923, 0.777065097057633, 0.7793759347930366, 0.7838110593687856, 0.7830995154867114, 0.7859129260677586, 0.7868395678297297, 0.7868912832925012, 0.7906757178722992, 0.779876693917937, 0.7858503789944276, 0.7918835064485695, 0.7823936717719959, 0.7866406139547415, 0.775017904417453, 0.7837739215502274, 0.7740122944082252, 0.787193030877006, 0.7936280166735241, 0.7699606751114881, 0.7662011953843262, 0.7844418540929076, 0.7931513270136864, 0.7887318990472003, 0.7893042268491584, 0.7957797099308211, 0.7873464182928618, 0.7965035818100522, 0.7871286239817666, 0.8004532166654901, 0.7786719257221745, 0.7895198030324614, 0.7922058447039791, 0.7887043760850344, 0.7925441024141567, 0.7804311966936189, 0.7995338197409944, 0.7864681248005141, 0.7878963744231068, 0.7916302974207557, 0.7875754341543723, 0.7794466768101258, 0.7953945218184381, 0.7551262838251042, 0.7941286137956319, 0.790929391877746, 0.7833251796749893, 0.8050741871886032, 0.7920861736362871, 0.7907262209266475, 0.8002047710384019, 0.7894127485313966, 0.7990175540181116, 0.7979485190545642, 0.7959044538680048, 0.7800487434653554, 0.7881671883038767, 0.7936508272824107, 0.7845883873786302, 0.7884745110601474, 0.7785101756022302, 0.7863787635650997, 0.7941304474146581, 0.8013374894217825, 0.7925312923410385, 0.7921910870506917, 0.7909952775241372, 0.78765767345911, 0.7939266237058437, 0.774496820924425, 0.7953625607779071, 0.8014315371160342, 0.7777271470936186, 0.8024316943923221, 0.7935936756627254, 0.7900382198436519, 0.7785584797017087, 0.7984747676031919, 0.7892558207358884, 0.7927021880756177, 0.7763568023325514, 0.782653895211837, 0.8022851718813232, 0.7766396815233698, 0.788232997009176, 0.7879050962378424, 0.7621720146269443, 0.7966059118519522, 0.7849619500107977, 0.7928340044350372, 0.7812628849296872, 0.7931251236073603, 0.7974783197651604, 0.7907080620617815, 0.7588097965537148, 0.7729190552104668, 0.6967543481555519, 0.7950621381922892, 0.7739334759284724, 0.7996645999001825, 0.7961678470267283, 0.7937670956602222, 0.7996074508323955, 0.7940061714283513, 0.797081542869374, 0.7940924440642777, 0.7841736892774885, 0.7970420806505881, 0.7942634862184295, 0.7926655909266678, 0.7904350743876176, 0.7896132688634865, 0.7900578006282214, 0.7050129691260135, 0.7697936351276057, 0.7837810854993205, 0.8022753304026086, 0.7974047129098082, 0.8066143396358662, 0.8040307037828828, 0.7938771268326142, 0.7914625224692494, 0.7974826652526352, 0.8008814902001582, 0.7817270290047567, 0.7934310056715539, 0.7910873177943988, 0.7944094010836313, 0.7863710654352633, 0.802257562369192, 0.7862724201857749, 0.7938895516713859, 0.7594681935442306, 0.8003689188743496, 0.7718579526075242, 0.7911882677519284]",
    "all_val_losses": "[0.3246817, 0.2913984, 0.25892887, 0.19579197, 0.14962783, 0.12491694, 0.12044081, 0.0059618033, -0.02591311, -0.066534474, -0.0867716, -0.16439633, -0.24073653, -0.235117, -0.25961962, -0.30083898, -0.3179817, -0.336794, -0.31746176, -0.30536902, -0.3636237, -0.34378383, -0.37299255, -0.33055577, -0.3576535, -0.38841203, -0.3348105, -0.40079305, -0.33196732, -0.33314714, -0.42505318, -0.3450812, -0.37072226, -0.33906865, -0.34818092, -0.35799548, -0.38913968, -0.4019764, -0.38885745, -0.40789744, -0.40890694, -0.36549655, -0.37516415, -0.35771865, -0.3565137, -0.44075942, -0.37341538, -0.428654, -0.36569405, -0.37063405, -0.33362374, -0.40131226, -0.39814404, -0.38264534, -0.40752012, -0.40320337, -0.3820264, -0.4197298, -0.36805427, -0.4115463, -0.3694995, -0.4066645, -0.42946953, -0.39076152, -0.3693716, -0.42200467, -0.39902717, -0.37670624, -0.40079394, -0.39977828, -0.40006226, -0.38553187, -0.37447163, -0.4350255, -0.3727529, -0.45509484, -0.40589875, -0.41321778, -0.3639622, -0.3906324, -0.40708968, -0.39937487, -0.38851467, -0.40237963, -0.4075184, -0.36183685, -0.41319257, -0.42348072, -0.3577292, -0.41727507, -0.40920126, -0.37682715, -0.41709998, -0.4177009, -0.42337728, -0.4128448, -0.37380382, -0.36458924, -0.4080993, -0.4061026, -0.396915, -0.44100076, -0.42297757, -0.4167249, -0.37271458, -0.41415069, -0.39657527, -0.3832663, -0.3909941, -0.38690844, -0.4137505, -0.4143298, -0.41729653, -0.3877769, -0.3821084, -0.45222804, -0.42533043, -0.3950287, -0.43659347, -0.42472494, -0.3761225, -0.42262816, -0.41815263, -0.41635704, -0.42870635, -0.41958547, -0.3789767, -0.40442345, -0.4259261, -0.3866081, -0.4187217, -0.40998304, -0.40153325, -0.44274747, -0.4280286, -0.39864394, -0.43545318, -0.43917987, -0.4098414, -0.43852332, -0.3802092, -0.3970777, -0.4349728, -0.3858051, -0.39687046, -0.40222245, -0.43640223, -0.41125146, -0.39765865, -0.38723928, -0.3983101, -0.38600785, -0.43079507, -0.41498542, -0.40059415, -0.4290489, -0.38627872, -0.42244637, -0.38889554, -0.40534133, -0.4119595, -0.40841305, -0.42735457, -0.3629257, -0.41274565, -0.46577445, -0.40823242, -0.39843696, -0.3720371, -0.408011, -0.411923, -0.4264258, -0.41577336, -0.44316787, -0.43805778, -0.4324318, -0.3902066, -0.38658562, -0.42638075, -0.4064192, -0.4204574, -0.4172081, -0.39067093, -0.42407712, -0.42678878, -0.41297758, -0.39995563, -0.40207797, -0.41493905, -0.39984024, -0.42167962, -0.3711503, -0.39899474, -0.42297578, -0.41250816, -0.40829307, -0.42368153, -0.39780226, -0.406894, -0.4370993, -0.37438014, -0.41668773, -0.41491845, -0.44338256, -0.39402038, -0.4254291, -0.43516132, -0.40206397, -0.3893516, -0.40918994, -0.40723607, -0.4407291, -0.36194095, -0.42328158, -0.3884369, -0.39666325, -0.44255725, -0.4451752, -0.37679064, -0.3838724, -0.3867595, -0.40025815, -0.44023836, -0.41788423, -0.42973447, -0.3936934, -0.43470338, -0.4212724, -0.41524604, -0.4140663, -0.4296308, -0.40909818, -0.42447773, -0.42279506, -0.4379419, -0.4168065, -0.40156212, -0.4367388, -0.40581986, -0.37469262, -0.413165, -0.40432382, -0.38645184, -0.4426383, -0.42712387, -0.42538464, -0.41854936, -0.41971272, -0.44297573, -0.43295652, -0.3677687, -0.41150042, -0.39590776, -0.42947182, -0.4087484, -0.39626926, -0.41270572, -0.39364478, -0.39923152, -0.4358542, -0.46284908, -0.43276197, -0.42055774, -0.3818952, -0.39021638, -0.40698913, -0.41525164, -0.40057954, -0.38963455, -0.41860798, -0.4000785, -0.41567668, -0.42149207, -0.40485176, -0.39712888, -0.45244992, -0.40166056, -0.43967357, -0.3928334, -0.41847184, -0.33340538, -0.38939342, -0.4194136, -0.3999079, -0.43893746, -0.38768846, -0.40738267, -0.43519306, -0.4292208, -0.39569482, -0.3509143, -0.4461158, -0.41283467, -0.45074487, -0.42086384, -0.43076402, -0.40722048, -0.44207844, -0.43532026, -0.4280144, -0.48855296, -0.42346793, -0.40601155, -0.43593872, -0.4019649, -0.40089867, -0.44601712, -0.34287965, -0.40910935, -0.44707572, -0.43024486, -0.40889072, -0.39070284, -0.40008992, -0.42797077, -0.47327125, -0.444399, -0.39742103, -0.43773526, -0.4409883, -0.39743358, -0.4181773, -0.4124471, -0.4054023, -0.4159302, -0.4358387, -0.43820563, -0.40583676, -0.41864273, -0.41335097, -0.38694072, -0.3753903, -0.44138753, -0.44378033, -0.41617718, -0.43275046, -0.44350803, -0.38783827, -0.42997712, -0.3944742, -0.41572285, -0.42958507, -0.4040807, -0.42503226, -0.39438245, -0.38763726, -0.4321552, -0.3987122, -0.4216878, -0.42211804, -0.37648937, -0.41209206, -0.40675014, -0.42148003, -0.38677293, -0.4125758, -0.42722428, -0.39736974, -0.3659581, -0.37652504, -0.40945682, -0.4170361, -0.4129799, -0.4216795, -0.4349316, -0.43156233, -0.41345656, -0.41734412, -0.44867733, -0.3964099, -0.43773034, -0.4077347, -0.43164542, -0.42421657, -0.42947224, -0.40798622, -0.40525043, -0.37281644, -0.42475957, -0.40375745, -0.41323242, -0.43532035, -0.4795261, -0.43170673, -0.4729354, -0.45861965, -0.39451683, -0.43961048, -0.42544472, -0.4339429, -0.4031436, -0.42385092, -0.3930059, -0.4568716, -0.44267446, -0.41219735, -0.40136325, -0.41681844, -0.4349157, -0.4234803]",
    "all_val_losses_tr_mode": "[]",
    "also_val_in_tr_mode": "False",
    "amp_grad_scaler": "<torch.cuda.amp.grad_scaler.GradScaler object at 0x7f508efb9700>",
    "base_num_features": "32",
    "basic_generator_patch_size": "[178 289 200]",
    "batch_dice": "True",
    "batch_size": "2",
    "best_MA_tr_loss_for_patience": "-0.43890312752520444",
    "best_epoch_based_on_MA_tr_loss": "369",
    "best_val_eval_criterion_MA": "0.7918519552810787",
    "classes": "[1, 2, 3, 4, 5, 6, 7, 8, 9, 10, 11, 12]",
    "conv_per_stage": "2",
    "data_aug_params": "{'selected_data_channels': None, 'selected_seg_channels': [0], 'do_elastic': False, 'elastic_deform_alpha': (0.0, 900.0), 'elastic_deform_sigma': (9.0, 13.0), 'p_eldef': 0.2, 'do_scaling': True, 'scale_range': (0.7, 1.4), 'independent_scale_factor_for_each_axis': False, 'p_independent_scale_per_axis': 1, 'p_scale': 0.2, 'do_rotation': True, 'rotation_x': (-0.5235987755982988, 0.5235987755982988), 'rotation_y': (-0.5235987755982988, 0.5235987755982988), 'rotation_z': (-0.5235987755982988, 0.5235987755982988), 'rotation_p_per_axis': 1, 'p_rot': 0.2, 'random_crop': False, 'random_crop_dist_to_border': None, 'do_gamma': True, 'gamma_retain_stats': True, 'gamma_range': (0.7, 1.5), 'p_gamma': 0.3, 'do_mirror': False, 'mirror_axes': (0, 1, 2), 'dummy_2D': False, 'mask_was_used_for_normalization': OrderedDict([(0, False)]), 'border_mode_data': 'constant', 'all_segmentation_labels': None, 'move_last_seg_chanel_to_data': False, 'cascade_do_cascade_augmentations': False, 'cascade_random_binary_transform_p': 0.4, 'cascade_random_binary_transform_p_per_label': 1, 'cascade_random_binary_transform_size': (1, 8), 'cascade_remove_conn_comp_p': 0.2, 'cascade_remove_conn_comp_max_size_percent_threshold': 0.15, 'cascade_remove_conn_comp_fill_with_other_class_p': 0.0, 'do_additive_brightness': False, 'additive_brightness_p_per_sample': 0.15, 'additive_brightness_p_per_channel': 0.5, 'additive_brightness_mu': 0.0, 'additive_brightness_sigma': 0.1, 'num_threads': 12, 'num_cached_per_thread': 2, 'patch_size_for_spatialtransform': array([ 64, 192, 160])}",
    "dataset_directory": "/data/jeskal/projects/nnUNet/nnUNet_preprocessed/Task521_T_Mamma_LumR",
    "deep_supervision_scales": "[[1, 1, 1], [1.0, 0.5, 0.5], [0.5, 0.25, 0.25], [0.25, 0.125, 0.125], [0.125, 0.0625, 0.0625]]",
    "deterministic": "False",
    "dl_tr": "<nnunet.training.dataloading.dataset_loading.DataLoader3D object at 0x7f508efb9760>",
    "dl_val": "<nnunet.training.dataloading.dataset_loading.DataLoader3D object at 0x7f508ef23760>",
    "do_dummy_2D_aug": "False",
    "ds_loss_weights": "[0.53333333 0.26666667 0.13333333 0.06666667 0.        ]",
    "epoch": "400",
    "experiment_name": "nnUNetTrainerV2",
    "fold": "0",
    "folder_with_preprocessed_data": "/data/jeskal/projects/nnUNet/nnUNet_preprocessed/Task521_T_Mamma_LumR/nnUNetData_plans_v2.1_stage1",
    "fp16": "True",
    "gt_niftis_folder": "/data/jeskal/projects/nnUNet/nnUNet_preprocessed/Task521_T_Mamma_LumR/gt_segmentations",
    "inference_pad_border_mode": "constant",
    "inference_pad_kwargs": "{'constant_values': 0}",
    "init_args": "('/data/jeskal/projects/nnUNet/nnUNet_preprocessed/Task521_T_Mamma_LumR/nnUNetPlansv2.1_plans_3D.pkl', 0, '/data/jeskal/projects/nnUNet/nnUNet_trained_models/nnUNet/3d_fullres/Task521_T_Mamma_LumR/nnUNetTrainerV2__nnUNetPlansv2.1', '/data/jeskal/projects/nnUNet/nnUNet_preprocessed/Task521_T_Mamma_LumR', True, 1, True, False, True)",
    "initial_lr": "0.01",
    "log_file": "/data/jeskal/projects/nnUNet/nnUNet_trained_models/nnUNet/3d_fullres/Task521_T_Mamma_LumR/nnUNetTrainerV2__nnUNetPlansv2.1/fold_0/training_log_2023_2_10_10_21_08.txt",
    "lr_scheduler": "None",
    "lr_scheduler_eps": "0.001",
    "lr_scheduler_patience": "30",
    "lr_threshold": "1e-06",
    "max_num_epochs": "1000",
    "min_region_size_per_class": "None",
    "min_size_per_class": "None",
    "net_conv_kernel_sizes": "[[1, 3, 3], [3, 3, 3], [3, 3, 3], [3, 3, 3], [3, 3, 3], [3, 3, 3]]",
    "net_num_pool_op_kernel_sizes": "[[1, 2, 2], [2, 2, 2], [2, 2, 2], [2, 2, 2], [2, 2, 2]]",
    "net_pool_per_axis": "[4, 5, 5]",
    "normalization_schemes": "OrderedDict([(0, 'nonCT')])",
    "num_batches_per_epoch": "250",
    "num_classes": "13",
    "num_input_channels": "1",
    "num_val_batches_per_epoch": "50",
    "online_eval_fn": "[]",
    "online_eval_foreground_dc": "[]",
    "online_eval_fp": "[]",
    "online_eval_tp": "[]",
    "only_keep_largest_connected_component": "None",
    "optimizer": "SGD (\nParameter Group 0\n    dampening: 0\n    differentiable: False\n    foreach: None\n    lr: 0.006314458674893553\n    maximize: False\n    momentum: 0.99\n    nesterov: True\n    weight_decay: 3e-05\n)",
    "output_folder": "/data/jeskal/projects/nnUNet/nnUNet_trained_models/nnUNet/3d_fullres/Task521_T_Mamma_LumR/nnUNetTrainerV2__nnUNetPlansv2.1/fold_0",
    "output_folder_base": "/data/jeskal/projects/nnUNet/nnUNet_trained_models/nnUNet/3d_fullres/Task521_T_Mamma_LumR/nnUNetTrainerV2__nnUNetPlansv2.1",
    "oversample_foreground_percent": "0.33",
    "pad_all_sides": "None",
    "patch_size": "[ 64 192 160]",
    "patience": "50",
    "pin_memory": "True",
    "plans_file": "/data/jeskal/projects/nnUNet/nnUNet_preprocessed/Task521_T_Mamma_LumR/nnUNetPlansv2.1_plans_3D.pkl",
    "regions_class_order": "None",
    "save_best_checkpoint": "True",
    "save_every": "50",
    "save_final_checkpoint": "True",
    "save_intermediate_checkpoints": "True",
    "save_latest_only": "True",
    "stage": "1",
    "threeD": "True",
    "tr_gen": "<batchgenerators.dataloading.multi_threaded_augmenter.MultiThreadedAugmenter object at 0x7f508ef23940>",
    "train_loss_MA": "None",
    "train_loss_MA_alpha": "0.93",
    "train_loss_MA_eps": "0.0005",
    "transpose_backward": "[0, 1, 2]",
    "transpose_forward": "[0, 1, 2]",
    "unpack_data": "True",
    "use_mask_for_norm": "OrderedDict([(0, False)])",
    "use_progress_bar": "False",
    "val_eval_criterion_MA": "None",
    "val_eval_criterion_alpha": "0.9",
    "val_gen": "<batchgenerators.dataloading.multi_threaded_augmenter.MultiThreadedAugmenter object at 0x7f508ef3ac70>",
    "was_initialized": "True",
    "weight_decay": "3e-05"
}