{
    "all_tr_losses": "[0.5456784, 0.35122883, 0.28799602, 0.23072375, 0.17514643, 0.13402753, 0.09370494, 0.041845847, -0.009149628, -0.05752024, -0.09617412, -0.16902842, -0.17469302, -0.18284647, -0.20687127, -0.24755634, -0.29469407, -0.29680714, -0.325858, -0.31937087, -0.31119016, -0.33207825, -0.33387658, -0.32883242, -0.33703265, -0.35017478, -0.3595299, -0.35427862, -0.3533801, -0.33439618, -0.34520495, -0.34594035, -0.36182684, -0.352657, -0.36395374, -0.3589527, -0.36652306, -0.3538139, -0.38861153, -0.3384366, -0.36739168, -0.3808957, -0.3855716, -0.39698797, -0.35516277, -0.37950504, -0.3768806, -0.3900847, -0.38972247, -0.3947626, -0.39262208, -0.40051007, -0.3884289, -0.40776178, -0.37394297, -0.37896326, -0.39163792, -0.38906142, -0.39906877, -0.40530962, -0.36354718, -0.4000861, -0.3990641, -0.4173839, -0.35612744, -0.38887373, -0.39120308, -0.4199158, -0.40047586, -0.39242494, -0.3882805, -0.39790007, -0.39476222, -0.41149628, -0.408855, -0.41664192, -0.40862164, -0.41367638, -0.4261809, -0.41568047, -0.40556073, -0.42180377, -0.4056022, -0.41278705, -0.42269653, -0.41467315, -0.40654162, -0.4232702, -0.42466614, -0.4475087, -0.42220587, -0.4192624, -0.41706088, -0.41885048, -0.42886353, -0.43085822, -0.43323043, -0.41723382, -0.42942566, -0.41959614, -0.4119357, -0.42411622, -0.43082008, -0.4489772, -0.43206885, -0.42894733, -0.42285684, -0.43994826, -0.43902323, -0.44858453, -0.46399313, -0.45322838, -0.45373318, -0.45749757, -0.44949225, -0.45112967, -0.4453048, -0.4508733, -0.43004277, -0.453142, -0.46250665, -0.44452962, -0.4442654, -0.44419953, -0.466358, -0.4548612, -0.46928108, -0.4212171, -0.42688733, -0.4487169, -0.4629204, -0.43255737, -0.44133395, -0.44150883, -0.47388518, -0.4606862, -0.47304425, -0.46580595, -0.4334309, -0.45758417, -0.4561939, -0.47305623, -0.45756367, -0.4635186, -0.45824668, -0.4742602, -0.46160454, -0.4443745, -0.4730652, -0.45105994, -0.4534257, -0.467911, -0.45231923, -0.4385182, -0.45079318, -0.4625932, -0.46456683, -0.46211776, -0.46579358, -0.45150024, -0.4475392, -0.44376922, -0.43149, -0.4732864, -0.47080538, -0.48051807, -0.45250043, -0.44457522, -0.4276373, -0.47263104, -0.461778, -0.46736312, -0.4589151, -0.47501954, -0.45807147, -0.4879273, -0.47321498, -0.47031054, -0.44880673, -0.45561707, -0.475485, -0.47287056, -0.47114623, -0.455202, -0.48498937, -0.48419032, -0.47226954, -0.46688947, -0.46740556, -0.4940473, -0.4618682, -0.46961802, -0.4972982, -0.5099536, -0.46515453, -0.48283136, -0.46497643, -0.47288325, -0.49561027, -0.4872277, -0.44313154, -0.47297794, -0.47889948, -0.49691725, -0.49938327, -0.49081632, -0.47780913, -0.4671179, -0.48355573, -0.5000254, -0.48801392, -0.4795812, -0.46315217, -0.48224768, -0.49337247, -0.46998742, -0.4863022, -0.49279815, -0.48681775, -0.47260764, -0.48292994, -0.4882053, -0.48204005, -0.48510388, -0.4876314, -0.46720526, -0.49179465, -0.4982931, -0.4818015, -0.47867447, -0.4764461, -0.46676844, -0.49423927, -0.49701887, -0.4672575, -0.46868917, -0.48873436, -0.48158672, -0.50350726, -0.4950948, -0.50559354, -0.5015444, -0.4922826, -0.48653328, -0.48249286, -0.4805799, -0.47854304, -0.47803468, -0.47963434, -0.4743227, -0.4836103, -0.47758836, -0.5078154, -0.4643923, -0.480316, -0.46616796, -0.48252392, -0.48831382, -0.47337207, -0.478889, -0.498936, -0.48731843, -0.45319235, -0.5190655, -0.49978516, -0.50170004, -0.47599223, -0.496538, -0.49179402, -0.48604396, -0.47646827, -0.46563664, -0.5094942, -0.4868639, -0.47443247, -0.47403112, -0.48175266, -0.50113076, -0.4871085, -0.4944089, -0.4730152, -0.47965795, -0.46344495, -0.49471754, -0.470858, -0.4931922, -0.47242787, -0.5021653, -0.49100593, -0.48885903, -0.5011952, -0.4879445, -0.5155244, -0.4938053, -0.4950249, -0.5041486, -0.4969309, -0.4962526, -0.4862948, -0.49494866, -0.51124144, -0.49360853, -0.497536, -0.45908788, -0.48416498, -0.4729307, -0.4881901, -0.5044496, -0.4716955, -0.50567776, -0.4893723, -0.48531213, -0.4986309, -0.48095044, -0.4842777, -0.48312244, -0.5045398, -0.46577325, -0.49947417, -0.49881563, -0.51147723, -0.48415363, -0.48696744, -0.48153365, -0.48666814, -0.4832946, -0.5070715, -0.48346686, -0.50184536, -0.49445212, -0.47946385, -0.49586353, -0.49478155, -0.49589953, -0.5055052, -0.50339615, -0.5070233, -0.48674434, -0.49485284, -0.4733712, -0.49207655, -0.4859668, -0.49447435, -0.46784136, -0.49508116, -0.49941376, -0.4799948, -0.47801495, -0.48841316, -0.5006988, -0.47878176, -0.5043765, -0.5135722, -0.5204384, -0.5041855, -0.53945976, -0.5046561, -0.52048767, -0.4964189, -0.49489993, -0.504725, -0.5110638, -0.49216187, -0.5126002, -0.5047368, -0.48757592, -0.49330384, -0.5036339, -0.5011932, -0.50689864, -0.4860297, -0.507051, -0.4925914, -0.49452075, -0.4928901, -0.49031407, -0.49066597, -0.49470875, -0.49939963, -0.51437813, -0.48421776, -0.50449264, -0.51564884, -0.50221497, -0.49423343, -0.52000463, -0.49950495, -0.4899005, -0.47951058, -0.5064222, -0.50129205, -0.49404937, -0.472388, -0.48914903, -0.49469462, -0.4982787, -0.49181488, -0.48570788, -0.4877547, -0.49620754, -0.50843865, -0.47804317, -0.5014873, -0.5235471, -0.49985486, -0.50698733, -0.5131902, -0.47244853, -0.5300635, -0.512959, -0.4963036, -0.5012634, -0.48992833, -0.5013812, -0.51164526, -0.507265, -0.5064603, -0.50807196, -0.5000615, -0.5060067, -0.5090956, -0.50584775, -0.52167445, -0.49011835, -0.52062243, -0.5184032, -0.51765007, -0.52772355, -0.5223433, -0.5155032, -0.5053391, -0.4729015, -0.4684472, -0.4835471, -0.5204657, -0.50451046, -0.4794508, -0.49924254, -0.4930143, -0.4837606, -0.5054086, -0.47820038, -0.49599782, -0.50568736, -0.50990516, -0.532912, -0.5170176, -0.5139767, -0.5018288, -0.47990972, -0.5014393, -0.50981545, -0.48674303, -0.5044352, -0.49344978, -0.53351885, -0.513852, -0.49263766, -0.51616603, -0.50342, -0.49053407, -0.51304054, -0.5074173, -0.52894384, -0.52712727, -0.46380702, -0.5229331, -0.5137226, -0.5012623, -0.49293983, -0.51019514, -0.49754727, -0.50327003, -0.4993286, -0.50619566, -0.5295161, -0.50823873, -0.5047463, -0.5233185, -0.53440356, -0.5108227, -0.5277157, -0.5044556, -0.5235492, -0.5154135, -0.5009159, -0.51990086, -0.49383518, -0.528128, -0.50323254, -0.50649977, -0.499416, -0.52252305, -0.5243573, -0.51523393, -0.48014662, -0.48376885, -0.5169736, -0.5016661, -0.5055105, -0.5096519, -0.500207, -0.50514615, -0.51138765, -0.54129994, -0.5059889, -0.5260831, -0.50504595, -0.5165284, -0.48803398, -0.5274596, -0.50133604, -0.5178635, -0.5083842, -0.55241895, -0.5330416, -0.5162816, -0.49746507, -0.51235306, -0.53250265, -0.5051595, -0.5069688, -0.5014099, -0.4912401, -0.51225084, -0.5045658, -0.50681293, -0.4963456, -0.49462947, -0.5209167, -0.51550514, -0.5267094, -0.5331844, -0.5002085, -0.5040735, -0.52583677, -0.54844564, -0.53636646, -0.5196674, -0.48942316, -0.5057661, -0.49086332, -0.53741425, -0.495377, -0.53580326, -0.4803051, -0.5275177, -0.5184082, -0.5069858, -0.52345806, -0.499487, -0.5205807, -0.5196738, -0.5117034, -0.4885719, -0.5092381, -0.50511014, -0.5372191, -0.5000147, -0.5368304, -0.5208072, -0.51229095, -0.5311099, -0.52505153, -0.5484903, -0.52218944, -0.5367985, -0.4982023, -0.5291775, -0.523542, -0.51277465, -0.4999917, -0.50166565, -0.5035038, -0.49571514, -0.51644826, -0.51534986, -0.51439893, -0.5281073, -0.5366958, -0.50411916, -0.52601683, -0.5147846, -0.49738398, -0.48931324, -0.51272607, -0.49069008, -0.5078366, -0.5187577, -0.51424116, -0.49540007, -0.50078773, -0.5197842, -0.52177215, -0.52095824, -0.49809492, -0.5204269, -0.5135432, -0.51511616, -0.510453, -0.5066515, -0.5034653, -0.5475671, -0.4965672, -0.52245533, -0.5020891, -0.48903567, -0.4994703, -0.5097531, -0.5375158, -0.5197728, -0.51474, -0.4851002, -0.4937915, -0.5075465, -0.52285016, -0.51914144, -0.51353896, -0.51979864, -0.52684927, -0.52237475, -0.5150028, -0.52151895, -0.51315075, -0.49522203, -0.53419775, -0.5218893, -0.5330609, -0.5260107, -0.5279435, -0.5125936, -0.5436369, -0.5355675, -0.5267924, -0.5282036, -0.51320887, -0.5039268, -0.5213475, -0.5293873, -0.5211806, -0.5354489, -0.51235646, -0.49904487, -0.532418, -0.52060586, -0.5219701, -0.51505065, -0.52622825, -0.52584755, -0.5182752, -0.53063107, -0.53074086, -0.52311206, -0.51873475, -0.53168637, -0.5363465, -0.5153511, -0.5478719, -0.5502618, -0.53370655, -0.5267191, -0.528374, -0.5362722, -0.5240272, -0.51549566, -0.54198796, -0.53277636, -0.52691054, -0.5357338, -0.52103394, -0.5229171, -0.51954186, -0.5236799, -0.5458181, -0.53671926, -0.533644, -0.5216865, -0.47599518, -0.51163375, -0.52672875, -0.53257495, -0.536446, -0.53862643, -0.5412889, -0.5247499, -0.5315268, -0.52246284, -0.5215658, -0.49025756, -0.52458745, -0.5034903, -0.5238613, -0.48455426, -0.50736374, -0.52392924, -0.50903326, -0.49987975, -0.518, -0.5163277, -0.51975614, -0.52393746, -0.5079067, -0.51830393, -0.52513635, -0.5171842, -0.5115998, -0.5364843, -0.53916144, -0.5325386, -0.5425866, -0.521228, -0.51755154, -0.5303639, -0.5165833, -0.5127802, -0.5233769, -0.5155066, -0.5236036, -0.5239866, -0.52786255, -0.50203276, -0.5379628, -0.5343158, -0.5340527, -0.52721936, -0.5325551, -0.52865976, -0.55054635, -0.53873456, -0.5394964, -0.5470642, -0.5619357, -0.52747434, -0.5277594, -0.5377968, -0.5479436, -0.5257555, -0.52273023, -0.5364028, -0.50750816, -0.5221986, -0.5357264, -0.5312376, -0.51215816, -0.53818667, -0.5312693, -0.5362583, -0.50825167, -0.51540095, -0.505286, -0.51410604, -0.52468866, -0.5088506, -0.53066784, -0.5406058, -0.52770066, -0.5314463, -0.52819777, -0.5457915, -0.5183242, -0.5445486, -0.52228403, -0.52258074, -0.515815, -0.52726316, -0.54385895, -0.50692856, -0.52038765, -0.54250234, -0.5312655, -0.5552161, -0.5374118, -0.51708716, -0.54746383, -0.5278712, -0.5389361, -0.5519875, -0.52865857, -0.53857166, -0.53146327, -0.54264146, -0.5397639, -0.53125095, -0.550419, -0.5386929, -0.5472502, -0.54289246, -0.54655004, -0.5395346, -0.5194237, -0.51727057, -0.5312372, -0.54933643, -0.52433264, -0.5378205, -0.53538495, -0.5578418, -0.54478407, -0.5350776, -0.5261622, -0.5094542, -0.51925594, -0.53881055, -0.52480507, -0.53244436, -0.5448383, -0.52360255, -0.5383077, -0.52980787, -0.5438359, -0.54022676, -0.52376354, -0.553005, -0.54052705, -0.55518997, -0.5268801, -0.5225337, -0.534541, -0.5413843, -0.5548986, -0.5471488, -0.5418399, -0.53722036, -0.5421372, -0.5308053, -0.5315156, -0.54995847, -0.54757327, -0.55243886, -0.53152376, -0.5269646, -0.53617114, -0.5331445, -0.5479316, -0.5350584, -0.56722534, -0.5562041, -0.5395542, -0.5085122, -0.5507363, -0.5528954, -0.5415736, -0.54579943, -0.5499234, -0.5086896, -0.5268307, -0.5108436, -0.56074274, -0.5480731, -0.5376161]",
    "all_val_eval_metrics": "[0.0, 0.03896339124457109, 0.051198482819764295, 0.07638286295243024, 0.10285641187443982, 0.13668676677451666, 0.1258257586719989, 0.25044239052603995, 0.30352843679471797, 0.35084164165566306, 0.39421638248867047, 0.4841866944778399, 0.4710924364077498, 0.566062156982171, 0.5749057279011397, 0.6181056995273192, 0.6103821936683187, 0.6264587975009086, 0.6364169090383731, 0.6676496709705241, 0.6204523400311183, 0.6620933284096137, 0.6293131340807855, 0.638008762195421, 0.6576036513432588, 0.6756791860313535, 0.6503555415172945, 0.6908759116892818, 0.655601194877945, 0.6677409393860162, 0.6590047323139189, 0.6619361084847553, 0.6672547015029751, 0.6795005208592415, 0.687734854118739, 0.6728848155296803, 0.6506179905719577, 0.6714667894964312, 0.6675378067739414, 0.6653737311602564, 0.6853559212227179, 0.6529162464157993, 0.6707468599860866, 0.6903881733609416, 0.6806879563204761, 0.6969790651017501, 0.6767959909947151, 0.6919368755083602, 0.6872791845648959, 0.710388820026528, 0.6866437349404338, 0.6702701898130757, 0.6785400383908866, 0.6784124218183477, 0.6536316593069276, 0.6695597349598361, 0.6811022031572164, 0.6892803462226107, 0.6871569523407124, 0.6592044965480877, 0.6662016688780263, 0.6807616276245472, 0.6854731417946177, 0.6968023777857494, 0.6769539467571036, 0.6754084201007239, 0.6807321447560006, 0.6563814191541999, 0.6499176828494003, 0.6558952040291484, 0.7019562321040576, 0.6583911445110293, 0.7007512206466239, 0.7185754730304599, 0.6706268410728911, 0.7027487720949632, 0.6910317025378376, 0.7053549694398508, 0.6725029186811783, 0.6711848725452133, 0.6839893354884985, 0.674864731341997, 0.6665915236750878, 0.715558698155466, 0.689475225613598, 0.6873392096920319, 0.6863686587694336, 0.6957002537610056, 0.6859339416869128, 0.6902975757737129, 0.7058467662277814, 0.692417304298673, 0.7029592100234694, 0.6844453231406274, 0.6941449993631874, 0.7005587973547331, 0.7243394301307402, 0.6799449262860504, 0.680591705543699, 0.6680042540861258, 0.7064063584178802, 0.6954558226103962, 0.6897172136314546, 0.6960072772398804, 0.6850865811695548, 0.7232696062394632, 0.6955731628546005, 0.741400233320364, 0.7019635364141998, 0.725528172018248, 0.6934560535016664, 0.7089293263872037, 0.7076828483175371, 0.7108198685909662, 0.7042028869664115, 0.7289561512762098, 0.7178636872870686, 0.7078951581496825, 0.6967645737133833, 0.6827396131635126, 0.7323424016382888, 0.7181920845048047, 0.6922050578442266, 0.6930298392680365, 0.7332846527032317, 0.7253924857692056, 0.7040847184863545, 0.733897086405548, 0.7103080916772967, 0.6628754471924515, 0.7137520666296405, 0.7237594149679224, 0.7020988777800757, 0.7231340409004923, 0.7298627951696098, 0.7160865097474366, 0.7454486920683383, 0.7021007868518641, 0.7056138947609667, 0.7162587968243834, 0.7225883866751043, 0.7125338020271007, 0.7288315547220168, 0.7395639837817771, 0.6879826408978856, 0.7266697543362485, 0.7193073919852663, 0.7350839271969984, 0.7159977589651235, 0.7082109864370181, 0.7161537791730779, 0.7064058636304897, 0.6977023149940197, 0.7313657709793199, 0.6970030481096665, 0.7260030810556868, 0.730311445859068, 0.7180853754659671, 0.7292601763598612, 0.7285473934560707, 0.7252132674207011, 0.7329807956020957, 0.7145469618693945, 0.7136556923825975, 0.7068055325154712, 0.716622781698078, 0.7253805298997713, 0.7308692944592459, 0.6909418193378172, 0.710688122418465, 0.7360199979305623, 0.7111954862054014, 0.7313236200479061, 0.7294946946965539, 0.7108301664722055, 0.7185407474733423, 0.7218745629283464, 0.6868081972900963, 0.7172290783254278, 0.7335490912567937, 0.7123202689561136, 0.7352426786347219, 0.6908001799768821, 0.700415485186296, 0.7157643509482263, 0.7353113327257623, 0.7294729137019434, 0.7364924414317638, 0.7153878505082595, 0.7257366657044898, 0.6888040576419834, 0.7445707325959471, 0.7428192327120879, 0.716846359520731, 0.7141548098256422, 0.7156115757413766, 0.7011881951548892, 0.7127864153775971, 0.695500540757294, 0.7430927150285132, 0.7312921869216644, 0.7099451806416558, 0.7213661559411993, 0.7438802010640977, 0.6862602429883139, 0.7191999023631349, 0.7464786956279674, 0.731205979486283, 0.7080220373576082, 0.7253355751813997, 0.7269565969565811, 0.7402971555507211, 0.7350471999277293, 0.706495267146811, 0.7205282147157078, 0.7099402449856429, 0.7220683928453487, 0.7199135325762182, 0.6891323848836516, 0.7096566370167705, 0.7437590700655452, 0.749236420947672, 0.7310077281738462, 0.7491756860206091, 0.7393974436669768, 0.7346243454462426, 0.736022056054652, 0.748016936737235, 0.679197604064721, 0.7135383925683185, 0.7056528110911015, 0.7031335482731345, 0.723325733743805, 0.7208798065543701, 0.7283248531464568, 0.7120577522329644, 0.6993852982315274, 0.7525347863547008, 0.7394360006365446, 0.682516417123447, 0.7567590717164715, 0.7363213345551561, 0.7198210505411371, 0.7215462319476228, 0.7149828528913584, 0.7409498202386581, 0.7178478547992688, 0.7239677332947122, 0.735072193521288, 0.7061888408273638, 0.7449307293973984, 0.7009804582330802, 0.7418282816260965, 0.7350080756564119, 0.7290348736633561, 0.6753873727888484, 0.7322677658421103, 0.7078465453999042, 0.7419829894442423, 0.7494278916087809, 0.7299002798011565, 0.727994512479458, 0.7299697213250521, 0.7207416661497376, 0.7162298295448903, 0.7263709816081062, 0.7074192145402886, 0.7228391447098267, 0.7306271670810477, 0.7222771938434517, 0.7314005670569135, 0.7295943077686282, 0.7051409848152971, 0.7377666307632336, 0.7462167055677192, 0.7362577660179176, 0.7262714129367844, 0.7397665701185443, 0.7132587189564692, 0.7207868702225305, 0.7187639541354509, 0.6875035253555383, 0.714630036915238, 0.7241300691537542, 0.7412967691481562, 0.7195346865366034, 0.7137355551848711, 0.7163426479511866, 0.7318966096567215, 0.7146088122482042, 0.7187257246213581, 0.7114869560069729, 0.7345626951311985, 0.6598162430927241, 0.7633919964570659, 0.7230414773420932, 0.7180745400713539, 0.7087308973068362, 0.7163044882357138, 0.7178496028235142, 0.736434765448844, 0.7236092033010321, 0.7430164143477433, 0.6867420464203179, 0.714657096402641, 0.6964719561098244, 0.7435236014115013, 0.749504211762002, 0.7359785753820364, 0.7132863116368348, 0.7304911116882692, 0.7495698054241479, 0.7423366318982493, 0.7592713485095078, 0.6972219131426491, 0.7385019284894312, 0.7127040820743029, 0.7297126590355216, 0.7047636907860145, 0.6857061695148907, 0.7142909927083267, 0.7471545538788308, 0.7223504045144904, 0.7286929328520307, 0.7162395088537175, 0.7270257206247307, 0.71763305194504, 0.7200269873064739, 0.7060522334941358, 0.7135039335066833, 0.723635575070129, 0.6876437567816057, 0.726004505023023, 0.7236550903088018, 0.7171233261013686, 0.7566815594824484, 0.7177104829414699, 0.725496777379702, 0.726840636792979, 0.7466928200226198, 0.7256649905283873, 0.7085452671670945, 0.7262188078417185, 0.7043424953544016, 0.7245484713577665, 0.7211328834040102, 0.6862165345399732, 0.7309127131077061, 0.6957976786965284, 0.7365471172511531, 0.7070036700199636, 0.7643991089936629, 0.723631051911644, 0.7171771873891203, 0.7268486320976257, 0.7518850544233735, 0.7245236055959372, 0.7062901813389136, 0.6927793000939771, 0.7191736515826925, 0.7200939271151398, 0.7391367175392886, 0.7602813095253801, 0.7331545791148465, 0.7390498823974475, 0.6835199109990326, 0.6962238702258742, 0.7107670083259019, 0.7251798757066125, 0.6941687703659274, 0.7243751122181045, 0.7294403865276599, 0.7339868683185734, 0.7047641853134212, 0.7443333098509846, 0.7245608776876217, 0.6773265490106685, 0.6961234667100166, 0.7193301415985632, 0.7153507913696809, 0.7148381577060333, 0.6931225983146754, 0.7270724459160817, 0.7015051942050643, 0.7149534095600283, 0.7224035246229799, 0.7523431161214428, 0.7219190465795035, 0.739675928736171, 0.689730354510144, 0.7319191855344573, 0.6891658764750113, 0.7044592664390634, 0.7190978441169992, 0.671540734323176, 0.6824394389671851, 0.7028533871847875, 0.7307389652816632, 0.7506970981025496, 0.6839226687768176, 0.7430387370715136, 0.72918828433887, 0.7233837931509257, 0.7253770915215619, 0.7365907845460741, 0.7194215217671082, 0.7232727467339614, 0.6938546563718784, 0.7119490530308872, 0.7170527344732839, 0.7338428079812289, 0.6843650805988385, 0.7185822780548019, 0.7117182214478048, 0.6980860112404249, 0.7253877546785311, 0.717725442862297, 0.7116633445096999, 0.7160252630529708, 0.7256502339961934, 0.7464583391675358, 0.7450894402846244, 0.6944531995169162, 0.7251948413249033, 0.7107414759289417, 0.7361221763396302, 0.7258223310385902, 0.7593165545529019, 0.7430114263752874, 0.7078723959483102, 0.7529817347630406, 0.7095624081411296, 0.694596522436479, 0.6985011219306321, 0.7045572962945377, 0.734708964408205, 0.7114499090686119, 0.7325682459146612, 0.716461708085841, 0.6850306115235701, 0.6688763303260341, 0.7290450369325683, 0.7249124813343223, 0.7501932381334103, 0.7268180445404526, 0.7193283214747898, 0.7141291700354561, 0.720283411625985, 0.7350550292389304, 0.7170380703555408, 0.7294818585758281, 0.7331680304158599, 0.7053707646956923, 0.6856191752065293, 0.6889225448658953, 0.6962241623047332, 0.7534057940139479, 0.7017079343965859, 0.7632654454468316, 0.7637214790948194, 0.717663382026611, 0.7519189818240445, 0.731956341591594, 0.7362875681504067, 0.6898391666646719, 0.7282958733311999, 0.7095158007306486, 0.7377348049529139, 0.6889000671366278, 0.7524562906344113, 0.7342354923716264, 0.7331007260779305, 0.7460032936817922, 0.7679144055316676, 0.7142627898339265, 0.7235810213852253, 0.7121409405983616, 0.7306356536512346, 0.7358560823778468, 0.7263464679278772, 0.733648776685832, 0.7398568386144736, 0.7278814489143148, 0.7806693455260145, 0.7310461267510813, 0.6862617762642091, 0.7171816378909136, 0.7562183045209615, 0.7462251544848105, 0.7386036788540111, 0.7258991748597682, 0.7374282989877347, 0.7384068310670812, 0.7164709157411063, 0.7430580206065812, 0.7162084949137302, 0.7097337813092165, 0.7260825027994414, 0.7346954060700878, 0.7259714006251823, 0.7074398703349236, 0.7004972452853636, 0.6970036455577149, 0.7424158124183151, 0.7547734334095287, 0.7281716928777715, 0.7306729876283719, 0.753786532238842, 0.7365157592164734, 0.7404851729118501, 0.7145705021840958, 0.7575634936786009, 0.7434116795912498, 0.7371076235518479, 0.708757956010768, 0.7480688135461322, 0.7374051256645519, 0.7163715347964639, 0.7203000365621185, 0.7319206981170147, 0.728399281368742, 0.7365510865280396, 0.7568223153753436, 0.7323233726393454, 0.7279602701447746, 0.7444543221975933, 0.7356356309062828, 0.7366658908870207, 0.7366634324880033, 0.7304120305014298, 0.737953875528243, 0.726470845091644, 0.7066035005771912, 0.7171968725054092, 0.7338024795110514, 0.730300999939479, 0.7292272350668063, 0.707661010243456, 0.7367272995178041, 0.7397975795024369, 0.7273605232951709, 0.7217350832043633, 0.6859836241391496, 0.7450789111424821, 0.7255001682876722, 0.7399731314871645, 0.7337624367706685, 0.6905903135254197, 0.713063071370088, 0.7483755899057312, 0.7085616938704046, 0.7150158137805401, 0.7404629927261094, 0.7478746007047704, 0.7403235636801139, 0.7338496495981552, 0.7625637364510613, 0.7476967256523014, 0.7327208608650942, 0.704814093563034, 0.7118006988025644, 0.7147178282345711, 0.7333646746841752, 0.7105800927841847, 0.741900432497206, 0.7126531910536581, 0.7320368750855416, 0.707463382950753, 0.7066478133845387, 0.7052443522009203, 0.727220327262346, 0.6736361872075783, 0.7276478843975395, 0.7272070610093512, 0.7305744667171258, 0.6997687519783367, 0.6960088697670463, 0.7165321574440454, 0.7395234532552653, 0.7402787645004928, 0.7299494292847316, 0.7378424404205223, 0.7402692350568816, 0.7381315301627533, 0.7394371460283501, 0.7267474825974637, 0.7246560727355896, 0.7078483120565704, 0.7327360166992865, 0.7328208195048753, 0.7308374837436534, 0.7206787550088609, 0.6907279066701638, 0.7086478540008575, 0.7169582487680463, 0.6967141190639189, 0.7186033857647514, 0.7335358857716404, 0.7010548470465364, 0.7449453000557835, 0.7097760282623035, 0.7500835107159809, 0.7375185039603086, 0.7206016421269542, 0.7378570140766001, 0.7234673018866735, 0.7177611348264172, 0.67983640197024, 0.7517924257336307, 0.7441857256006492, 0.6901719964310256, 0.7461629099248616, 0.7668870576806139, 0.7275652002108081, 0.7189214628887965, 0.725490242528974, 0.7254400747397411, 0.6892700533598997, 0.7567373152341055, 0.7204053879680148, 0.6890616581379226, 0.7312124544590198, 0.7516470910435354, 0.719172430887344, 0.7315257160875724, 0.7015967880582863, 0.724469574891613, 0.6828791221709595, 0.7143007343661986, 0.7325364184875611, 0.7004584499078871, 0.682359317162548, 0.7315049510373494, 0.7356045341758842, 0.7351993165040493, 0.7216734351872856, 0.7391389197954567, 0.7256071576771034, 0.7448416010037341, 0.7007974706024023, 0.738266916211953, 0.7190664045466763, 0.7298138494719013, 0.7336195157548621, 0.693075417341204, 0.7123400394345402, 0.7213610240743651, 0.7058225887853804, 0.7240024254980039, 0.7116618877467041, 0.7093192172100427, 0.719581837909275, 0.730239351836785, 0.7299984786434237, 0.7527649529442737, 0.7553255676147995, 0.7444662066967903, 0.7468418721332323, 0.733878609609133, 0.7026391634758753, 0.7698181774608037, 0.6985238107080527, 0.7587700832735224, 0.7182471895911335, 0.7474227706882473, 0.7130016675867206, 0.7214516003153782, 0.7413825119794738, 0.7020874749390117, 0.7260334335303561, 0.7449896886421005, 0.7047193382793133, 0.73870157434024, 0.74085322267385, 0.7250922822632374, 0.7447250682193847, 0.7421911177079091, 0.7359855337433486, 0.7343610956076924, 0.7055470389199706, 0.7254871971715318, 0.7247870435003118, 0.7246533011104037, 0.7540873465799236, 0.7263721458079001, 0.7190562979058681, 0.7335639690139847, 0.7580299769283211, 0.7036136277731374, 0.7230451535602335, 0.7471910815096983, 0.7284718060109145, 0.7255965512163146, 0.7163434271425695, 0.7398950854623366, 0.6964229938081705, 0.726810376297511, 0.7234102944738986, 0.7039191006686306, 0.7218423950840577, 0.7257172813502181, 0.745749590930135, 0.7138759413536537, 0.7108856017400562, 0.7410136097223348, 0.7267064575687878, 0.7336947629189567, 0.7483697787712916, 0.7102351277303884, 0.7600219484738218, 0.7282246503683766, 0.7593504414257926, 0.7233794924256197, 0.7519940365965833, 0.7384123650786371, 0.742187580267921, 0.7309930839515739, 0.7224183164490269, 0.7188632124088309, 0.7244958050023634, 0.7240574035095994, 0.7368780443784556, 0.7510924344692023, 0.7157525328249118, 0.7699497195457234, 0.7360635187999709, 0.7239201637865836, 0.7356053645470247, 0.7080238827918678, 0.7239256200546108, 0.7331356454870082, 0.6991981494860828, 0.7253943335962506, 0.7611387010731793, 0.6947700617441924, 0.7522534529600811, 0.7170435822692933, 0.7202519624833998, 0.745516817760289, 0.6997723463483396, 0.727005277286877, 0.7313401286465152, 0.7495428722900872, 0.714488346258875, 0.7370467740651271, 0.710858579228279, 0.7401536983785527, 0.7121911926797966, 0.7225413333828447, 0.6949640240438996, 0.7026251491296157, 0.7349800880418841, 0.7644081274052744, 0.7063536537035869, 0.7336053228989229, 0.7459971327941516, 0.7422928930482826, 0.7461324578457227, 0.7378737745549295, 0.7377102237781763, 0.7329373581143538, 0.708436099258905, 0.7430408268673022, 0.7190275097375399, 0.6943774737170734, 0.7127821557187746, 0.7673973836691903, 0.7304445922219798, 0.7384253412801247, 0.7064455783388458, 0.7315914388757648, 0.709511421041051, 0.7075908534048349, 0.6888261794598131, 0.7101675872019237, 0.7110975914776563, 0.7436653750917873, 0.7212535774760261, 0.7388665976845438, 0.7111421511638247, 0.7275327428921617, 0.7139602380518751, 0.74768708106633, 0.7304766370100935, 0.7629537132627938, 0.7072704434145506, 0.7295112721817845, 0.7286582329882306, 0.7155547072399201, 0.7513860472418797, 0.7613793864751642, 0.7487550989146722, 0.6997860700539099, 0.7685245101093421, 0.7469226245869843, 0.7281953540892331, 0.7294354864789757, 0.744670184435353, 0.7304355735050865, 0.7240133756685243, 0.7255976952401906, 0.7239381662155303, 0.7315515943702219, 0.7293242366533484, 0.732129233115862, 0.7284233765301437, 0.7065334962122356, 0.7202313427431197, 0.736689963204612, 0.7631912383639097, 0.694530688104114, 0.7243155899077862, 0.7261581144144723, 0.7434971337798587, 0.7031498550566272, 0.7704612967534227, 0.7191244542821997, 0.7023147901932255, 0.7238848301281327, 0.7527491192636971, 0.7440615113765883, 0.7063569347706676, 0.7385403818142823, 0.7290805068668434, 0.6808283188419224, 0.7282916047747068, 0.7204431819201454, 0.7454583787256875, 0.72868282682001, 0.7282735708600552, 0.6864556769105278, 0.7084626062771238, 0.6983715724760444, 0.7441294375874192, 0.741968809348818, 0.7232614562352127, 0.7318510279053627, 0.7505410267222264, 0.7291010355485298, 0.7089790007752301, 0.7254002145835927, 0.7296938542484397, 0.7206688284866837, 0.730764098018794, 0.7158785433899407, 0.7150306553494071, 0.7456912246176411, 0.7300820371832792, 0.717585649388822, 0.6896015908046741]",
    "all_val_losses": "[0.33061305, 0.27846318, 0.26377448, 0.19802958, 0.13744454, 0.090525016, 0.04836614, -0.004862242, -0.016170394, -0.06019822, -0.11463296, -0.12704834, -0.104570314, -0.18146104, -0.15796937, -0.18915202, -0.18990743, -0.24235019, -0.22856951, -0.27720258, -0.19722532, -0.27286798, -0.21370125, -0.20446157, -0.24923754, -0.30600086, -0.27504766, -0.28549212, -0.24866588, -0.27162683, -0.24928105, -0.2911519, -0.24269608, -0.2738246, -0.28704053, -0.26849914, -0.2649906, -0.27503878, -0.2801348, -0.25947672, -0.28953964, -0.22152133, -0.29689294, -0.26585624, -0.29226547, -0.285475, -0.28899395, -0.3193915, -0.2894391, -0.30703902, -0.3001766, -0.29905042, -0.26062894, -0.30118805, -0.23798805, -0.2662337, -0.30488768, -0.29404682, -0.30628312, -0.23021778, -0.27739093, -0.26943663, -0.2652336, -0.33147565, -0.25377834, -0.3004924, -0.2802108, -0.26676324, -0.22122794, -0.25716296, -0.3364004, -0.24064417, -0.2974264, -0.33273822, -0.26130503, -0.34114257, -0.30852774, -0.32835242, -0.23770039, -0.28980207, -0.3002556, -0.27792078, -0.27524754, -0.373015, -0.27944812, -0.29695517, -0.30678695, -0.2791589, -0.29651517, -0.3082162, -0.2910139, -0.33432484, -0.30605897, -0.27647007, -0.3349874, -0.3276883, -0.35219476, -0.26535445, -0.26296034, -0.27288058, -0.35386097, -0.28269583, -0.284196, -0.2984809, -0.31147557, -0.3242653, -0.30606484, -0.3309407, -0.28423473, -0.32583523, -0.24584703, -0.26365724, -0.31424576, -0.2968422, -0.26335686, -0.33297783, -0.3250125, -0.29051745, -0.27426758, -0.27340233, -0.33435005, -0.30650777, -0.23560278, -0.29614913, -0.31184673, -0.3084169, -0.2667361, -0.34075835, -0.28714216, -0.24550833, -0.33020982, -0.2910263, -0.31140488, -0.27919397, -0.32474774, -0.26983374, -0.36037388, -0.29656413, -0.3007817, -0.29811335, -0.29421794, -0.29188782, -0.34667465, -0.34659177, -0.27244633, -0.30624047, -0.29132575, -0.30839923, -0.2919124, -0.2989978, -0.30269602, -0.30040127, -0.25961414, -0.33042648, -0.2766004, -0.327952, -0.29724938, -0.31303084, -0.3251265, -0.32615107, -0.28795156, -0.33506134, -0.28263545, -0.29344082, -0.28327015, -0.3059047, -0.3211163, -0.30028006, -0.27900016, -0.276759, -0.31630766, -0.28497213, -0.34367076, -0.30155742, -0.30585137, -0.28215134, -0.30898204, -0.26306266, -0.3066615, -0.29342064, -0.2708484, -0.30476573, -0.2741077, -0.2712023, -0.29180926, -0.26832902, -0.3275255, -0.30456105, -0.289536, -0.28262272, -0.2732907, -0.3216651, -0.30799392, -0.31898984, -0.29770064, -0.31089842, -0.24774536, -0.26951024, -0.28866124, -0.30992833, -0.3240314, -0.29315245, -0.29779935, -0.30016944, -0.26430124, -0.26023856, -0.29372376, -0.3126327, -0.27454838, -0.3003401, -0.29987445, -0.30175, -0.2968382, -0.29244024, -0.308322, -0.27400646, -0.34181798, -0.28363374, -0.2901522, -0.2845475, -0.3431339, -0.34034592, -0.309535, -0.31777877, -0.33942807, -0.30655387, -0.2744489, -0.29786694, -0.22389542, -0.27850312, -0.2990343, -0.28086245, -0.2840271, -0.2859786, -0.2917179, -0.2816417, -0.30819765, -0.31980395, -0.3164754, -0.27021205, -0.36233494, -0.32404262, -0.2849655, -0.28308058, -0.31464294, -0.3146971, -0.31232876, -0.325602, -0.34147274, -0.30894917, -0.30754614, -0.28041774, -0.31841078, -0.32996514, -0.31960627, -0.27846512, -0.30011478, -0.2954029, -0.30282077, -0.34658816, -0.28520146, -0.31192067, -0.28227416, -0.32197097, -0.3112319, -0.27667588, -0.2858712, -0.30076993, -0.32264864, -0.28982183, -0.31994492, -0.28519154, -0.30636868, -0.32556593, -0.30076385, -0.29991904, -0.27370572, -0.35555398, -0.29049748, -0.3167555, -0.31160936, -0.26083285, -0.27432194, -0.29505113, -0.32126844, -0.3491607, -0.2962196, -0.29421398, -0.3077417, -0.26430014, -0.28941253, -0.30340627, -0.33340552, -0.25329047, -0.35890606, -0.2959894, -0.2829066, -0.25910947, -0.3016387, -0.27253547, -0.33247963, -0.3085651, -0.34195426, -0.27603042, -0.31234956, -0.27155158, -0.35030374, -0.30648935, -0.31831062, -0.29349205, -0.29459888, -0.30569413, -0.31253484, -0.31232882, -0.28203976, -0.31788823, -0.307407, -0.31515753, -0.28381017, -0.26613885, -0.27500144, -0.2779643, -0.32425442, -0.33475628, -0.31388265, -0.28514585, -0.29975724, -0.3232077, -0.30618808, -0.28624704, -0.2759239, -0.27261135, -0.2778166, -0.27346477, -0.2907748, -0.31827256, -0.2930871, -0.29414394, -0.30429202, -0.3418713, -0.29775795, -0.29178435, -0.32962254, -0.2758079, -0.2947678, -0.30051616, -0.2765181, -0.29691085, -0.276976, -0.30978715, -0.2486881, -0.3366122, -0.3301375, -0.313199, -0.31351596, -0.3119232, -0.2851984, -0.29036418, -0.2736307, -0.32825443, -0.2990789, -0.32443574, -0.3647045, -0.32425004, -0.31922624, -0.26148283, -0.25151828, -0.3008402, -0.2961905, -0.23439321, -0.28318518, -0.28879628, -0.3089268, -0.30941364, -0.30438334, -0.28553778, -0.24707079, -0.26992333, -0.267596, -0.3052538, -0.2991609, -0.29582012, -0.2963084, -0.2686536, -0.25483128, -0.3002109, -0.32378855, -0.28536198, -0.31143194, -0.23862702, -0.3538632, -0.24672128, -0.30144745, -0.28718385, -0.24652494, -0.2517656, -0.28460515, -0.2706673, -0.321732, -0.2841214, -0.32372662, -0.3002236, -0.3131646, -0.27823672, -0.30848786, -0.27830583, -0.32653764, -0.2989334, -0.27920398, -0.2971812, -0.31543607, -0.25801903, -0.30432487, -0.28232095, -0.28181362, -0.30296555, -0.28462747, -0.28141797, -0.27688527, -0.29295614, -0.33043995, -0.31057945, -0.29214266, -0.3104928, -0.30521446, -0.32709476, -0.28151768, -0.34770027, -0.3292516, -0.27045554, -0.35279182, -0.27344638, -0.2865274, -0.27729446, -0.32056558, -0.31418666, -0.29239154, -0.31253415, -0.32468247, -0.27237073, -0.2059831, -0.3027097, -0.2915638, -0.3111054, -0.3064333, -0.28871772, -0.26767978, -0.2819682, -0.32084206, -0.30976537, -0.30561638, -0.33825633, -0.28335828, -0.28225225, -0.26664937, -0.26105788, -0.36853176, -0.29242387, -0.32516018, -0.3532449, -0.2796993, -0.3526497, -0.3110745, -0.31342655, -0.2567567, -0.2988678, -0.27744186, -0.30689585, -0.22902209, -0.309875, -0.32027608, -0.3162439, -0.33072332, -0.35668334, -0.30113938, -0.29588297, -0.3090708, -0.2924397, -0.33653328, -0.32360736, -0.3029958, -0.29664487, -0.33123326, -0.36618426, -0.26241437, -0.26499, -0.27341798, -0.32618225, -0.33039498, -0.30582964, -0.30672556, -0.3281387, -0.32910916, -0.31461838, -0.3142035, -0.29662454, -0.26367244, -0.2801106, -0.333207, -0.33092585, -0.26571798, -0.295995, -0.23051903, -0.3287112, -0.31690252, -0.27951905, -0.3196193, -0.33277294, -0.30637145, -0.32304513, -0.3045015, -0.34904933, -0.3108025, -0.31786817, -0.28489316, -0.33496934, -0.30188394, -0.30437708, -0.29275322, -0.29838547, -0.34636754, -0.2790903, -0.3484789, -0.3209792, -0.29295662, -0.32437554, -0.28849375, -0.31011784, -0.30451238, -0.3430813, -0.2643799, -0.307672, -0.27070537, -0.28705457, -0.3291074, -0.314072, -0.25586486, -0.27012914, -0.34297454, -0.3181794, -0.3200043, -0.2807245, -0.2674135, -0.30577648, -0.28966042, -0.3064485, -0.30747294, -0.26901236, -0.30462527, -0.31910262, -0.30825034, -0.30090585, -0.3256164, -0.34750378, -0.31992295, -0.33106318, -0.35603976, -0.3156489, -0.2765497, -0.30181748, -0.26103213, -0.30132046, -0.29436463, -0.3206677, -0.31168357, -0.3211072, -0.3123591, -0.27279824, -0.2651286, -0.27613163, -0.29933846, -0.24734284, -0.32094494, -0.29415965, -0.3171305, -0.26238385, -0.2786138, -0.2835954, -0.31834137, -0.30781013, -0.286368, -0.32076982, -0.3070589, -0.32128918, -0.2833887, -0.30153167, -0.28602117, -0.29328132, -0.34165016, -0.32427078, -0.301076, -0.26942664, -0.29633197, -0.27612403, -0.29523683, -0.2844838, -0.28634393, -0.32799003, -0.27577788, -0.3225426, -0.2700511, -0.34848797, -0.3180971, -0.28309867, -0.3040318, -0.29899335, -0.2797862, -0.23846021, -0.30138588, -0.33167297, -0.27174917, -0.33952945, -0.3613832, -0.3038894, -0.3115838, -0.28539497, -0.27887192, -0.2843231, -0.29132646, -0.31556135, -0.25115386, -0.2858342, -0.34259132, -0.30591947, -0.29905194, -0.28129292, -0.3273521, -0.24704236, -0.27985495, -0.30884165, -0.29154932, -0.24798408, -0.32023862, -0.28439367, -0.2780352, -0.29105598, -0.2937647, -0.29604343, -0.33814985, -0.27311537, -0.343213, -0.28354132, -0.3230613, -0.30741748, -0.25542298, -0.28701773, -0.2818803, -0.28150153, -0.27220693, -0.28013417, -0.30185908, -0.29238915, -0.29949254, -0.30780014, -0.3452771, -0.32840973, -0.3103389, -0.3010534, -0.29245064, -0.29106915, -0.33164734, -0.26542294, -0.31949863, -0.27634352, -0.31731045, -0.28941843, -0.31304765, -0.32476008, -0.29888698, -0.312091, -0.34722033, -0.2741976, -0.3496353, -0.30978987, -0.29858586, -0.31791833, -0.31307423, -0.2926963, -0.28414193, -0.30252331, -0.28252923, -0.31205395, -0.28982574, -0.36736444, -0.33780068, -0.28243122, -0.31954178, -0.34019685, -0.26355815, -0.3199345, -0.32951713, -0.32369685, -0.3106711, -0.28684375, -0.3428443, -0.2668834, -0.33223033, -0.31384614, -0.28825718, -0.30597648, -0.31914487, -0.32957298, -0.2587451, -0.27415577, -0.3001572, -0.28400967, -0.31416002, -0.32445678, -0.28534603, -0.36227483, -0.2750136, -0.32909662, -0.3066296, -0.30368015, -0.3206045, -0.33879766, -0.2950582, -0.27105686, -0.29729587, -0.28438315, -0.27267373, -0.3101694, -0.3666536, -0.29027462, -0.3422816, -0.31668028, -0.31267303, -0.25899765, -0.286937, -0.2903818, -0.34967914, -0.2750997, -0.2964693, -0.34570885, -0.25326303, -0.32933062, -0.33483762, -0.27872804, -0.32143977, -0.2981315, -0.2768107, -0.2780689, -0.3366344, -0.28535423, -0.3232573, -0.2808616, -0.31840798, -0.30218035, -0.29284322, -0.25939387, -0.28965858, -0.31490028, -0.36337307, -0.28704333, -0.2996945, -0.30126524, -0.31174576, -0.33346885, -0.29024768, -0.3159791, -0.2990255, -0.29200482, -0.29790974, -0.29795754, -0.26651472, -0.28738317, -0.3411602, -0.2993183, -0.33042663, -0.27436393, -0.3117939, -0.28718394, -0.26359347, -0.2499036, -0.25531745, -0.2464121, -0.32911122, -0.33383533, -0.33626696, -0.30029464, -0.2900132, -0.2926376, -0.30534485, -0.29184636, -0.36599132, -0.27027494, -0.30603638, -0.30802017, -0.29367316, -0.34407985, -0.3266677, -0.32457608, -0.25913337, -0.38196632, -0.32084736, -0.31066078, -0.32928115, -0.35303375, -0.3028413, -0.29527342, -0.32617456, -0.30558372, -0.33589855, -0.29655576, -0.2862582, -0.31172827, -0.2845481, -0.2851779, -0.28760913, -0.350697, -0.24544655, -0.28509176, -0.28788504, -0.30518153, -0.27761218, -0.33000523, -0.3310879, -0.26378644, -0.30877617, -0.29174772, -0.31895342, -0.3012644, -0.3192503, -0.3250761, -0.25145358, -0.33906722, -0.30622804, -0.3377131, -0.291563, -0.306221, -0.22143738, -0.28481868, -0.27449828, -0.32410407, -0.3161892, -0.28073323, -0.2763709, -0.2879034, -0.27335918, -0.25673997, -0.29582533, -0.3208867, -0.2793456, -0.2901876, -0.30023164, -0.27363265, -0.32852277, -0.30339518, -0.27907163, -0.25449872]",
    "all_val_losses_tr_mode": "[]",
    "also_val_in_tr_mode": "False",
    "amp_grad_scaler": "<torch.cuda.amp.grad_scaler.GradScaler object at 0x7f3ab2b6c8e0>",
    "base_num_features": "32",
    "basic_generator_patch_size": "[178 289 200]",
    "batch_dice": "True",
    "batch_size": "2",
    "best_MA_tr_loss_for_patience": "-0.5414079344174327",
    "best_epoch_based_on_MA_tr_loss": "836",
    "best_val_eval_criterion_MA": "0.7353437512830687",
    "classes": "[1, 2, 3, 4, 5, 6, 7, 8, 9, 10, 11, 12]",
    "conv_per_stage": "2",
    "data_aug_params": "{'selected_data_channels': None, 'selected_seg_channels': [0], 'do_elastic': False, 'elastic_deform_alpha': (0.0, 900.0), 'elastic_deform_sigma': (9.0, 13.0), 'p_eldef': 0.2, 'do_scaling': True, 'scale_range': (0.7, 1.4), 'independent_scale_factor_for_each_axis': False, 'p_independent_scale_per_axis': 1, 'p_scale': 0.2, 'do_rotation': True, 'rotation_x': (-0.5235987755982988, 0.5235987755982988), 'rotation_y': (-0.5235987755982988, 0.5235987755982988), 'rotation_z': (-0.5235987755982988, 0.5235987755982988), 'rotation_p_per_axis': 1, 'p_rot': 0.2, 'random_crop': False, 'random_crop_dist_to_border': None, 'do_gamma': True, 'gamma_retain_stats': True, 'gamma_range': (0.7, 1.5), 'p_gamma': 0.3, 'do_mirror': False, 'mirror_axes': (0, 1, 2), 'dummy_2D': False, 'mask_was_used_for_normalization': OrderedDict([(0, False)]), 'border_mode_data': 'constant', 'all_segmentation_labels': None, 'move_last_seg_chanel_to_data': False, 'cascade_do_cascade_augmentations': False, 'cascade_random_binary_transform_p': 0.4, 'cascade_random_binary_transform_p_per_label': 1, 'cascade_random_binary_transform_size': (1, 8), 'cascade_remove_conn_comp_p': 0.2, 'cascade_remove_conn_comp_max_size_percent_threshold': 0.15, 'cascade_remove_conn_comp_fill_with_other_class_p': 0.0, 'do_additive_brightness': False, 'additive_brightness_p_per_sample': 0.15, 'additive_brightness_p_per_channel': 0.5, 'additive_brightness_mu': 0.0, 'additive_brightness_sigma': 0.1, 'num_threads': 12, 'num_cached_per_thread': 2, 'patch_size_for_spatialtransform': array([ 64, 192, 160])}",
    "dataset_directory": "/data/jeskal/projects/nnUNet/nnUNet_preprocessed/Task522_T_Mamma_LumL",
    "deep_supervision_scales": "[[1, 1, 1], [1.0, 0.5, 0.5], [0.5, 0.25, 0.25], [0.25, 0.125, 0.125], [0.125, 0.0625, 0.0625]]",
    "deterministic": "False",
    "dl_tr": "<nnunet.training.dataloading.dataset_loading.DataLoader3D object at 0x7f3ab2b6c940>",
    "dl_val": "<nnunet.training.dataloading.dataset_loading.DataLoader3D object at 0x7f3ab2ad6850>",
    "do_dummy_2D_aug": "False",
    "ds_loss_weights": "[0.53333333 0.26666667 0.13333333 0.06666667 0.        ]",
    "epoch": "850",
    "experiment_name": "nnUNetTrainerV2",
    "fold": "1",
    "folder_with_preprocessed_data": "/data/jeskal/projects/nnUNet/nnUNet_preprocessed/Task522_T_Mamma_LumL/nnUNetData_plans_v2.1_stage1",
    "fp16": "True",
    "gt_niftis_folder": "/data/jeskal/projects/nnUNet/nnUNet_preprocessed/Task522_T_Mamma_LumL/gt_segmentations",
    "inference_pad_border_mode": "constant",
    "inference_pad_kwargs": "{'constant_values': 0}",
    "init_args": "('/data/jeskal/projects/nnUNet/nnUNet_preprocessed/Task522_T_Mamma_LumL/nnUNetPlansv2.1_plans_3D.pkl', 1, '/data/jeskal/projects/nnUNet/nnUNet_trained_models/nnUNet/3d_fullres/Task522_T_Mamma_LumL/nnUNetTrainerV2__nnUNetPlansv2.1', '/data/jeskal/projects/nnUNet/nnUNet_preprocessed/Task522_T_Mamma_LumL', True, 1, True, False, True)",
    "initial_lr": "0.01",
    "log_file": "/data/jeskal/projects/nnUNet/nnUNet_trained_models/nnUNet/3d_fullres/Task522_T_Mamma_LumL/nnUNetTrainerV2__nnUNetPlansv2.1/fold_1/training_log_2023_2_13_19_55_59.txt",
    "lr_scheduler": "None",
    "lr_scheduler_eps": "0.001",
    "lr_scheduler_patience": "30",
    "lr_threshold": "1e-06",
    "max_num_epochs": "1000",
    "min_region_size_per_class": "None",
    "min_size_per_class": "None",
    "net_conv_kernel_sizes": "[[1, 3, 3], [3, 3, 3], [3, 3, 3], [3, 3, 3], [3, 3, 3], [3, 3, 3]]",
    "net_num_pool_op_kernel_sizes": "[[1, 2, 2], [2, 2, 2], [2, 2, 2], [2, 2, 2], [2, 2, 2]]",
    "net_pool_per_axis": "[4, 5, 5]",
    "normalization_schemes": "OrderedDict([(0, 'nonCT')])",
    "num_batches_per_epoch": "250",
    "num_classes": "13",
    "num_input_channels": "1",
    "num_val_batches_per_epoch": "50",
    "online_eval_fn": "[]",
    "online_eval_foreground_dc": "[]",
    "online_eval_fp": "[]",
    "online_eval_tp": "[]",
    "only_keep_largest_connected_component": "None",
    "optimizer": "SGD (\nParameter Group 0\n    dampening: 0\n    differentiable: False\n    foreach: None\n    lr: 0.0018133520731367456\n    maximize: False\n    momentum: 0.99\n    nesterov: True\n    weight_decay: 3e-05\n)",
    "output_folder": "/data/jeskal/projects/nnUNet/nnUNet_trained_models/nnUNet/3d_fullres/Task522_T_Mamma_LumL/nnUNetTrainerV2__nnUNetPlansv2.1/fold_1",
    "output_folder_base": "/data/jeskal/projects/nnUNet/nnUNet_trained_models/nnUNet/3d_fullres/Task522_T_Mamma_LumL/nnUNetTrainerV2__nnUNetPlansv2.1",
    "oversample_foreground_percent": "0.33",
    "pad_all_sides": "None",
    "patch_size": "[ 64 192 160]",
    "patience": "50",
    "pin_memory": "True",
    "plans_file": "/data/jeskal/projects/nnUNet/nnUNet_preprocessed/Task522_T_Mamma_LumL/nnUNetPlansv2.1_plans_3D.pkl",
    "regions_class_order": "None",
    "save_best_checkpoint": "True",
    "save_every": "50",
    "save_final_checkpoint": "True",
    "save_intermediate_checkpoints": "True",
    "save_latest_only": "True",
    "stage": "1",
    "threeD": "True",
    "tr_gen": "<batchgenerators.dataloading.multi_threaded_augmenter.MultiThreadedAugmenter object at 0x7f3ab2ad6a30>",
    "train_loss_MA": "None",
    "train_loss_MA_alpha": "0.93",
    "train_loss_MA_eps": "0.0005",
    "transpose_backward": "[0, 1, 2]",
    "transpose_forward": "[0, 1, 2]",
    "unpack_data": "True",
    "use_mask_for_norm": "OrderedDict([(0, False)])",
    "use_progress_bar": "False",
    "val_eval_criterion_MA": "None",
    "val_eval_criterion_alpha": "0.9",
    "val_gen": "<batchgenerators.dataloading.multi_threaded_augmenter.MultiThreadedAugmenter object at 0x7f3ab2aefc70>",
    "was_initialized": "True",
    "weight_decay": "3e-05"
}