Starting... 
2023-02-13 19:55:59.596372: Using splits from existing split file: /data/jeskal/projects/nnUNet/nnUNet_preprocessed/Task522_T_Mamma_LumL/splits_final.pkl 
2023-02-13 19:55:59.596694: The split file contains 5 splits. 
2023-02-13 19:55:59.596730: Desired fold for training: 1 
2023-02-13 19:55:59.596757: This split has 43 training and 11 validation cases. 
2023-02-13 19:55:59.706142: TRAINING KEYS:
 odict_keys(['AIDCPTATLAS_T_Br_008', 'AIDCPTATLAS_T_Br_010', 'AIDCPTATLAS_T_Br_018', 'AIDCPTATLAS_T_Br_023', 'AIDCPTATLAS_T_Br_028', 'AIDCPTATLAS_T_Br_029', 'AIDCPTATLAS_T_Br_038', 'AIDCPTATLAS_T_Br_039', 'AIDCPTATLAS_T_Br_040', 'AIDCPTATLAS_T_Br_041', 'AIDCPTATLAS_T_Br_042', 'AIDCPTATLAS_T_Br_047', 'AIDCPTATLAS_T_Br_048', 'AIDCPTATLAS_T_Br_052', 'AIDCPTATLAS_T_Br_055', 'AIDCPTATLAS_T_Br_057', 'AIDCPTATLAS_T_Br_070', 'AIDCPTATLAS_T_Br_073', 'AIDCPTATLAS_T_Br_077', 'AIDCPTATLAS_T_Br_083', 'AIDCPTATLAS_T_Br_084', 'AIDCPTATLAS_T_Br_092', 'AIDCPTATLAS_T_Br_096', 'AIDCPTATLAS_T_Br_098', 'AIDCPTATLAS_T_Br_099', 'AIDCPTATLAS_T_Br_100', 'AIDCPTATLAS_T_Br_101', 'AIDCPTATLAS_T_Br_108', 'AIDCPTATLAS_T_Br_118', 'AIDCPTATLAS_T_Fliped_Br_011', 'AIDCPTATLAS_T_Fliped_Br_015', 'AIDCPTATLAS_T_Fliped_Br_016', 'AIDCPTATLAS_T_Fliped_Br_020', 'AIDCPTATLAS_T_Fliped_Br_044', 'AIDCPTATLAS_T_Fliped_Br_045', 'AIDCPTATLAS_T_Fliped_Br_061', 'AIDCPTATLAS_T_Fliped_Br_062', 'AIDCPTATLAS_T_Fliped_Br_067', 'AIDCPTATLAS_T_Fliped_Br_078', 'AIDCPTATLAS_T_Fliped_Br_105', 'AIDCPTATLAS_T_Fliped_Br_106', 'AIDCPTATLAS_T_Fliped_Br_110', 'AIDCPTATLAS_T_Fliped_Br_113']) 
2023-02-13 19:55:59.706309: VALIDATION KEYS:
 odict_keys(['AIDCPTATLAS_T_Br_017', 'AIDCPTATLAS_T_Br_025', 'AIDCPTATLAS_T_Br_034', 'AIDCPTATLAS_T_Br_058', 'AIDCPTATLAS_T_Br_059', 'AIDCPTATLAS_T_Br_068', 'AIDCPTATLAS_T_Br_069', 'AIDCPTATLAS_T_Br_082', 'AIDCPTATLAS_T_Br_103', 'AIDCPTATLAS_T_Br_121', 'AIDCPTATLAS_T_Fliped_Br_021']) 
2023-02-13 19:56:01.308979: loading checkpoint /data/jeskal/projects/nnUNet/nnUNet_trained_models/nnUNet/3d_fullres/Task522_T_Mamma_LumL/nnUNetTrainerV2__nnUNetPlansv2.1/fold_1/model_latest.model train= True 
2023-02-13 19:56:02.024592: lr: 0.001813 
2023-02-13 19:56:19.010933: Unable to plot network architecture: 
2023-02-13 19:56:19.011189: No module named 'hiddenlayer' 
2023-02-13 19:56:19.011282: 
printing the network instead:
 
2023-02-13 19:56:19.011412: Generic_UNet(
  (conv_blocks_localization): ModuleList(
    (0): Sequential(
      (0): StackedConvLayers(
        (blocks): Sequential(
          (0): ConvDropoutNormNonlin(
            (conv): Conv3d(640, 320, kernel_size=(3, 3, 3), stride=(1, 1, 1), padding=(1, 1, 1))
            (instnorm): InstanceNorm3d(320, eps=1e-05, momentum=0.1, affine=True, track_running_stats=False)
            (lrelu): LeakyReLU(negative_slope=0.01, inplace=True)
          )
        )
      )
      (1): StackedConvLayers(
        (blocks): Sequential(
          (0): ConvDropoutNormNonlin(
            (conv): Conv3d(320, 320, kernel_size=(3, 3, 3), stride=(1, 1, 1), padding=(1, 1, 1))
            (instnorm): InstanceNorm3d(320, eps=1e-05, momentum=0.1, affine=True, track_running_stats=False)
            (lrelu): LeakyReLU(negative_slope=0.01, inplace=True)
          )
        )
      )
    )
    (1): Sequential(
      (0): StackedConvLayers(
        (blocks): Sequential(
          (0): ConvDropoutNormNonlin(
            (conv): Conv3d(512, 256, kernel_size=(3, 3, 3), stride=(1, 1, 1), padding=(1, 1, 1))
            (instnorm): InstanceNorm3d(256, eps=1e-05, momentum=0.1, affine=True, track_running_stats=False)
            (lrelu): LeakyReLU(negative_slope=0.01, inplace=True)
          )
        )
      )
      (1): StackedConvLayers(
        (blocks): Sequential(
          (0): ConvDropoutNormNonlin(
            (conv): Conv3d(256, 256, kernel_size=(3, 3, 3), stride=(1, 1, 1), padding=(1, 1, 1))
            (instnorm): InstanceNorm3d(256, eps=1e-05, momentum=0.1, affine=True, track_running_stats=False)
            (lrelu): LeakyReLU(negative_slope=0.01, inplace=True)
          )
        )
      )
    )
    (2): Sequential(
      (0): StackedConvLayers(
        (blocks): Sequential(
          (0): ConvDropoutNormNonlin(
            (conv): Conv3d(256, 128, kernel_size=(3, 3, 3), stride=(1, 1, 1), padding=(1, 1, 1))
            (instnorm): InstanceNorm3d(128, eps=1e-05, momentum=0.1, affine=True, track_running_stats=False)
            (lrelu): LeakyReLU(negative_slope=0.01, inplace=True)
          )
        )
      )
      (1): StackedConvLayers(
        (blocks): Sequential(
          (0): ConvDropoutNormNonlin(
            (conv): Conv3d(128, 128, kernel_size=(3, 3, 3), stride=(1, 1, 1), padding=(1, 1, 1))
            (instnorm): InstanceNorm3d(128, eps=1e-05, momentum=0.1, affine=True, track_running_stats=False)
            (lrelu): LeakyReLU(negative_slope=0.01, inplace=True)
          )
        )
      )
    )
    (3): Sequential(
      (0): StackedConvLayers(
        (blocks): Sequential(
          (0): ConvDropoutNormNonlin(
            (conv): Conv3d(128, 64, kernel_size=(3, 3, 3), stride=(1, 1, 1), padding=(1, 1, 1))
            (instnorm): InstanceNorm3d(64, eps=1e-05, momentum=0.1, affine=True, track_running_stats=False)
            (lrelu): LeakyReLU(negative_slope=0.01, inplace=True)
          )
        )
      )
      (1): StackedConvLayers(
        (blocks): Sequential(
          (0): ConvDropoutNormNonlin(
            (conv): Conv3d(64, 64, kernel_size=(3, 3, 3), stride=(1, 1, 1), padding=(1, 1, 1))
            (instnorm): InstanceNorm3d(64, eps=1e-05, momentum=0.1, affine=True, track_running_stats=False)
            (lrelu): LeakyReLU(negative_slope=0.01, inplace=True)
          )
        )
      )
    )
    (4): Sequential(
      (0): StackedConvLayers(
        (blocks): Sequential(
          (0): ConvDropoutNormNonlin(
            (conv): Conv3d(64, 32, kernel_size=(3, 3, 3), stride=(1, 1, 1), padding=(1, 1, 1))
            (instnorm): InstanceNorm3d(32, eps=1e-05, momentum=0.1, affine=True, track_running_stats=False)
            (lrelu): LeakyReLU(negative_slope=0.01, inplace=True)
          )
        )
      )
      (1): StackedConvLayers(
        (blocks): Sequential(
          (0): ConvDropoutNormNonlin(
            (conv): Conv3d(32, 32, kernel_size=(3, 3, 3), stride=(1, 1, 1), padding=(1, 1, 1))
            (instnorm): InstanceNorm3d(32, eps=1e-05, momentum=0.1, affine=True, track_running_stats=False)
            (lrelu): LeakyReLU(negative_slope=0.01, inplace=True)
          )
        )
      )
    )
  )
  (conv_blocks_context): ModuleList(
    (0): StackedConvLayers(
      (blocks): Sequential(
        (0): ConvDropoutNormNonlin(
          (conv): Conv3d(1, 32, kernel_size=(1, 3, 3), stride=(1, 1, 1), padding=(0, 1, 1))
          (instnorm): InstanceNorm3d(32, eps=1e-05, momentum=0.1, affine=True, track_running_stats=False)
          (lrelu): LeakyReLU(negative_slope=0.01, inplace=True)
        )
        (1): ConvDropoutNormNonlin(
          (conv): Conv3d(32, 32, kernel_size=(1, 3, 3), stride=(1, 1, 1), padding=(0, 1, 1))
          (instnorm): InstanceNorm3d(32, eps=1e-05, momentum=0.1, affine=True, track_running_stats=False)
          (lrelu): LeakyReLU(negative_slope=0.01, inplace=True)
        )
      )
    )
    (1): StackedConvLayers(
      (blocks): Sequential(
        (0): ConvDropoutNormNonlin(
          (conv): Conv3d(32, 64, kernel_size=(3, 3, 3), stride=(1, 2, 2), padding=(1, 1, 1))
          (instnorm): InstanceNorm3d(64, eps=1e-05, momentum=0.1, affine=True, track_running_stats=False)
          (lrelu): LeakyReLU(negative_slope=0.01, inplace=True)
        )
        (1): ConvDropoutNormNonlin(
          (conv): Conv3d(64, 64, kernel_size=(3, 3, 3), stride=(1, 1, 1), padding=(1, 1, 1))
          (instnorm): InstanceNorm3d(64, eps=1e-05, momentum=0.1, affine=True, track_running_stats=False)
          (lrelu): LeakyReLU(negative_slope=0.01, inplace=True)
        )
      )
    )
    (2): StackedConvLayers(
      (blocks): Sequential(
        (0): ConvDropoutNormNonlin(
          (conv): Conv3d(64, 128, kernel_size=(3, 3, 3), stride=(2, 2, 2), padding=(1, 1, 1))
          (instnorm): InstanceNorm3d(128, eps=1e-05, momentum=0.1, affine=True, track_running_stats=False)
          (lrelu): LeakyReLU(negative_slope=0.01, inplace=True)
        )
        (1): ConvDropoutNormNonlin(
          (conv): Conv3d(128, 128, kernel_size=(3, 3, 3), stride=(1, 1, 1), padding=(1, 1, 1))
          (instnorm): InstanceNorm3d(128, eps=1e-05, momentum=0.1, affine=True, track_running_stats=False)
          (lrelu): LeakyReLU(negative_slope=0.01, inplace=True)
        )
      )
    )
    (3): StackedConvLayers(
      (blocks): Sequential(
        (0): ConvDropoutNormNonlin(
          (conv): Conv3d(128, 256, kernel_size=(3, 3, 3), stride=(2, 2, 2), padding=(1, 1, 1))
          (instnorm): InstanceNorm3d(256, eps=1e-05, momentum=0.1, affine=True, track_running_stats=False)
          (lrelu): LeakyReLU(negative_slope=0.01, inplace=True)
        )
        (1): ConvDropoutNormNonlin(
          (conv): Conv3d(256, 256, kernel_size=(3, 3, 3), stride=(1, 1, 1), padding=(1, 1, 1))
          (instnorm): InstanceNorm3d(256, eps=1e-05, momentum=0.1, affine=True, track_running_stats=False)
          (lrelu): LeakyReLU(negative_slope=0.01, inplace=True)
        )
      )
    )
    (4): StackedConvLayers(
      (blocks): Sequential(
        (0): ConvDropoutNormNonlin(
          (conv): Conv3d(256, 320, kernel_size=(3, 3, 3), stride=(2, 2, 2), padding=(1, 1, 1))
          (instnorm): InstanceNorm3d(320, eps=1e-05, momentum=0.1, affine=True, track_running_stats=False)
          (lrelu): LeakyReLU(negative_slope=0.01, inplace=True)
        )
        (1): ConvDropoutNormNonlin(
          (conv): Conv3d(320, 320, kernel_size=(3, 3, 3), stride=(1, 1, 1), padding=(1, 1, 1))
          (instnorm): InstanceNorm3d(320, eps=1e-05, momentum=0.1, affine=True, track_running_stats=False)
          (lrelu): LeakyReLU(negative_slope=0.01, inplace=True)
        )
      )
    )
    (5): Sequential(
      (0): StackedConvLayers(
        (blocks): Sequential(
          (0): ConvDropoutNormNonlin(
            (conv): Conv3d(320, 320, kernel_size=(3, 3, 3), stride=(2, 2, 2), padding=(1, 1, 1))
            (instnorm): InstanceNorm3d(320, eps=1e-05, momentum=0.1, affine=True, track_running_stats=False)
            (lrelu): LeakyReLU(negative_slope=0.01, inplace=True)
          )
        )
      )
      (1): StackedConvLayers(
        (blocks): Sequential(
          (0): ConvDropoutNormNonlin(
            (conv): Conv3d(320, 320, kernel_size=(3, 3, 3), stride=(1, 1, 1), padding=(1, 1, 1))
            (instnorm): InstanceNorm3d(320, eps=1e-05, momentum=0.1, affine=True, track_running_stats=False)
            (lrelu): LeakyReLU(negative_slope=0.01, inplace=True)
          )
        )
      )
    )
  )
  (td): ModuleList()
  (tu): ModuleList(
    (0): ConvTranspose3d(320, 320, kernel_size=(2, 2, 2), stride=(2, 2, 2), bias=False)
    (1): ConvTranspose3d(320, 256, kernel_size=(2, 2, 2), stride=(2, 2, 2), bias=False)
    (2): ConvTranspose3d(256, 128, kernel_size=(2, 2, 2), stride=(2, 2, 2), bias=False)
    (3): ConvTranspose3d(128, 64, kernel_size=(2, 2, 2), stride=(2, 2, 2), bias=False)
    (4): ConvTranspose3d(64, 32, kernel_size=(1, 2, 2), stride=(1, 2, 2), bias=False)
  )
  (seg_outputs): ModuleList(
    (0): Conv3d(320, 13, kernel_size=(1, 1, 1), stride=(1, 1, 1), bias=False)
    (1): Conv3d(256, 13, kernel_size=(1, 1, 1), stride=(1, 1, 1), bias=False)
    (2): Conv3d(128, 13, kernel_size=(1, 1, 1), stride=(1, 1, 1), bias=False)
    (3): Conv3d(64, 13, kernel_size=(1, 1, 1), stride=(1, 1, 1), bias=False)
    (4): Conv3d(32, 13, kernel_size=(1, 1, 1), stride=(1, 1, 1), bias=False)
  )
) 
2023-02-13 19:56:19.014928: 
 
2023-02-13 19:56:19.015056: 
epoch:  850 
2023-02-13 19:57:46.444819: train loss : -0.5565 
2023-02-13 19:57:51.587933: validation loss: -0.3163 
2023-02-13 19:57:51.596819: Average global foreground Dice: [0.8962, 0.9483, 0.3408, 0.7672, 0.6846, 0.6787, 0.7275, 0.7218, 0.7819, 0.651, 0.9379] 
2023-02-13 19:57:51.597051: (interpret this as an estimate for the Dice of the different classes. This is not exact.) 
2023-02-13 19:57:52.082955: lr: 0.001802 
2023-02-13 19:57:52.130043: saving checkpoint... 
2023-02-13 19:57:53.046963: done, saving took 0.96 seconds 
2023-02-13 19:57:53.053065: This epoch took 94.037952 s
 
2023-02-13 19:57:53.053168: 
epoch:  851 
2023-02-13 19:59:08.549659: train loss : -0.5321 
2023-02-13 19:59:13.764235: validation loss: -0.3288 
2023-02-13 19:59:13.765602: Average global foreground Dice: [0.8637, 0.9417, 0.3127, 0.7625, 0.6899, 0.6023, 0.71, 0.7719, 0.7984, 0.6812, 0.9328] 
2023-02-13 19:59:13.765708: (interpret this as an estimate for the Dice of the different classes. This is not exact.) 
2023-02-13 19:59:14.208909: lr: 0.001792 
2023-02-13 19:59:14.209168: This epoch took 81.155957 s
 
2023-02-13 19:59:14.209203: 
epoch:  852 
2023-02-13 20:00:25.960095: train loss : -0.5412 
2023-02-13 20:00:31.364366: validation loss: -0.3415 
2023-02-13 20:00:31.365268: Average global foreground Dice: [0.8972, 0.9426, 0.3195, 0.8671, 0.6748, 0.6651, 0.7292, 0.773, 0.7727, 0.7075, 0.9395] 
2023-02-13 20:00:31.365340: (interpret this as an estimate for the Dice of the different classes. This is not exact.) 
2023-02-13 20:00:31.830567: lr: 0.001781 
2023-02-13 20:00:31.864551: saving checkpoint... 
2023-02-13 20:00:32.820025: done, saving took 0.99 seconds 
2023-02-13 20:00:32.842070: This epoch took 78.632833 s
 
2023-02-13 20:00:32.842132: 
epoch:  853 
2023-02-13 20:01:45.548664: train loss : -0.5501 
2023-02-13 20:01:50.795715: validation loss: -0.2484 
2023-02-13 20:01:50.796591: Average global foreground Dice: [0.8734, 0.9475, 0.3077, 0.7284, 0.6146, 0.5117, 0.6538, 0.7048, 0.7431, 0.6279, 0.9474] 
2023-02-13 20:01:50.796655: (interpret this as an estimate for the Dice of the different classes. This is not exact.) 
2023-02-13 20:01:51.244994: lr: 0.00177 
2023-02-13 20:01:51.245314: This epoch took 78.403140 s
 
2023-02-13 20:01:51.245351: 
epoch:  854 
2023-02-13 20:03:04.880378: train loss : -0.5567 
2023-02-13 20:03:10.099001: validation loss: -0.2803 
2023-02-13 20:03:10.100069: Average global foreground Dice: [0.903, 0.9511, 0.396, 0.7457, 0.652, 0.5797, 0.6562, 0.7209, 0.7773, 0.6703, 0.9384] 
2023-02-13 20:03:10.100155: (interpret this as an estimate for the Dice of the different classes. This is not exact.) 
2023-02-13 20:03:10.791236: lr: 0.001759 
2023-02-13 20:03:10.791401: This epoch took 79.546011 s
 
2023-02-13 20:03:10.791437: 
epoch:  855 
2023-02-13 20:04:23.733078: train loss : -0.5231 
2023-02-13 20:04:29.036996: validation loss: -0.3070 
2023-02-13 20:04:29.038527: Average global foreground Dice: [0.8839, 0.946, 0.3222, 0.755, 0.7118, 0.4957, 0.6305, 0.7272, 0.8002, 0.5939, 0.9345] 
2023-02-13 20:04:29.038640: (interpret this as an estimate for the Dice of the different classes. This is not exact.) 
2023-02-13 20:04:29.713415: lr: 0.001748 
2023-02-13 20:04:29.713672: This epoch took 78.922199 s
 
2023-02-13 20:04:29.713717: 
epoch:  856 
2023-02-13 20:05:46.082365: train loss : -0.5561 
2023-02-13 20:05:51.272523: validation loss: -0.3334 
2023-02-13 20:05:51.273842: Average global foreground Dice: [0.9111, 0.9337, 0.2732, 0.769, 0.711, 0.6321, 0.7361, 0.7846, 0.8273, 0.7118, 0.9294] 
2023-02-13 20:05:51.273913: (interpret this as an estimate for the Dice of the different classes. This is not exact.) 
2023-02-13 20:05:51.692413: lr: 0.001737 
2023-02-13 20:05:51.692575: This epoch took 81.978817 s
 
2023-02-13 20:05:51.692610: 
epoch:  857 
2023-02-13 20:07:08.902476: train loss : -0.5375 
2023-02-13 20:07:14.257302: validation loss: -0.3050 
2023-02-13 20:07:14.258542: Average global foreground Dice: [0.8857, 0.9484, 0.3563, 0.838, 0.6598, 0.5977, 0.6437, 0.7148, 0.769, 0.6385, 0.9394] 
2023-02-13 20:07:14.258648: (interpret this as an estimate for the Dice of the different classes. This is not exact.) 
2023-02-13 20:07:14.730858: lr: 0.001726 
2023-02-13 20:07:14.731130: This epoch took 83.038478 s
 
2023-02-13 20:07:14.731168: 
epoch:  858 
2023-02-13 20:08:33.735089: train loss : -0.5374 
2023-02-13 20:08:39.004914: validation loss: -0.2751 
2023-02-13 20:08:39.006050: Average global foreground Dice: [0.9033, 0.9453, 0.3507, 0.6589, 0.6633, 0.5797, 0.6921, 0.7381, 0.7697, 0.6594, 0.9325] 
2023-02-13 20:08:39.006152: (interpret this as an estimate for the Dice of the different classes. This is not exact.) 
2023-02-13 20:08:39.499711: lr: 0.001715 
2023-02-13 20:08:39.499897: This epoch took 84.768691 s
 
2023-02-13 20:08:39.499932: 
epoch:  859 
2023-02-13 20:10:02.013608: train loss : -0.5128 
2023-02-13 20:10:07.328452: validation loss: -0.2863 
2023-02-13 20:10:07.330327: Average global foreground Dice: [0.8983, 0.9436, 0.2947, 0.7539, 0.6512, 0.5844, 0.6434, 0.7692, 0.8329, 0.6397, 0.9457] 
2023-02-13 20:10:07.330569: (interpret this as an estimate for the Dice of the different classes. This is not exact.) 
2023-02-13 20:10:07.811232: lr: 0.001704 
2023-02-13 20:10:07.811472: This epoch took 88.311501 s
 
2023-02-13 20:10:07.811512: 
epoch:  860 
2023-02-13 20:11:19.289654: train loss : -0.5411 
2023-02-13 20:11:24.663385: validation loss: -0.3131 
2023-02-13 20:11:24.664405: Average global foreground Dice: [0.8801, 0.9491, 0.3721, 0.7531, 0.6571, 0.5842, 0.6959, 0.7735, 0.803, 0.6614, 0.9456] 
2023-02-13 20:11:24.664475: (interpret this as an estimate for the Dice of the different classes. This is not exact.) 
2023-02-13 20:11:25.169280: lr: 0.001693 
2023-02-13 20:11:25.169550: This epoch took 77.357996 s
 
2023-02-13 20:11:25.169591: 
epoch:  861 
2023-02-13 20:12:38.420549: train loss : -0.5497 
2023-02-13 20:12:43.755025: validation loss: -0.2916 
2023-02-13 20:12:43.755609: Average global foreground Dice: [0.9075, 0.9338, 0.3058, 0.8059, 0.6404, 0.5605, 0.6424, 0.78, 0.8277, 0.6412, 0.9328] 
2023-02-13 20:12:43.755670: (interpret this as an estimate for the Dice of the different classes. This is not exact.) 
2023-02-13 20:12:44.221323: lr: 0.001682 
2023-02-13 20:12:44.221479: This epoch took 79.051848 s
 
2023-02-13 20:12:44.221513: 
epoch:  862 
2023-02-13 20:14:02.688127: train loss : -0.5438 
2023-02-13 20:14:08.011508: validation loss: -0.3525 
2023-02-13 20:14:08.013058: Average global foreground Dice: [0.8918, 0.9431, 0.3937, 0.8084, 0.7079, 0.655, 0.7453, 0.7957, 0.8226, 0.7179, 0.9288] 
2023-02-13 20:14:08.013210: (interpret this as an estimate for the Dice of the different classes. This is not exact.) 
2023-02-13 20:14:08.464726: lr: 0.001671 
2023-02-13 20:14:08.464892: This epoch took 84.243345 s
 
2023-02-13 20:14:08.464927: 
epoch:  863 
2023-02-13 20:15:28.005291: train loss : -0.5472 
2023-02-13 20:15:33.181979: validation loss: -0.2574 
2023-02-13 20:15:33.182965: Average global foreground Dice: [0.8752, 0.9509, 0.3318, 0.7071, 0.6727, 0.5411, 0.6046, 0.6688, 0.7439, 0.609, 0.9333] 
2023-02-13 20:15:33.183041: (interpret this as an estimate for the Dice of the different classes. This is not exact.) 
2023-02-13 20:15:33.664539: lr: 0.00166 
2023-02-13 20:15:33.664848: This epoch took 85.199881 s
 
2023-02-13 20:15:33.664891: 
epoch:  864 
2023-02-13 20:16:48.852777: train loss : -0.5582 
2023-02-13 20:16:54.041436: validation loss: -0.2551 
2023-02-13 20:16:54.042439: Average global foreground Dice: [0.8879, 0.946, 0.4106, 0.726, 0.6324, 0.4109, 0.5857, 0.6646, 0.7282, 0.5392, 0.9304] 
2023-02-13 20:16:54.042514: (interpret this as an estimate for the Dice of the different classes. This is not exact.) 
2023-02-13 20:16:54.706138: lr: 0.001649 
2023-02-13 20:16:54.706321: This epoch took 81.041391 s
 
2023-02-13 20:16:54.706357: 
epoch:  865 
2023-02-13 20:18:05.719018: train loss : -0.5349 
2023-02-13 20:18:10.871972: validation loss: -0.3031 
2023-02-13 20:18:10.872986: Average global foreground Dice: [0.88, 0.9496, 0.4203, 0.7436, 0.6435, 0.5521, 0.7083, 0.7701, 0.8107, 0.6775, 0.9377] 
2023-02-13 20:18:10.873051: (interpret this as an estimate for the Dice of the different classes. This is not exact.) 
2023-02-13 20:18:11.295563: lr: 0.001638 
2023-02-13 20:18:11.295805: This epoch took 76.589411 s
 
2023-02-13 20:18:11.295847: 
epoch:  866 
2023-02-13 20:19:28.785786: train loss : -0.5600 
2023-02-13 20:19:33.841730: validation loss: -0.2848 
2023-02-13 20:19:33.842913: Average global foreground Dice: [0.8956, 0.9418, 0.4221, 0.754, 0.6803, 0.5892, 0.6716, 0.7465, 0.8091, 0.6816, 0.926] 
2023-02-13 20:19:33.843020: (interpret this as an estimate for the Dice of the different classes. This is not exact.) 
2023-02-13 20:19:34.341526: lr: 0.001627 
2023-02-13 20:19:34.341816: This epoch took 83.045919 s
 
2023-02-13 20:19:34.341861: 
epoch:  867 
2023-02-13 20:20:45.168877: train loss : -0.5355 
2023-02-13 20:20:50.565692: validation loss: -0.2366 
2023-02-13 20:20:50.566603: Average global foreground Dice: [0.8946, 0.9482, 0.4847, 0.7508, 0.6514, 0.4515, 0.5462, 0.6455, 0.7452, 0.5376, 0.9296] 
2023-02-13 20:20:50.566676: (interpret this as an estimate for the Dice of the different classes. This is not exact.) 
2023-02-13 20:20:51.089626: lr: 0.001616 
2023-02-13 20:20:51.089880: This epoch took 76.747967 s
 
2023-02-13 20:20:51.089915: 
epoch:  868 
2023-02-13 20:22:04.129023: train loss : -0.5494 
2023-02-13 20:22:09.317044: validation loss: -0.2903 
2023-02-13 20:22:09.317873: Average global foreground Dice: [0.9098, 0.9458, 0.3598, 0.7752, 0.6756, 0.5701, 0.6458, 0.7244, 0.7987, 0.6423, 0.9343] 
2023-02-13 20:22:09.317938: (interpret this as an estimate for the Dice of the different classes. This is not exact.) 
2023-02-13 20:22:09.749384: lr: 0.001605 
2023-02-13 20:22:09.749655: This epoch took 78.659702 s
 
2023-02-13 20:22:09.749697: 
epoch:  869 
2023-02-13 20:23:30.880723: train loss : -0.5404 
2023-02-13 20:23:36.151312: validation loss: -0.2778 
2023-02-13 20:23:36.152014: Average global foreground Dice: [0.8851, 0.9526, 0.3805, 0.7753, 0.624, 0.5917, 0.6752, 0.7161, 0.7551, 0.6377, 0.9369] 
2023-02-13 20:23:36.152078: (interpret this as an estimate for the Dice of the different classes. This is not exact.) 
2023-02-13 20:23:36.573165: lr: 0.001594 
2023-02-13 20:23:36.573353: This epoch took 86.823619 s
 
2023-02-13 20:23:36.573391: 
epoch:  870 
2023-02-13 20:24:54.982842: train loss : -0.5295 
2023-02-13 20:25:00.447929: validation loss: -0.3023 
2023-02-13 20:25:00.449522: Average global foreground Dice: [0.8922, 0.9471, 0.294, 0.7884, 0.7233, 0.5884, 0.7055, 0.7475, 0.7458, 0.6362, 0.9372] 
2023-02-13 20:25:00.449644: (interpret this as an estimate for the Dice of the different classes. This is not exact.) 
2023-02-13 20:25:00.955579: lr: 0.001583 
2023-02-13 20:25:00.955761: This epoch took 84.382334 s
 
2023-02-13 20:25:00.955799: 
epoch:  871 
2023-02-13 20:26:20.784908: train loss : -0.5393 
2023-02-13 20:26:26.410512: validation loss: -0.2821 
2023-02-13 20:26:26.412046: Average global foreground Dice: [0.8996, 0.9522, 0.4241, 0.7207, 0.6577, 0.5508, 0.637, 0.7061, 0.7552, 0.6, 0.9453] 
2023-02-13 20:26:26.412540: (interpret this as an estimate for the Dice of the different classes. This is not exact.) 
2023-02-13 20:26:27.063725: lr: 0.001572 
2023-02-13 20:26:27.064315: This epoch took 86.108472 s
 
2023-02-13 20:26:27.064383: 
epoch:  872 
2023-02-13 20:28:04.010545: train loss : -0.5313 
2023-02-13 20:28:09.157053: validation loss: -0.2595 
2023-02-13 20:28:09.158232: Average global foreground Dice: [0.8989, 0.9486, 0.3905, 0.7402, 0.5954, 0.5347, 0.6177, 0.7089, 0.7563, 0.5467, 0.9353] 
2023-02-13 20:28:09.158319: (interpret this as an estimate for the Dice of the different classes. This is not exact.) 
2023-02-13 20:28:09.600717: lr: 0.001561 
2023-02-13 20:28:09.601001: This epoch took 102.536572 s
 
2023-02-13 20:28:09.601039: 
epoch:  873 
2023-02-13 20:29:32.043509: train loss : -0.5616 
2023-02-13 20:29:37.213851: validation loss: -0.2726 
2023-02-13 20:29:37.214848: Average global foreground Dice: [0.901, 0.9399, 0.4235, 0.7176, 0.6089, 0.5371, 0.6982, 0.7586, 0.779, 0.6463, 0.9274] 
2023-02-13 20:29:37.214944: (interpret this as an estimate for the Dice of the different classes. This is not exact.) 
2023-02-13 20:29:37.896719: lr: 0.00155 
2023-02-13 20:29:37.896888: This epoch took 88.295810 s
 
2023-02-13 20:29:37.896928: 
epoch:  874 
2023-02-13 20:30:55.473910: train loss : -0.5235 
2023-02-13 20:31:00.590221: validation loss: -0.2903 
2023-02-13 20:31:00.591191: Average global foreground Dice: [0.9008, 0.9395, 0.3997, 0.7509, 0.689, 0.4776, 0.6702, 0.7399, 0.7836, 0.633, 0.9367] 
2023-02-13 20:31:00.591271: (interpret this as an estimate for the Dice of the different classes. This is not exact.) 
2023-02-13 20:31:01.042947: lr: 0.001539 
2023-02-13 20:31:01.043267: This epoch took 83.146296 s
 
2023-02-13 20:31:01.043307: 
epoch:  875 
2023-02-13 20:32:15.098743: train loss : -0.5440 
2023-02-13 20:32:20.545843: validation loss: -0.2773 
2023-02-13 20:32:20.546954: Average global foreground Dice: [0.8961, 0.948, 0.3434, 0.8633, 0.6364, 0.5525, 0.6771, 0.7032, 0.8085, 0.6206, 0.9296] 
2023-02-13 20:32:20.547032: (interpret this as an estimate for the Dice of the different classes. This is not exact.) 
2023-02-13 20:32:21.117066: lr: 0.001528 
2023-02-13 20:32:21.117295: This epoch took 80.073941 s
 
2023-02-13 20:32:21.117332: 
epoch:  876 
2023-02-13 20:33:51.587195: train loss : -0.5362 
2023-02-13 20:33:57.034677: validation loss: -0.3356 
2023-02-13 20:33:57.036155: Average global foreground Dice: [0.8844, 0.9526, 0.4198, 0.7865, 0.6505, 0.6366, 0.7049, 0.729, 0.8193, 0.6709, 0.941] 
2023-02-13 20:33:57.036239: (interpret this as an estimate for the Dice of the different classes. This is not exact.) 
2023-02-13 20:33:57.544899: lr: 0.001517 
2023-02-13 20:33:57.546744: This epoch took 96.429365 s
 
2023-02-13 20:33:57.546827: 
epoch:  877 
2023-02-13 20:35:34.816980: train loss : -0.5367 
2023-02-13 20:35:40.452461: validation loss: -0.2927 
2023-02-13 20:35:40.453525: Average global foreground Dice: [0.8912, 0.9434, 0.4416, 0.8523, 0.6166, 0.6256, 0.6668, 0.6977, 0.7676, 0.6113, 0.9268] 
2023-02-13 20:35:40.453592: (interpret this as an estimate for the Dice of the different classes. This is not exact.) 
2023-02-13 20:35:41.067192: lr: 0.001506 
2023-02-13 20:35:41.067842: This epoch took 103.520946 s
 
2023-02-13 20:35:41.067910: 
epoch:  878 
2023-02-13 20:37:09.504416: train loss : -0.5606 
2023-02-13 20:37:15.644161: validation loss: -0.3128 
2023-02-13 20:37:15.645401: Average global foreground Dice: [0.9039, 0.9348, 0.3409, 0.7713, 0.6708, 0.5417, 0.6903, 0.7158, 0.786, 0.6467, 0.9271] 
2023-02-13 20:37:15.645492: (interpret this as an estimate for the Dice of the different classes. This is not exact.) 
2023-02-13 20:37:16.224094: lr: 0.001495 
2023-02-13 20:37:16.224592: This epoch took 95.156627 s
 
2023-02-13 20:37:16.224670: 
epoch:  879 
2023-02-13 20:46:24.373588: train loss : -0.5489 
2023-02-13 20:46:53.022076: validation loss: -0.2366 
2023-02-13 20:46:53.023196: Average global foreground Dice: [0.9047, 0.9379, 0.3359, 0.6785, 0.6416, 0.4107, 0.5106, 0.6832, 0.7719, 0.5327, 0.9296] 
2023-02-13 20:46:53.028919: (interpret this as an estimate for the Dice of the different classes. This is not exact.) 
2023-02-13 20:46:53.501763: lr: 0.001483 
2023-02-13 20:46:53.501940: This epoch took 577.277216 s
 
2023-02-13 20:46:53.501976: 
epoch:  880 
2023-02-13 20:48:19.244785: train loss : -0.5387 
2023-02-13 20:48:25.367625: validation loss: -0.3046 
2023-02-13 20:48:25.368979: Average global foreground Dice: [0.8848, 0.9426, 0.4046, 0.8051, 0.674, 0.6201, 0.6832, 0.7562, 0.7765, 0.6626, 0.9244] 
2023-02-13 20:48:25.369066: (interpret this as an estimate for the Dice of the different classes. This is not exact.) 
2023-02-13 20:48:25.913312: lr: 0.001472 
2023-02-13 20:48:25.913610: This epoch took 92.411591 s
 
2023-02-13 20:48:25.913664: 
epoch:  881 
2023-02-13 20:50:04.450807: train loss : -0.5365 
2023-02-13 20:50:10.152325: validation loss: -0.2626 
2023-02-13 20:50:10.153480: Average global foreground Dice: [0.8968, 0.9485, 0.3225, 0.7703, 0.6402, 0.5313, 0.6052, 0.6757, 0.7746, 0.5515, 0.9271] 
2023-02-13 20:50:10.153555: (interpret this as an estimate for the Dice of the different classes. This is not exact.) 
2023-02-13 20:50:10.723447: lr: 0.001461 
2023-02-13 20:50:10.724048: This epoch took 104.810329 s
 
2023-02-13 20:50:10.724108: 
epoch:  882 
2023-02-13 20:51:54.403768: train loss : -0.5541 
2023-02-13 20:52:00.304183: validation loss: -0.2979 
2023-02-13 20:52:00.305512: Average global foreground Dice: [0.9068, 0.9476, 0.3701, 0.8685, 0.6903, 0.5869, 0.7086, 0.7852, 0.8084, 0.6745, 0.9344] 
2023-02-13 20:52:00.305631: (interpret this as an estimate for the Dice of the different classes. This is not exact.) 
2023-02-13 20:52:00.881457: lr: 0.00145 
2023-02-13 20:52:00.881792: This epoch took 110.157623 s
 
2023-02-13 20:52:00.881838: 
epoch:  883 
2023-02-13 20:53:38.309016: train loss : -0.5631 
2023-02-13 20:53:43.660213: validation loss: -0.2361 
2023-02-13 20:53:43.662151: Average global foreground Dice: [0.9135, 0.951, 0.3907, 0.6999, 0.6089, 0.5697, 0.6561, 0.716, 0.7851, 0.6045, 0.9373] 
2023-02-13 20:53:43.662258: (interpret this as an estimate for the Dice of the different classes. This is not exact.) 
2023-02-13 20:53:44.525375: lr: 0.001439 
2023-02-13 20:53:44.525821: This epoch took 103.643944 s
 
2023-02-13 20:53:44.525866: 
epoch:  884 
2023-02-13 20:55:42.366584: train loss : -0.5597 
2023-02-13 20:55:47.661331: validation loss: -0.3298 
2023-02-13 20:55:47.662691: Average global foreground Dice: [0.8895, 0.9427, 0.3993, 0.7789, 0.6993, 0.6504, 0.7366, 0.766, 0.8034, 0.7005, 0.928] 
2023-02-13 20:55:47.662774: (interpret this as an estimate for the Dice of the different classes. This is not exact.) 
2023-02-13 20:55:48.194348: lr: 0.001428 
2023-02-13 20:55:48.194755: This epoch took 123.668845 s
 
2023-02-13 20:55:48.194821: 
epoch:  885 
2023-02-13 20:57:19.558288: train loss : -0.5382 
2023-02-13 20:57:25.491223: validation loss: -0.3329 
2023-02-13 20:57:25.492636: Average global foreground Dice: [0.8972, 0.9454, 0.3308, 0.7497, 0.6602, 0.5985, 0.7047, 0.7206, 0.7768, 0.6611, 0.9203] 
2023-02-13 20:57:25.492730: (interpret this as an estimate for the Dice of the different classes. This is not exact.) 
2023-02-13 20:57:25.994059: lr: 0.001416 
2023-02-13 20:57:25.994389: This epoch took 97.799510 s
 
2023-02-13 20:57:25.994438: 
epoch:  886 
2023-02-13 20:58:51.349010: train loss : -0.5385 
2023-02-13 20:58:57.114695: validation loss: -0.3091 
2023-02-13 20:58:57.115862: Average global foreground Dice: [0.8927, 0.951, 0.3857, 0.8319, 0.633, 0.6655, 0.7428, 0.7454, 0.7874, 0.693, 0.9287] 
2023-02-13 20:58:57.115942: (interpret this as an estimate for the Dice of the different classes. This is not exact.) 
2023-02-13 20:58:57.591976: lr: 0.001405 
2023-02-13 20:58:57.592287: This epoch took 91.597797 s
 
2023-02-13 20:58:57.592327: 
epoch:  887 
2023-02-13 21:00:11.167165: train loss : -0.5570 
2023-02-13 21:00:16.235254: validation loss: -0.2953 
2023-02-13 21:00:16.236041: Average global foreground Dice: [0.9056, 0.9487, 0.4027, 0.8133, 0.5807, 0.6055, 0.7123, 0.7487, 0.75, 0.6631, 0.9417] 
2023-02-13 21:00:16.236108: (interpret this as an estimate for the Dice of the different classes. This is not exact.) 
2023-02-13 21:00:16.724072: lr: 0.001394 
2023-02-13 21:00:16.724294: This epoch took 79.131928 s
 
2023-02-13 21:00:16.724334: 
epoch:  888 
2023-02-13 21:01:36.196712: train loss : -0.5368 
2023-02-13 21:01:41.824250: validation loss: -0.3023 
2023-02-13 21:01:41.825836: Average global foreground Dice: [0.9127, 0.9443, 0.4158, 0.7812, 0.6601, 0.6048, 0.7097, 0.7467, 0.7797, 0.6792, 0.9298] 
2023-02-13 21:01:41.826661: (interpret this as an estimate for the Dice of the different classes. This is not exact.) 
2023-02-13 21:01:42.327885: lr: 0.001383 
2023-02-13 21:01:42.328255: This epoch took 85.603873 s
 
2023-02-13 21:01:42.328332: 
epoch:  889 
2023-02-13 21:02:59.730772: train loss : -0.5542 
2023-02-13 21:03:05.033272: validation loss: -0.3209 
2023-02-13 21:03:05.034166: Average global foreground Dice: [0.8905, 0.9371, 0.3799, 0.7799, 0.6908, 0.5681, 0.7017, 0.7473, 0.8042, 0.6566, 0.9171] 
2023-02-13 21:03:05.034237: (interpret this as an estimate for the Dice of the different classes. This is not exact.) 
2023-02-13 21:03:05.503090: lr: 0.001372 
2023-02-13 21:03:05.503290: This epoch took 83.174903 s
 
2023-02-13 21:03:05.503327: 
epoch:  890 
2023-02-13 21:04:19.537276: train loss : -0.5527 
2023-02-13 21:04:24.729321: validation loss: -0.3090 
2023-02-13 21:04:24.730790: Average global foreground Dice: [0.9132, 0.9542, 0.3677, 0.6924, 0.651, 0.6413, 0.702, 0.7018, 0.7884, 0.6544, 0.9287] 
2023-02-13 21:04:24.730916: (interpret this as an estimate for the Dice of the different classes. This is not exact.) 
2023-02-13 21:04:25.259480: lr: 0.00136 
2023-02-13 21:04:25.259758: This epoch took 79.756389 s
 
2023-02-13 21:04:25.259812: 
epoch:  891 
2023-02-13 21:05:38.385016: train loss : -0.5425 
2023-02-13 21:05:43.464388: validation loss: -0.3181 
2023-02-13 21:05:43.465277: Average global foreground Dice: [0.9065, 0.9484, 0.3434, 0.8141, 0.6662, 0.6689, 0.7054, 0.7767, 0.8144, 0.6819, 0.9298] 
2023-02-13 21:05:43.465343: (interpret this as an estimate for the Dice of the different classes. This is not exact.) 
2023-02-13 21:05:43.972886: lr: 0.001349 
2023-02-13 21:05:43.973080: This epoch took 78.713220 s
 
2023-02-13 21:05:43.973126: 
epoch:  892 
2023-02-13 21:07:09.769116: train loss : -0.5357 
2023-02-13 21:07:15.361925: validation loss: -0.2846 
2023-02-13 21:07:15.362925: Average global foreground Dice: [0.9033, 0.9515, 0.3618, 0.7864, 0.6477, 0.5525, 0.6283, 0.7015, 0.7573, 0.6144, 0.9394] 
2023-02-13 21:07:15.363053: (interpret this as an estimate for the Dice of the different classes. This is not exact.) 
2023-02-13 21:07:15.818703: lr: 0.001338 
2023-02-13 21:07:15.818985: This epoch took 91.845804 s
 
2023-02-13 21:07:15.819024: 
epoch:  893 
2023-02-13 21:08:48.131569: train loss : -0.5182 
2023-02-13 21:08:53.869923: validation loss: -0.3295 
2023-02-13 21:08:53.871442: Average global foreground Dice: [0.8953, 0.9433, 0.4281, 0.7859, 0.6718, 0.5882, 0.6819, 0.7593, 0.82, 0.672, 0.932] 
2023-02-13 21:08:53.871565: (interpret this as an estimate for the Dice of the different classes. This is not exact.) 
2023-02-13 21:08:54.851555: lr: 0.001327 
2023-02-13 21:08:54.851991: This epoch took 99.032893 s
 
2023-02-13 21:08:54.852032: 
epoch:  894 
2023-02-13 21:10:26.124498: train loss : -0.5484 
2023-02-13 21:10:31.874089: validation loss: -0.3092 
2023-02-13 21:10:31.875112: Average global foreground Dice: [0.9046, 0.9484, 0.333, 0.8281, 0.6957, 0.6002, 0.7242, 0.7461, 0.7943, 0.6773, 0.9262] 
2023-02-13 21:10:31.875185: (interpret this as an estimate for the Dice of the different classes. This is not exact.) 
2023-02-13 21:10:32.344257: lr: 0.001315 
2023-02-13 21:10:32.344547: This epoch took 97.492478 s
 
2023-02-13 21:10:32.344586: 
epoch:  895 
2023-02-13 21:12:08.586931: train loss : -0.5451 
2023-02-13 21:12:14.079093: validation loss: -0.3331 
2023-02-13 21:12:14.080336: Average global foreground Dice: [0.9086, 0.9424, 0.3564, 0.8198, 0.7073, 0.629, 0.7066, 0.7863, 0.8301, 0.683, 0.9428] 
2023-02-13 21:12:14.080419: (interpret this as an estimate for the Dice of the different classes. This is not exact.) 
2023-02-13 21:12:14.547277: lr: 0.001304 
2023-02-13 21:12:14.547594: This epoch took 102.202959 s
 
2023-02-13 21:12:14.547633: 
epoch:  896 
2023-02-13 21:13:47.287947: train loss : -0.5548 
2023-02-13 21:13:53.474411: validation loss: -0.2683 
2023-02-13 21:13:53.475810: Average global foreground Dice: [0.9078, 0.9557, 0.4226, 0.7291, 0.6616, 0.555, 0.6534, 0.7308, 0.7947, 0.659, 0.9418] 
2023-02-13 21:13:53.475917: (interpret this as an estimate for the Dice of the different classes. This is not exact.) 
2023-02-13 21:13:54.019121: lr: 0.001293 
2023-02-13 21:13:54.019619: This epoch took 99.471941 s
 
2023-02-13 21:13:54.019663: 
epoch:  897 
2023-02-13 21:15:28.973717: train loss : -0.5660 
2023-02-13 21:15:34.725938: validation loss: -0.3065 
2023-02-13 21:15:34.727214: Average global foreground Dice: [0.8912, 0.9436, 0.3609, 0.7959, 0.6252, 0.6463, 0.7188, 0.7718, 0.7495, 0.691, 0.9333] 
2023-02-13 21:15:34.727319: (interpret this as an estimate for the Dice of the different classes. This is not exact.) 
2023-02-13 21:15:35.263340: lr: 0.001282 
2023-02-13 21:15:35.263691: This epoch took 101.243980 s
 
2023-02-13 21:15:35.263734: 
epoch:  898 
2023-02-13 21:17:05.199500: train loss : -0.5672 
2023-02-13 21:17:10.834130: validation loss: -0.3129 
2023-02-13 21:17:10.835151: Average global foreground Dice: [0.8711, 0.9451, 0.3093, 0.8267, 0.6923, 0.6026, 0.7069, 0.7677, 0.8176, 0.6547, 0.9394] 
2023-02-13 21:17:10.835238: (interpret this as an estimate for the Dice of the different classes. This is not exact.) 
2023-02-13 21:17:11.307812: lr: 0.00127 
2023-02-13 21:17:11.308157: This epoch took 96.044371 s
 
2023-02-13 21:17:11.308194: 
epoch:  899 
2023-02-13 21:18:49.153908: train loss : -0.5288 
2023-02-13 21:18:54.819041: validation loss: -0.2962 
2023-02-13 21:18:54.820565: Average global foreground Dice: [0.8958, 0.9406, 0.4014, 0.7066, 0.5933, 0.5972, 0.6986, 0.7191, 0.7754, 0.6239, 0.9229] 
2023-02-13 21:18:54.820668: (interpret this as an estimate for the Dice of the different classes. This is not exact.) 
2023-02-13 21:18:55.604030: lr: 0.001259 
2023-02-13 21:18:55.604652: saving scheduled checkpoint file... 
2023-02-13 21:18:55.728516: saving checkpoint... 
2023-02-13 21:18:57.290682: done, saving took 1.69 seconds 
2023-02-13 21:18:57.292877: done 
2023-02-13 21:18:57.292945: This epoch took 105.984717 s
 
2023-02-13 21:18:57.292977: 
epoch:  900 
2023-02-13 21:20:55.823930: train loss : -0.5313 
2023-02-13 21:21:01.514725: validation loss: -0.3611 
2023-02-13 21:21:01.516241: Average global foreground Dice: [0.901, 0.9473, 0.3436, 0.8681, 0.6531, 0.6485, 0.7473, 0.7815, 0.7948, 0.7094, 0.9333] 
2023-02-13 21:21:01.516350: (interpret this as an estimate for the Dice of the different classes. This is not exact.) 
2023-02-13 21:21:02.089198: lr: 0.001248 
2023-02-13 21:21:02.089870: This epoch took 124.796848 s
 
2023-02-13 21:21:02.089928: 
epoch:  901 
2023-02-13 21:22:35.604909: train loss : -0.5559 
2023-02-13 21:22:41.024340: validation loss: -0.3307 
2023-02-13 21:22:41.025538: Average global foreground Dice: [0.8624, 0.9454, 0.3778, 0.8046, 0.707, 0.6743, 0.7364, 0.7302, 0.784, 0.6958, 0.9316] 
2023-02-13 21:22:41.025634: (interpret this as an estimate for the Dice of the different classes. This is not exact.) 
2023-02-13 21:22:41.505739: lr: 0.001236 
2023-02-13 21:22:41.505935: This epoch took 99.415965 s
 
2023-02-13 21:22:41.505970: 
epoch:  902 
2023-02-13 21:24:09.122293: train loss : -0.5625 
2023-02-13 21:24:14.300333: validation loss: -0.2438 
2023-02-13 21:24:14.301414: Average global foreground Dice: [0.8649, 0.9552, 0.3988, 0.7893, 0.6712, 0.5508, 0.591, 0.6653, 0.8121, 0.5622, 0.937] 
2023-02-13 21:24:14.301483: (interpret this as an estimate for the Dice of the different classes. This is not exact.) 
2023-02-13 21:24:15.016438: lr: 0.001225 
2023-02-13 21:24:15.016732: This epoch took 93.510720 s
 
2023-02-13 21:24:15.016775: 
epoch:  903 
2023-02-13 21:25:37.071566: train loss : -0.5518 
2023-02-13 21:25:42.219103: validation loss: -0.2782 
2023-02-13 21:25:42.220195: Average global foreground Dice: [0.9273, 0.949, 0.3211, 0.7981, 0.6751, 0.5655, 0.6495, 0.6857, 0.7751, 0.6078, 0.9339] 
2023-02-13 21:25:42.220294: (interpret this as an estimate for the Dice of the different classes. This is not exact.) 
2023-02-13 21:25:42.711581: lr: 0.001214 
2023-02-13 21:25:42.712100: This epoch took 87.695284 s
 
2023-02-13 21:25:42.712145: 
epoch:  904 
2023-02-13 21:27:04.211979: train loss : -0.5453 
2023-02-13 21:27:09.452536: validation loss: -0.3066 
2023-02-13 21:27:09.453493: Average global foreground Dice: [0.8965, 0.9343, 0.3742, 0.7224, 0.6649, 0.6135, 0.7189, 0.7638, 0.7966, 0.6673, 0.9387] 
2023-02-13 21:27:09.453553: (interpret this as an estimate for the Dice of the different classes. This is not exact.) 
2023-02-13 21:27:09.893505: lr: 0.001202 
2023-02-13 21:27:09.893800: This epoch took 87.181612 s
 
2023-02-13 21:27:09.893844: 
epoch:  905 
2023-02-13 21:28:20.777426: train loss : -0.5421 
2023-02-13 21:28:25.993540: validation loss: -0.2813 
2023-02-13 21:28:25.994602: Average global foreground Dice: [0.8966, 0.9493, 0.3669, 0.7311, 0.5653, 0.6076, 0.6807, 0.7052, 0.7388, 0.6386, 0.926] 
2023-02-13 21:28:25.994668: (interpret this as an estimate for the Dice of the different classes. This is not exact.) 
2023-02-13 21:28:26.438058: lr: 0.001191 
2023-02-13 21:28:26.438238: This epoch took 76.544320 s
 
2023-02-13 21:28:26.438281: 
epoch:  906 
2023-02-13 21:29:40.215022: train loss : -0.5392 
2023-02-13 21:29:45.432261: validation loss: -0.3054 
2023-02-13 21:29:45.433289: Average global foreground Dice: [0.8863, 0.9391, 0.3589, 0.7469, 0.6879, 0.6123, 0.7128, 0.7416, 0.802, 0.6907, 0.9386] 
2023-02-13 21:29:45.433381: (interpret this as an estimate for the Dice of the different classes. This is not exact.) 
2023-02-13 21:29:45.878422: lr: 0.001179 
2023-02-13 21:29:45.878910: This epoch took 79.440588 s
 
2023-02-13 21:29:45.878965: 
epoch:  907 
2023-02-13 21:31:03.109148: train loss : -0.5429 
2023-02-13 21:31:08.199900: validation loss: -0.2504 
2023-02-13 21:31:08.200725: Average global foreground Dice: [0.9029, 0.9504, 0.4271, 0.8134, 0.6775, 0.4968, 0.6063, 0.7069, 0.7549, 0.5517, 0.9483] 
2023-02-13 21:31:08.200788: (interpret this as an estimate for the Dice of the different classes. This is not exact.) 
2023-02-13 21:31:08.645253: lr: 0.001168 
2023-02-13 21:31:08.645427: This epoch took 82.766419 s
 
2023-02-13 21:31:08.645460: 
epoch:  908 
2023-02-13 21:32:38.791208: train loss : -0.5381 
2023-02-13 21:32:43.898001: validation loss: -0.3516 
2023-02-13 21:32:43.898942: Average global foreground Dice: [0.8974, 0.9423, 0.3319, 0.7697, 0.6974, 0.6003, 0.7301, 0.7744, 0.814, 0.6818, 0.9402] 
2023-02-13 21:32:43.899012: (interpret this as an estimate for the Dice of the different classes. This is not exact.) 
2023-02-13 21:32:44.322467: lr: 0.001156 
2023-02-13 21:32:44.322741: This epoch took 95.677246 s
 
2023-02-13 21:32:44.322778: 
epoch:  909 
2023-02-13 21:34:12.117770: train loss : -0.5464 
2023-02-13 21:34:17.282659: validation loss: -0.3225 
2023-02-13 21:34:17.283228: Average global foreground Dice: [0.9005, 0.9472, 0.3437, 0.7895, 0.6925, 0.6848, 0.7332, 0.7639, 0.7958, 0.6913, 0.9338] 
2023-02-13 21:34:17.283344: (interpret this as an estimate for the Dice of the different classes. This is not exact.) 
2023-02-13 21:34:17.672995: lr: 0.001145 
2023-02-13 21:34:17.673153: This epoch took 93.350341 s
 
2023-02-13 21:34:17.673187: 
epoch:  910 
2023-02-13 21:35:26.436925: train loss : -0.5427 
2023-02-13 21:35:31.725340: validation loss: -0.2941 
2023-02-13 21:35:31.726449: Average global foreground Dice: [0.8526, 0.9516, 0.3828, 0.7908, 0.613, 0.542, 0.6415, 0.6656, 0.7604, 0.5962, 0.9471] 
2023-02-13 21:35:31.726562: (interpret this as an estimate for the Dice of the different classes. This is not exact.) 
2023-02-13 21:35:32.360017: lr: 0.001134 
2023-02-13 21:35:32.360252: This epoch took 74.687028 s
 
2023-02-13 21:35:32.360298: 
epoch:  911 
2023-02-13 21:36:49.042659: train loss : -0.5284 
2023-02-13 21:36:54.225231: validation loss: -0.2579 
2023-02-13 21:36:54.226628: Average global foreground Dice: [0.9056, 0.9412, 0.3319, 0.7832, 0.6501, 0.542, 0.6622, 0.6858, 0.8035, 0.6451, 0.9261] 
2023-02-13 21:36:54.226715: (interpret this as an estimate for the Dice of the different classes. This is not exact.) 
2023-02-13 21:36:54.742352: lr: 0.001122 
2023-02-13 21:36:54.742623: This epoch took 82.382270 s
 
2023-02-13 21:36:54.742660: 
epoch:  912 
2023-02-13 21:38:05.426222: train loss : -0.5462 
2023-02-13 21:38:10.689549: validation loss: -0.2968 
2023-02-13 21:38:10.690670: Average global foreground Dice: [0.8997, 0.948, 0.3424, 0.7274, 0.7219, 0.5961, 0.6765, 0.7244, 0.7661, 0.6517, 0.9378] 
2023-02-13 21:38:10.690967: (interpret this as an estimate for the Dice of the different classes. This is not exact.) 
2023-02-13 21:38:11.373324: lr: 0.001111 
2023-02-13 21:38:11.373465: This epoch took 76.630770 s
 
2023-02-13 21:38:11.373499: 
epoch:  913 
2023-02-13 21:39:22.278553: train loss : -0.5315 
2023-02-13 21:39:27.642674: validation loss: -0.2971 
2023-02-13 21:39:27.643552: Average global foreground Dice: [0.8777, 0.9376, 0.3769, 0.8067, 0.6699, 0.598, 0.64, 0.7186, 0.7748, 0.6434, 0.9329] 
2023-02-13 21:39:27.643619: (interpret this as an estimate for the Dice of the different classes. This is not exact.) 
2023-02-13 21:39:28.089395: lr: 0.001099 
2023-02-13 21:39:28.089593: This epoch took 76.716058 s
 
2023-02-13 21:39:28.089628: 
epoch:  914 
2023-02-13 21:40:46.226726: train loss : -0.5366 
2023-02-13 21:40:51.317315: validation loss: -0.2975 
2023-02-13 21:40:51.318000: Average global foreground Dice: [0.8888, 0.9552, 0.3755, 0.7643, 0.6987, 0.5868, 0.6534, 0.7222, 0.7866, 0.6458, 0.929] 
2023-02-13 21:40:51.318056: (interpret this as an estimate for the Dice of the different classes. This is not exact.) 
2023-02-13 21:40:51.722016: lr: 0.001088 
2023-02-13 21:40:51.722161: This epoch took 83.632499 s
 
2023-02-13 21:40:51.722195: 
epoch:  915 
2023-02-13 21:42:06.366775: train loss : -0.5592 
2023-02-13 21:42:11.551558: validation loss: -0.2879 
2023-02-13 21:42:11.552510: Average global foreground Dice: [0.9125, 0.9378, 0.3521, 0.7881, 0.5922, 0.5833, 0.7233, 0.7554, 0.805, 0.6658, 0.9374] 
2023-02-13 21:42:11.552576: (interpret this as an estimate for the Dice of the different classes. This is not exact.) 
2023-02-13 21:42:11.981645: lr: 0.001076 
2023-02-13 21:42:11.981848: This epoch took 80.259619 s
 
2023-02-13 21:42:11.981884: 
epoch:  916 
2023-02-13 21:43:25.359430: train loss : -0.5483 
2023-02-13 21:43:30.533747: validation loss: -0.2817 
2023-02-13 21:43:30.534347: Average global foreground Dice: [0.9168, 0.9507, 0.4073, 0.7754, 0.6642, 0.6126, 0.6834, 0.7337, 0.7956, 0.6538, 0.9401] 
2023-02-13 21:43:30.534409: (interpret this as an estimate for the Dice of the different classes. This is not exact.) 
2023-02-13 21:43:30.961518: lr: 0.001065 
2023-02-13 21:43:30.961779: This epoch took 78.979858 s
 
2023-02-13 21:43:30.961813: 
epoch:  917 
2023-02-13 21:44:50.575006: train loss : -0.5515 
2023-02-13 21:44:55.841315: validation loss: -0.3025 
2023-02-13 21:44:55.842005: Average global foreground Dice: [0.8848, 0.951, 0.3845, 0.8309, 0.6497, 0.5854, 0.6691, 0.7027, 0.7467, 0.6363, 0.9433] 
2023-02-13 21:44:55.842069: (interpret this as an estimate for the Dice of the different classes. This is not exact.) 
2023-02-13 21:44:56.307447: lr: 0.001053 
2023-02-13 21:44:56.307943: This epoch took 85.346087 s
 
2023-02-13 21:44:56.308001: 
epoch:  918 
2023-02-13 21:46:21.113250: train loss : -0.5580 
2023-02-13 21:46:26.259944: validation loss: -0.2746 
2023-02-13 21:46:26.260645: Average global foreground Dice: [0.889, 0.9478, 0.4265, 0.7906, 0.6753, 0.606, 0.6668, 0.7039, 0.7004, 0.6822, 0.9319] 
2023-02-13 21:46:26.260723: (interpret this as an estimate for the Dice of the different classes. This is not exact.) 
2023-02-13 21:46:26.676270: lr: 0.001041 
2023-02-13 21:46:26.676475: This epoch took 90.368429 s
 
2023-02-13 21:46:26.676509: 
epoch:  919 
2023-02-13 21:47:37.893786: train loss : -0.5516 
2023-02-13 21:47:43.054097: validation loss: -0.3009 
2023-02-13 21:47:43.055331: Average global foreground Dice: [0.8711, 0.9529, 0.3853, 0.7955, 0.6742, 0.6369, 0.7159, 0.7719, 0.8012, 0.6834, 0.93] 
2023-02-13 21:47:43.055413: (interpret this as an estimate for the Dice of the different classes. This is not exact.) 
2023-02-13 21:47:43.544693: lr: 0.00103 
2023-02-13 21:47:43.544896: This epoch took 76.868349 s
 
2023-02-13 21:47:43.544930: 
epoch:  920 
2023-02-13 21:48:55.338634: train loss : -0.5504 
2023-02-13 21:49:00.499088: validation loss: -0.3422 
2023-02-13 21:49:00.499951: Average global foreground Dice: [0.8745, 0.9519, 0.3996, 0.7018, 0.718, 0.524, 0.6712, 0.766, 0.8184, 0.664, 0.9389] 
2023-02-13 21:49:00.500012: (interpret this as an estimate for the Dice of the different classes. This is not exact.) 
2023-02-13 21:49:00.951412: lr: 0.001018 
2023-02-13 21:49:00.951646: This epoch took 77.406679 s
 
2023-02-13 21:49:00.951683: 
epoch:  921 
2023-02-13 21:50:13.698297: train loss : -0.5498 
2023-02-13 21:50:18.891075: validation loss: -0.2835 
2023-02-13 21:50:18.892343: Average global foreground Dice: [0.8807, 0.9437, 0.4181, 0.8095, 0.6285, 0.5838, 0.7039, 0.7416, 0.8188, 0.6311, 0.9276] 
2023-02-13 21:50:18.892471: (interpret this as an estimate for the Dice of the different classes. This is not exact.) 
2023-02-13 21:50:19.302003: lr: 0.001007 
2023-02-13 21:50:19.302203: This epoch took 78.350484 s
 
2023-02-13 21:50:19.302238: 
epoch:  922 
2023-02-13 21:51:36.333854: train loss : -0.5506 
2023-02-13 21:51:41.611410: validation loss: -0.2758 
2023-02-13 21:51:41.612348: Average global foreground Dice: [0.907, 0.9457, 0.3589, 0.669, 0.6959, 0.462, 0.6306, 0.6972, 0.7917, 0.614, 0.9391] 
2023-02-13 21:51:41.612510: (interpret this as an estimate for the Dice of the different classes. This is not exact.) 
2023-02-13 21:51:42.483287: lr: 0.000995 
2023-02-13 21:51:42.483614: This epoch took 83.181335 s
 
2023-02-13 21:51:42.483659: 
epoch:  923 
2023-02-13 21:53:05.810626: train loss : -0.5390 
2023-02-13 21:53:11.088844: validation loss: -0.3385 
2023-02-13 21:53:11.090854: Average global foreground Dice: [0.8797, 0.9448, 0.4602, 0.7774, 0.6899, 0.6256, 0.742, 0.7745, 0.811, 0.7169, 0.9372] 
2023-02-13 21:53:11.091492: (interpret this as an estimate for the Dice of the different classes. This is not exact.) 
2023-02-13 21:53:11.617831: lr: 0.000983 
2023-02-13 21:53:11.618364: This epoch took 89.134651 s
 
2023-02-13 21:53:11.618411: 
epoch:  924 
2023-02-13 21:54:25.231763: train loss : -0.5442 
2023-02-13 21:54:30.475718: validation loss: -0.2607 
2023-02-13 21:54:30.477001: Average global foreground Dice: [0.9048, 0.9428, 0.3184, 0.7793, 0.6056, 0.5352, 0.6447, 0.7078, 0.7928, 0.5869, 0.9334] 
2023-02-13 21:54:30.477080: (interpret this as an estimate for the Dice of the different classes. This is not exact.) 
2023-02-13 21:54:30.946446: lr: 0.000972 
2023-02-13 21:54:30.946718: This epoch took 79.328262 s
 
2023-02-13 21:54:30.946757: 
epoch:  925 
2023-02-13 21:56:05.325906: train loss : -0.5562 
2023-02-13 21:56:12.260231: validation loss: -0.3251 
2023-02-13 21:56:12.261672: Average global foreground Dice: [0.8954, 0.949, 0.3933, 0.758, 0.6919, 0.6274, 0.7284, 0.7383, 0.7767, 0.6912, 0.936] 
2023-02-13 21:56:12.261778: (interpret this as an estimate for the Dice of the different classes. This is not exact.) 
2023-02-13 21:56:13.443077: lr: 0.00096 
2023-02-13 21:56:13.444034: This epoch took 102.497227 s
 
2023-02-13 21:56:13.444092: 
epoch:  926 
2023-02-13 22:04:54.326481: train loss : -0.5350 
2023-02-13 22:05:41.360378: validation loss: -0.2983 
2023-02-13 22:05:41.426478: Average global foreground Dice: [0.9198, 0.9564, 0.4165, 0.8332, 0.7017, 0.5676, 0.7086, 0.7496, 0.7809, 0.6407, 0.9429] 
2023-02-13 22:05:41.427295: (interpret this as an estimate for the Dice of the different classes. This is not exact.) 
2023-02-13 22:05:42.004065: lr: 0.000948 
2023-02-13 22:05:42.004360: This epoch took 568.560210 s
 
2023-02-13 22:05:42.004398: 
epoch:  927 
2023-02-13 22:19:28.269377: train loss : -0.5525 
2023-02-13 22:20:34.085793: validation loss: -0.3280 
2023-02-13 22:20:34.265687: Average global foreground Dice: [0.8846, 0.9493, 0.3832, 0.7462, 0.6185, 0.6541, 0.7106, 0.6995, 0.744, 0.6739, 0.9383] 
2023-02-13 22:20:34.266053: (interpret this as an estimate for the Dice of the different classes. This is not exact.) 
2023-02-13 22:20:34.742211: lr: 0.000937 
2023-02-13 22:20:34.742392: This epoch took 892.737957 s
 
2023-02-13 22:20:34.742440: 
epoch:  928 
2023-02-13 22:31:15.707974: train loss : -0.5518 
2023-02-13 22:31:39.754352: validation loss: -0.2656 
2023-02-13 22:31:39.755096: Average global foreground Dice: [0.9144, 0.9513, 0.379, 0.7367, 0.613, 0.5567, 0.6299, 0.7115, 0.7635, 0.6195, 0.9359] 
2023-02-13 22:31:39.755150: (interpret this as an estimate for the Dice of the different classes. This is not exact.) 
2023-02-13 22:31:40.204754: lr: 0.000925 
2023-02-13 22:31:40.204986: This epoch took 665.462500 s
 
2023-02-13 22:31:40.205037: 
epoch:  929 
2023-02-13 22:33:07.924633: train loss : -0.5506 
2023-02-13 22:33:13.176430: validation loss: -0.2645 
2023-02-13 22:33:13.178332: Average global foreground Dice: [0.9031, 0.9488, 0.3985, 0.6888, 0.6497, 0.5698, 0.678, 0.7358, 0.7618, 0.6436, 0.9477] 
2023-02-13 22:33:13.180073: (interpret this as an estimate for the Dice of the different classes. This is not exact.) 
2023-02-13 22:33:13.777166: lr: 0.000913 
2023-02-13 22:33:13.777494: This epoch took 93.572394 s
 
2023-02-13 22:33:13.777528: 
epoch:  930 
2023-02-13 22:34:37.091115: train loss : -0.5545 
2023-02-13 22:34:42.504591: validation loss: -0.3255 
2023-02-13 22:34:42.505589: Average global foreground Dice: [0.892, 0.9414, 0.3535, 0.7666, 0.6408, 0.5982, 0.7466, 0.7637, 0.7878, 0.6744, 0.9345] 
2023-02-13 22:34:42.505658: (interpret this as an estimate for the Dice of the different classes. This is not exact.) 
2023-02-13 22:34:42.954875: lr: 0.000901 
2023-02-13 22:34:42.955229: This epoch took 89.177662 s
 
2023-02-13 22:34:42.955271: 
epoch:  931 
2023-02-13 22:35:57.112151: train loss : -0.5643 
2023-02-13 22:36:02.441185: validation loss: -0.3198 
2023-02-13 22:36:02.442256: Average global foreground Dice: [0.889, 0.9493, 0.3389, 0.7379, 0.6981, 0.6047, 0.7134, 0.7639, 0.814, 0.6643, 0.9317] 
2023-02-13 22:36:02.442327: (interpret this as an estimate for the Dice of the different classes. This is not exact.) 
2023-02-13 22:36:02.897252: lr: 0.00089 
2023-02-13 22:36:02.897439: This epoch took 79.942129 s
 
2023-02-13 22:36:02.897474: 
epoch:  932 
2023-02-13 22:37:20.658214: train loss : -0.5465 
2023-02-13 22:37:25.861264: validation loss: -0.2929 
2023-02-13 22:37:25.862485: Average global foreground Dice: [0.8884, 0.948, 0.3567, 0.8472, 0.6212, 0.5874, 0.7259, 0.7466, 0.7181, 0.6681, 0.9321] 
2023-02-13 22:37:25.862560: (interpret this as an estimate for the Dice of the different classes. This is not exact.) 
2023-02-13 22:37:26.395302: lr: 0.000878 
2023-02-13 22:37:26.395566: This epoch took 83.498056 s
 
2023-02-13 22:37:26.395604: 
epoch:  933 
2023-02-13 22:38:42.339028: train loss : -0.5503 
2023-02-13 22:38:47.694965: validation loss: -0.3422 
2023-02-13 22:38:47.696027: Average global foreground Dice: [0.8967, 0.9449, 0.3267, 0.7444, 0.68, 0.6811, 0.7197, 0.798, 0.8161, 0.6977, 0.9315] 
2023-02-13 22:38:47.696101: (interpret this as an estimate for the Dice of the different classes. This is not exact.) 
2023-02-13 22:38:48.186453: lr: 0.000866 
2023-02-13 22:38:48.186829: This epoch took 81.791179 s
 
2023-02-13 22:38:48.186966: 
epoch:  934 
2023-02-13 22:40:12.499652: train loss : -0.5329 
2023-02-13 22:40:17.778045: validation loss: -0.3016 
2023-02-13 22:40:17.779553: Average global foreground Dice: [0.9003, 0.9535, 0.3672, 0.7669, 0.6178, 0.6582, 0.6984, 0.738, 0.7837, 0.6842, 0.9372] 
2023-02-13 22:40:17.779636: (interpret this as an estimate for the Dice of the different classes. This is not exact.) 
2023-02-13 22:40:18.236972: lr: 0.000854 
2023-02-13 22:40:18.237181: This epoch took 90.050165 s
 
2023-02-13 22:40:18.237219: 
epoch:  935 
2023-02-13 22:42:03.102323: train loss : -0.5448 
2023-02-13 22:42:08.909031: validation loss: -0.3388 
2023-02-13 22:42:08.913433: Average global foreground Dice: [0.8908, 0.9481, 0.358, 0.8424, 0.6741, 0.6391, 0.7349, 0.7613, 0.79, 0.6759, 0.926] 
2023-02-13 22:42:08.920024: (interpret this as an estimate for the Dice of the different classes. This is not exact.) 
2023-02-13 22:42:09.645332: lr: 0.000842 
2023-02-13 22:42:09.645587: This epoch took 111.408331 s
 
2023-02-13 22:42:09.645634: 
epoch:  936 
2023-02-13 22:44:11.691597: train loss : -0.5405 
2023-02-13 22:44:33.007241: validation loss: -0.2977 
2023-02-13 22:44:33.029689: Average global foreground Dice: [0.8783, 0.95, 0.3524, 0.7373, 0.675, 0.544, 0.6428, 0.7172, 0.7956, 0.6088, 0.9474] 
2023-02-13 22:44:33.030409: (interpret this as an estimate for the Dice of the different classes. This is not exact.) 
2023-02-13 22:44:33.521344: lr: 0.000831 
2023-02-13 22:44:33.521645: This epoch took 143.875962 s
 
2023-02-13 22:44:33.521701: 
epoch:  937 
2023-02-13 22:59:03.705755: train loss : -0.5611 
2023-02-13 22:59:52.989798: validation loss: -0.3302 
2023-02-13 22:59:53.097143: Average global foreground Dice: [0.9094, 0.9504, 0.3723, 0.7637, 0.6778, 0.589, 0.6734, 0.7483, 0.7805, 0.6669, 0.9348] 
2023-02-13 22:59:53.097612: (interpret this as an estimate for the Dice of the different classes. This is not exact.) 
2023-02-13 22:59:53.588966: lr: 0.000819 
2023-02-13 22:59:53.589602: This epoch took 920.067840 s
 
2023-02-13 22:59:53.589803: 
epoch:  938 
2023-02-13 23:12:10.834192: train loss : -0.5522 
2023-02-13 23:12:49.638563: validation loss: -0.3122 
2023-02-13 23:12:49.762693: Average global foreground Dice: [0.9081, 0.9491, 0.339, 0.7355, 0.7087, 0.6034, 0.7255, 0.7656, 0.7894, 0.6785, 0.932] 
2023-02-13 23:12:49.762997: (interpret this as an estimate for the Dice of the different classes. This is not exact.) 
2023-02-13 23:12:50.170535: lr: 0.000807 
2023-02-13 23:12:50.170674: This epoch took 776.580708 s
 
2023-02-13 23:12:50.170707: 
epoch:  939 
2023-02-13 23:17:13.944710: train loss : -0.5493 
2023-02-13 23:17:21.449606: validation loss: -0.2807 
2023-02-13 23:17:21.451341: Average global foreground Dice: [0.9047, 0.95, 0.3745, 0.8183, 0.6137, 0.588, 0.6295, 0.6847, 0.7598, 0.595, 0.9305] 
2023-02-13 23:17:21.465607: (interpret this as an estimate for the Dice of the different classes. This is not exact.) 
2023-02-13 23:17:21.945301: lr: 0.000795 
2023-02-13 23:17:21.945788: This epoch took 271.775040 s
 
2023-02-13 23:17:21.946019: 
epoch:  940 
2023-02-13 23:18:53.084625: train loss : -0.5553 
2023-02-13 23:18:58.297821: validation loss: -0.3307 
2023-02-13 23:18:58.298684: Average global foreground Dice: [0.884, 0.944, 0.3758, 0.8474, 0.6543, 0.5827, 0.7095, 0.74, 0.7613, 0.6658, 0.9354] 
2023-02-13 23:18:58.298756: (interpret this as an estimate for the Dice of the different classes. This is not exact.) 
2023-02-13 23:18:58.739627: lr: 0.000783 
2023-02-13 23:18:58.739837: This epoch took 96.793773 s
 
2023-02-13 23:18:58.739873: 
epoch:  941 
2023-02-13 23:20:28.014960: train loss : -0.5544 
2023-02-13 23:20:33.207288: validation loss: -0.3191 
2023-02-13 23:20:33.208860: Average global foreground Dice: [0.9008, 0.9493, 0.3215, 0.7457, 0.6797, 0.6278, 0.7406, 0.7715, 0.8032, 0.6853, 0.9437] 
2023-02-13 23:20:33.209130: (interpret this as an estimate for the Dice of the different classes. This is not exact.) 
2023-02-13 23:20:34.038986: lr: 0.000771 
2023-02-13 23:20:34.039131: This epoch took 95.299222 s
 
2023-02-13 23:20:34.039166: 
epoch:  942 
2023-02-13 23:21:55.682950: train loss : -0.5363 
2023-02-13 23:22:00.989126: validation loss: -0.3155 
2023-02-13 23:22:00.990450: Average global foreground Dice: [0.8842, 0.9513, 0.3438, 0.8163, 0.6341, 0.6303, 0.7233, 0.7698, 0.8287, 0.6606, 0.935] 
2023-02-13 23:22:00.990526: (interpret this as an estimate for the Dice of the different classes. This is not exact.) 
2023-02-13 23:22:01.415400: lr: 0.000759 
2023-02-13 23:22:01.415553: This epoch took 87.376353 s
 
2023-02-13 23:22:01.415587: 
epoch:  943 
2023-02-13 23:23:13.751549: train loss : -0.5440 
2023-02-13 23:23:19.179842: validation loss: -0.2867 
2023-02-13 23:23:19.180985: Average global foreground Dice: [0.9007, 0.9509, 0.3414, 0.7881, 0.6704, 0.5897, 0.6396, 0.6825, 0.7743, 0.6167, 0.9304] 
2023-02-13 23:23:19.181057: (interpret this as an estimate for the Dice of the different classes. This is not exact.) 
2023-02-13 23:23:19.609177: lr: 0.000747 
2023-02-13 23:23:19.609413: This epoch took 78.193788 s
 
2023-02-13 23:23:19.609451: 
epoch:  944 
2023-02-13 23:25:06.859078: train loss : -0.5544 
2023-02-13 23:25:12.641635: validation loss: -0.3009 
2023-02-13 23:25:12.642799: Average global foreground Dice: [0.9142, 0.949, 0.2806, 0.7303, 0.6377, 0.6511, 0.7294, 0.7518, 0.8028, 0.6962, 0.929] 
2023-02-13 23:25:12.642880: (interpret this as an estimate for the Dice of the different classes. This is not exact.) 
2023-02-13 23:25:13.127507: lr: 0.000735 
2023-02-13 23:25:13.127996: This epoch took 113.518502 s
 
2023-02-13 23:25:13.128087: 
epoch:  945 
2023-02-13 23:28:39.874056: train loss : -0.5554 
2023-02-13 23:29:23.399291: validation loss: -0.3253 
2023-02-13 23:29:23.515856: Average global foreground Dice: [0.8975, 0.9525, 0.368, 0.7446, 0.686, 0.5682, 0.6876, 0.7926, 0.8113, 0.6279, 0.9362] 
2023-02-13 23:29:23.516117: (interpret this as an estimate for the Dice of the different classes. This is not exact.) 
2023-02-13 23:29:24.227320: lr: 0.000723 
2023-02-13 23:29:24.241541: This epoch took 251.113276 s
 
2023-02-13 23:29:24.259093: 
epoch:  946 
2023-02-13 23:42:51.979159: train loss : -0.5721 
2023-02-13 23:43:48.168878: validation loss: -0.3080 
2023-02-13 23:43:48.304062: Average global foreground Dice: [0.9103, 0.9476, 0.3646, 0.8378, 0.6513, 0.624, 0.7076, 0.7309, 0.7523, 0.6576, 0.9401] 
2023-02-13 23:43:48.304645: (interpret this as an estimate for the Dice of the different classes. This is not exact.) 
2023-02-13 23:43:48.765943: lr: 0.000711 
2023-02-13 23:43:48.766193: This epoch took 864.506916 s
 
2023-02-13 23:43:48.766256: 
epoch:  947 
2023-02-13 23:56:41.622180: train loss : -0.5471 
2023-02-13 23:57:14.912158: validation loss: -0.2863 
2023-02-13 23:57:14.912889: Average global foreground Dice: [0.9044, 0.9553, 0.3471, 0.791, 0.659, 0.5951, 0.6743, 0.685, 0.7344, 0.6314, 0.9332] 
2023-02-13 23:57:14.913170: (interpret this as an estimate for the Dice of the different classes. This is not exact.) 
2023-02-13 23:57:15.306573: lr: 0.000699 
2023-02-13 23:57:15.306714: This epoch took 806.540401 s
 
2023-02-13 23:57:15.306749: 
epoch:  948 
2023-02-13 23:59:37.271634: train loss : -0.5404 
2023-02-13 23:59:47.497232: validation loss: -0.2426 
2023-02-13 23:59:47.498196: Average global foreground Dice: [0.8929, 0.9445, 0.331, 0.791, 0.6805, 0.468, 0.6038, 0.672, 0.8056, 0.539, 0.9337] 
2023-02-13 23:59:47.498257: (interpret this as an estimate for the Dice of the different classes. This is not exact.) 
2023-02-13 23:59:47.982942: lr: 0.000687 
2023-02-13 23:59:47.983135: This epoch took 152.676352 s
 
2023-02-13 23:59:47.983169: 
epoch:  949 
2023-02-14 00:01:02.810107: train loss : -0.5417 
2023-02-14 00:01:08.480848: validation loss: -0.2591 
2023-02-14 00:01:08.482068: Average global foreground Dice: [0.9141, 0.9472, 0.3172, 0.7153, 0.7009, 0.5126, 0.6322, 0.6943, 0.8237, 0.6057, 0.9262] 
2023-02-14 00:01:08.482355: (interpret this as an estimate for the Dice of the different classes. This is not exact.) 
2023-02-14 00:01:09.028003: lr: 0.000675 
2023-02-14 00:01:09.028239: saving scheduled checkpoint file... 
2023-02-14 00:01:09.146521: saving checkpoint... 
2023-02-14 00:01:10.576582: done, saving took 1.55 seconds 
2023-02-14 00:01:10.596058: done 
2023-02-14 00:01:10.596227: This epoch took 82.613021 s
 
2023-02-14 00:01:10.596262: 
epoch:  950 
2023-02-14 00:02:25.736182: train loss : -0.5588 
2023-02-14 00:02:30.850319: validation loss: -0.2774 
2023-02-14 00:02:30.851562: Average global foreground Dice: [0.8917, 0.9502, 0.3486, 0.7654, 0.6508, 0.5849, 0.691, 0.754, 0.8206, 0.617, 0.9317] 
2023-02-14 00:02:30.851679: (interpret this as an estimate for the Dice of the different classes. This is not exact.) 
2023-02-14 00:02:31.778897: lr: 0.000662 
2023-02-14 00:02:31.779256: This epoch took 81.182955 s
 
2023-02-14 00:02:31.779297: 
epoch:  951 
2023-02-14 00:03:44.563328: train loss : -0.5629 
2023-02-14 00:03:49.627301: validation loss: -0.2540 
2023-02-14 00:03:49.627986: Average global foreground Dice: [0.8838, 0.9458, 0.3502, 0.7544, 0.6147, 0.5164, 0.5451, 0.6576, 0.7326, 0.5501, 0.932] 
2023-02-14 00:03:49.628054: (interpret this as an estimate for the Dice of the different classes. This is not exact.) 
2023-02-14 00:03:50.047133: lr: 0.00065 
2023-02-14 00:03:50.047317: This epoch took 78.264523 s
 
2023-02-14 00:03:50.047351: 
epoch:  952 
2023-02-14 00:05:02.631334: train loss : -0.5501 
2023-02-14 00:05:08.051923: validation loss: -0.2871 
2023-02-14 00:05:08.053395: Average global foreground Dice: [0.8786, 0.9469, 0.389, 0.8215, 0.6711, 0.5676, 0.6496, 0.7347, 0.7885, 0.655, 0.9448] 
2023-02-14 00:05:08.053495: (interpret this as an estimate for the Dice of the different classes. This is not exact.) 
2023-02-14 00:05:08.558064: lr: 0.000638 
2023-02-14 00:05:08.558371: This epoch took 78.510982 s
 
2023-02-14 00:05:08.558416: 
epoch:  953 
2023-02-14 00:06:38.159702: train loss : -0.5555 
2023-02-14 00:06:44.387881: validation loss: -0.2995 
2023-02-14 00:06:44.389932: Average global foreground Dice: [0.8798, 0.9474, 0.4716, 0.8255, 0.6206, 0.6205, 0.6789, 0.7295, 0.7721, 0.6381, 0.9383] 
2023-02-14 00:06:44.397723: (interpret this as an estimate for the Dice of the different classes. This is not exact.) 
2023-02-14 00:06:45.133620: lr: 0.000626 
2023-02-14 00:06:45.134197: This epoch took 96.575732 s
 
2023-02-14 00:06:45.134282: 
epoch:  954 
2023-02-14 00:08:21.163263: train loss : -0.5349 
2023-02-14 00:08:26.627655: validation loss: -0.2834 
2023-02-14 00:08:26.628753: Average global foreground Dice: [0.8972, 0.9476, 0.4035, 0.816, 0.6966, 0.6185, 0.7091, 0.7863, 0.8085, 0.6582, 0.9419] 
2023-02-14 00:08:26.628819: (interpret this as an estimate for the Dice of the different classes. This is not exact.) 
2023-02-14 00:08:27.078928: lr: 0.000614 
2023-02-14 00:08:27.079089: This epoch took 101.944234 s
 
2023-02-14 00:08:27.079125: 
epoch:  955 
2023-02-14 00:09:41.509563: train loss : -0.5485 
2023-02-14 00:09:47.006736: validation loss: -0.2402 
2023-02-14 00:09:47.008021: Average global foreground Dice: [0.9129, 0.9513, 0.4092, 0.8203, 0.6264, 0.5296, 0.5955, 0.6933, 0.7459, 0.5673, 0.9349] 
2023-02-14 00:09:47.008111: (interpret this as an estimate for the Dice of the different classes. This is not exact.) 
2023-02-14 00:09:47.520585: lr: 0.000601 
2023-02-14 00:09:47.520910: This epoch took 80.441747 s
 
2023-02-14 00:09:47.520948: 
epoch:  956 
2023-02-14 00:11:01.448022: train loss : -0.5563 
2023-02-14 00:11:06.458541: validation loss: -0.2697 
2023-02-14 00:11:06.459783: Average global foreground Dice: [0.8722, 0.9449, 0.3062, 0.7817, 0.6689, 0.49, 0.5836, 0.737, 0.773, 0.5554, 0.9332] 
2023-02-14 00:11:06.459934: (interpret this as an estimate for the Dice of the different classes. This is not exact.) 
2023-02-14 00:11:06.891084: lr: 0.000589 
2023-02-14 00:11:06.891274: This epoch took 79.370288 s
 
2023-02-14 00:11:06.891313: 
epoch:  957 
2023-02-14 00:12:41.955575: train loss : -0.5583 
2023-02-14 00:12:49.320652: validation loss: -0.2682 
2023-02-14 00:12:49.322301: Average global foreground Dice: [0.8969, 0.9591, 0.38, 0.8444, 0.6701, 0.4638, 0.5778, 0.6725, 0.7747, 0.5554, 0.9395] 
2023-02-14 00:12:49.322437: (interpret this as an estimate for the Dice of the different classes. This is not exact.) 
2023-02-14 00:12:49.799330: lr: 0.000577 
2023-02-14 00:12:49.799648: This epoch took 102.908295 s
 
2023-02-14 00:12:49.799699: 
epoch:  958 
2023-02-14 00:14:06.516736: train loss : -0.5833 
2023-02-14 00:14:11.718754: validation loss: -0.2707 
2023-02-14 00:14:11.719673: Average global foreground Dice: [0.8947, 0.9451, 0.3673, 0.8254, 0.7034, 0.5424, 0.6185, 0.6828, 0.7683, 0.5824, 0.9408] 
2023-02-14 00:14:11.719757: (interpret this as an estimate for the Dice of the different classes. This is not exact.) 
2023-02-14 00:14:12.159013: lr: 0.000564 
2023-02-14 00:14:12.159241: This epoch took 82.359482 s
 
2023-02-14 00:14:12.159277: 
epoch:  959 
2023-02-14 00:15:32.042334: train loss : -0.5619 
2023-02-14 00:15:37.368741: validation loss: -0.3666 
2023-02-14 00:15:37.369520: Average global foreground Dice: [0.8963, 0.9524, 0.3723, 0.8803, 0.6642, 0.7096, 0.789, 0.7977, 0.8207, 0.7309, 0.9252] 
2023-02-14 00:15:37.369581: (interpret this as an estimate for the Dice of the different classes. This is not exact.) 
2023-02-14 00:15:37.768651: lr: 0.000552 
2023-02-14 00:15:37.768793: This epoch took 85.609483 s
 
2023-02-14 00:15:37.768828: 
epoch:  960 
2023-02-14 00:16:50.690519: train loss : -0.5630 
2023-02-14 00:16:55.878423: validation loss: -0.3054 
2023-02-14 00:16:55.879075: Average global foreground Dice: [0.9125, 0.9483, 0.3912, 0.7933, 0.6783, 0.6065, 0.6882, 0.7184, 0.7661, 0.6479, 0.931] 
2023-02-14 00:16:55.879133: (interpret this as an estimate for the Dice of the different classes. This is not exact.) 
2023-02-14 00:16:56.514786: lr: 0.000539 
2023-02-14 00:16:56.515002: This epoch took 78.746135 s
 
2023-02-14 00:16:56.515037: 
epoch:  961 
2023-02-14 00:18:08.885396: train loss : -0.5497 
2023-02-14 00:18:14.446195: validation loss: -0.3349 
2023-02-14 00:18:14.447265: Average global foreground Dice: [0.9064, 0.9511, 0.4077, 0.8251, 0.6869, 0.6628, 0.7188, 0.7488, 0.8063, 0.6907, 0.94] 
2023-02-14 00:18:14.447354: (interpret this as an estimate for the Dice of the different classes. This is not exact.) 
2023-02-14 00:18:14.951903: lr: 0.000527 
2023-02-14 00:18:14.952179: This epoch took 78.437106 s
 
2023-02-14 00:18:14.952215: 
epoch:  962 
2023-02-14 00:19:31.524347: train loss : -0.5791 
2023-02-14 00:19:36.675142: validation loss: -0.2538 
2023-02-14 00:19:36.676698: Average global foreground Dice: [0.8948, 0.9425, 0.4008, 0.6503, 0.6855, 0.5721, 0.636, 0.7111, 0.7792, 0.601, 0.9266] 
2023-02-14 00:19:36.676780: (interpret this as an estimate for the Dice of the different classes. This is not exact.) 
2023-02-14 00:19:37.178016: lr: 0.000514 
2023-02-14 00:19:37.178213: This epoch took 82.225962 s
 
2023-02-14 00:19:37.178256: 
epoch:  963 
2023-02-14 00:20:53.428552: train loss : -0.5268 
2023-02-14 00:20:58.463112: validation loss: -0.2616 
2023-02-14 00:20:58.464112: Average global foreground Dice: [0.9088, 0.9509, 0.4105, 0.7417, 0.6502, 0.5112, 0.6206, 0.6591, 0.7127, 0.5963, 0.9365] 
2023-02-14 00:20:58.464183: (interpret this as an estimate for the Dice of the different classes. This is not exact.) 
2023-02-14 00:20:58.856907: lr: 0.000502 
2023-02-14 00:20:58.857048: This epoch took 81.678755 s
 
2023-02-14 00:20:58.857081: 
epoch:  964 
2023-02-14 00:23:22.883461: train loss : -0.5456 
2023-02-14 00:23:31.089961: validation loss: -0.2982 
2023-02-14 00:23:31.091077: Average global foreground Dice: [0.9068, 0.9493, 0.4458, 0.8373, 0.5784, 0.6904, 0.7372, 0.7638, 0.8322, 0.7024, 0.9174] 
2023-02-14 00:23:31.091145: (interpret this as an estimate for the Dice of the different classes. This is not exact.) 
2023-02-14 00:23:31.541621: lr: 0.000489 
2023-02-14 00:23:31.541748: This epoch took 152.684630 s
 
2023-02-14 00:23:31.541780: 
epoch:  965 
2023-02-14 00:24:49.870573: train loss : -0.5576 
2023-02-14 00:24:54.991229: validation loss: -0.2942 
2023-02-14 00:24:54.992166: Average global foreground Dice: [0.9199, 0.9456, 0.4033, 0.7838, 0.6875, 0.5785, 0.6846, 0.7228, 0.8193, 0.6284, 0.9325] 
2023-02-14 00:24:54.992244: (interpret this as an estimate for the Dice of the different classes. This is not exact.) 
2023-02-14 00:24:55.430755: lr: 0.000477 
2023-02-14 00:24:55.430898: This epoch took 83.889085 s
 
2023-02-14 00:24:55.430940: 
epoch:  966 
2023-02-14 00:26:08.497314: train loss : -0.5605 
2023-02-14 00:26:13.642990: validation loss: -0.2937 
2023-02-14 00:26:13.643991: Average global foreground Dice: [0.9074, 0.954, 0.4141, 0.8306, 0.6518, 0.6144, 0.721, 0.752, 0.768, 0.6833, 0.9363] 
2023-02-14 00:26:13.644073: (interpret this as an estimate for the Dice of the different classes. This is not exact.) 
2023-02-14 00:26:14.068092: lr: 0.000464 
2023-02-14 00:26:14.068300: This epoch took 78.637313 s
 
2023-02-14 00:26:14.068336: 
epoch:  967 
2023-02-14 00:27:31.049952: train loss : -0.5550 
2023-02-14 00:27:36.503131: validation loss: -0.2780 
2023-02-14 00:27:36.504593: Average global foreground Dice: [0.8942, 0.9422, 0.3629, 0.7762, 0.672, 0.6425, 0.6815, 0.7475, 0.8306, 0.6299, 0.9225] 
2023-02-14 00:27:36.504683: (interpret this as an estimate for the Dice of the different classes. This is not exact.) 
2023-02-14 00:27:37.018229: lr: 0.000451 
2023-02-14 00:27:37.018371: This epoch took 82.950001 s
 
2023-02-14 00:27:37.018408: 
epoch:  968 
2023-02-14 00:28:49.592450: train loss : -0.5573 
2023-02-14 00:28:55.049271: validation loss: -0.3233 
2023-02-14 00:28:55.050650: Average global foreground Dice: [0.9004, 0.9491, 0.362, 0.756, 0.7134, 0.6481, 0.6964, 0.7177, 0.7989, 0.6684, 0.9332] 
2023-02-14 00:28:55.050741: (interpret this as an estimate for the Dice of the different classes. This is not exact.) 
2023-02-14 00:28:55.525699: lr: 0.000439 
2023-02-14 00:28:55.526090: This epoch took 78.507642 s
 
2023-02-14 00:28:55.526155: 
epoch:  969 
2023-02-14 00:30:12.733347: train loss : -0.5764 
2023-02-14 00:30:17.858556: validation loss: -0.3040 
2023-02-14 00:30:17.859565: Average global foreground Dice: [0.9064, 0.9436, 0.3536, 0.8422, 0.6845, 0.6466, 0.7419, 0.758, 0.8171, 0.6864, 0.9253] 
2023-02-14 00:30:17.859659: (interpret this as an estimate for the Dice of the different classes. This is not exact.) 
2023-02-14 00:30:18.327760: lr: 0.000426 
2023-02-14 00:30:18.327984: This epoch took 82.801782 s
 
2023-02-14 00:30:18.328021: 
epoch:  970 
2023-02-14 00:31:36.327145: train loss : -0.5766 
2023-02-14 00:31:41.713050: validation loss: -0.2749 
2023-02-14 00:31:41.714162: Average global foreground Dice: [0.925, 0.9504, 0.365, 0.8455, 0.733, 0.5105, 0.6257, 0.7054, 0.7857, 0.5985, 0.9258] 
2023-02-14 00:31:41.714378: (interpret this as an estimate for the Dice of the different classes. This is not exact.) 
2023-02-14 00:31:42.442024: lr: 0.000413 
2023-02-14 00:31:42.442361: This epoch took 84.114200 s
 
2023-02-14 00:31:42.442424: 
epoch:  971 
2023-02-14 00:33:02.357791: train loss : -0.5557 
2023-02-14 00:33:07.705426: validation loss: -0.2998 
2023-02-14 00:33:07.706756: Average global foreground Dice: [0.8916, 0.9515, 0.3103, 0.82, 0.6809, 0.4929, 0.6431, 0.7611, 0.8288, 0.6218, 0.9302] 
2023-02-14 00:33:07.706844: (interpret this as an estimate for the Dice of the different classes. This is not exact.) 
2023-02-14 00:33:08.280675: lr: 0.0004 
2023-02-14 00:33:08.280875: This epoch took 85.838387 s
 
2023-02-14 00:33:08.280912: 
epoch:  972 
2023-02-14 00:34:23.756045: train loss : -0.5382 
2023-02-14 00:34:28.992069: validation loss: -0.3331 
2023-02-14 00:34:28.993161: Average global foreground Dice: [0.9029, 0.9437, 0.3883, 0.7331, 0.6793, 0.6927, 0.7893, 0.8121, 0.7894, 0.7692, 0.944] 
2023-02-14 00:34:28.993240: (interpret this as an estimate for the Dice of the different classes. This is not exact.) 
2023-02-14 00:34:29.442925: lr: 0.000387 
2023-02-14 00:34:29.443156: This epoch took 81.162211 s
 
2023-02-14 00:34:29.443202: 
epoch:  973 
2023-02-14 00:35:46.217354: train loss : -0.5493 
2023-02-14 00:35:51.456151: validation loss: -0.3059 
2023-02-14 00:35:51.457648: Average global foreground Dice: [0.9052, 0.947, 0.3905, 0.8214, 0.6962, 0.6233, 0.6856, 0.7316, 0.8262, 0.6539, 0.9264] 
2023-02-14 00:35:51.458036: (interpret this as an estimate for the Dice of the different classes. This is not exact.) 
2023-02-14 00:35:52.051282: lr: 0.000375 
2023-02-14 00:35:52.051521: This epoch took 82.608270 s
 
2023-02-14 00:35:52.051555: 
epoch:  974 
2023-02-14 00:37:07.024229: train loss : -0.5636 
2023-02-14 00:37:12.228703: validation loss: -0.2895 
2023-02-14 00:37:12.229591: Average global foreground Dice: [0.8947, 0.9523, 0.4239, 0.8264, 0.6591, 0.5604, 0.6522, 0.7621, 0.8281, 0.641, 0.9425] 
2023-02-14 00:37:12.229659: (interpret this as an estimate for the Dice of the different classes. This is not exact.) 
2023-02-14 00:37:12.685831: lr: 0.000362 
2023-02-14 00:37:12.686115: This epoch took 80.634522 s
 
2023-02-14 00:37:12.686156: 
epoch:  975 
2023-02-14 00:38:29.521712: train loss : -0.5528 
2023-02-14 00:38:34.813972: validation loss: -0.3000 
2023-02-14 00:38:34.815142: Average global foreground Dice: [0.905, 0.9495, 0.4001, 0.7967, 0.6862, 0.5829, 0.6928, 0.7408, 0.784, 0.6574, 0.9261] 
2023-02-14 00:38:34.815215: (interpret this as an estimate for the Dice of the different classes. This is not exact.) 
2023-02-14 00:38:35.356683: lr: 0.000348 
2023-02-14 00:38:35.357184: This epoch took 82.670976 s
 
2023-02-14 00:38:35.357234: 
epoch:  976 
2023-02-14 00:39:56.668959: train loss : -0.5790 
2023-02-14 00:40:02.100480: validation loss: -0.2918 
2023-02-14 00:40:02.101496: Average global foreground Dice: [0.8991, 0.949, 0.4005, 0.7633, 0.6332, 0.5759, 0.6977, 0.7449, 0.7846, 0.6454, 0.9392] 
2023-02-14 00:40:02.101560: (interpret this as an estimate for the Dice of the different classes. This is not exact.) 
2023-02-14 00:40:02.601031: lr: 0.000335 
2023-02-14 00:40:02.601369: This epoch took 87.244088 s
 
2023-02-14 00:40:02.601425: 
epoch:  977 
2023-02-14 00:41:26.022769: train loss : -0.5464 
2023-02-14 00:41:31.304414: validation loss: -0.2970 
2023-02-14 00:41:31.306004: Average global foreground Dice: [0.9026, 0.9492, 0.3539, 0.8122, 0.7038, 0.5372, 0.6691, 0.741, 0.7992, 0.6448, 0.9422] 
2023-02-14 00:41:31.306121: (interpret this as an estimate for the Dice of the different classes. This is not exact.) 
2023-02-14 00:41:31.817421: lr: 0.000322 
2023-02-14 00:41:31.817614: This epoch took 89.216143 s
 
2023-02-14 00:41:31.817653: 
epoch:  978 
2023-02-14 00:42:51.513311: train loss : -0.5259 
2023-02-14 00:42:56.825516: validation loss: -0.2921 
2023-02-14 00:42:56.826656: Average global foreground Dice: [0.896, 0.9481, 0.3582, 0.8092, 0.6737, 0.6249, 0.6761, 0.71, 0.8124, 0.6331, 0.9367] 
2023-02-14 00:42:56.826741: (interpret this as an estimate for the Dice of the different classes. This is not exact.) 
2023-02-14 00:42:57.277091: lr: 0.000309 
2023-02-14 00:42:57.277283: This epoch took 85.459585 s
 
2023-02-14 00:42:57.277320: 
epoch:  979 
2023-02-14 00:44:14.470356: train loss : -0.5727 
2023-02-14 00:44:19.876734: validation loss: -0.3010 
2023-02-14 00:44:19.877691: Average global foreground Dice: [0.8899, 0.9523, 0.4573, 0.8823, 0.545, 0.6276, 0.6868, 0.7264, 0.7473, 0.6502, 0.9395] 
2023-02-14 00:44:19.877757: (interpret this as an estimate for the Dice of the different classes. This is not exact.) 
2023-02-14 00:44:20.516881: lr: 0.000296 
2023-02-14 00:44:20.517073: This epoch took 83.239715 s
 
2023-02-14 00:44:20.517111: 
epoch:  980 
2023-02-14 00:45:33.797516: train loss : -0.5329 
2023-02-14 00:45:39.096363: validation loss: -0.3173 
2023-02-14 00:45:39.097956: Average global foreground Dice: [0.9066, 0.9502, 0.3765, 0.8446, 0.6815, 0.6599, 0.713, 0.7524, 0.7892, 0.6837, 0.9361] 
2023-02-14 00:45:39.098062: (interpret this as an estimate for the Dice of the different classes. This is not exact.) 
2023-02-14 00:45:39.608912: lr: 0.000282 
2023-02-14 00:45:39.609182: This epoch took 79.092035 s
 
2023-02-14 00:45:39.609219: 
epoch:  981 
2023-02-14 00:46:58.351619: train loss : -0.5386 
2023-02-14 00:47:03.754844: validation loss: -0.2532 
2023-02-14 00:47:03.755975: Average global foreground Dice: [0.8946, 0.9494, 0.4725, 0.754, 0.6439, 0.4904, 0.6498, 0.7217, 0.8066, 0.6101, 0.9394] 
2023-02-14 00:47:03.756053: (interpret this as an estimate for the Dice of the different classes. This is not exact.) 
2023-02-14 00:47:04.231049: lr: 0.000269 
2023-02-14 00:47:04.231306: This epoch took 84.622046 s
 
2023-02-14 00:47:04.231342: 
epoch:  982 
2023-02-14 00:48:17.715707: train loss : -0.5377 
2023-02-14 00:48:23.095870: validation loss: -0.2928 
2023-02-14 00:48:23.096961: Average global foreground Dice: [0.9041, 0.9572, 0.3761, 0.8466, 0.6512, 0.5372, 0.6788, 0.7382, 0.7535, 0.6009, 0.9374] 
2023-02-14 00:48:23.097026: (interpret this as an estimate for the Dice of the different classes. This is not exact.) 
2023-02-14 00:48:23.498733: lr: 0.000256 
2023-02-14 00:48:23.498917: This epoch took 79.267538 s
 
2023-02-14 00:48:23.498964: 
epoch:  983 
2023-02-14 00:49:40.246786: train loss : -0.5682 
2023-02-14 00:49:45.301690: validation loss: -0.2698 
2023-02-14 00:49:45.302809: Average global foreground Dice: [0.886, 0.9485, 0.3489, 0.7949, 0.6395, 0.5914, 0.6259, 0.6851, 0.788, 0.6113, 0.9416] 
2023-02-14 00:49:45.302882: (interpret this as an estimate for the Dice of the different classes. This is not exact.) 
2023-02-14 00:49:45.740747: lr: 0.000242 
2023-02-14 00:49:45.741027: This epoch took 82.242013 s
 
2023-02-14 00:49:45.741066: 
epoch:  984 
2023-02-14 00:51:10.340145: train loss : -0.5341 
2023-02-14 00:51:15.513452: validation loss: -0.3193 
2023-02-14 00:51:15.515185: Average global foreground Dice: [0.9035, 0.9496, 0.3479, 0.8027, 0.6924, 0.6362, 0.6986, 0.7658, 0.8215, 0.6619, 0.9403] 
2023-02-14 00:51:15.515383: (interpret this as an estimate for the Dice of the different classes. This is not exact.) 
2023-02-14 00:51:15.978726: lr: 0.000228 
2023-02-14 00:51:15.978862: This epoch took 90.237759 s
 
2023-02-14 00:51:15.978896: 
epoch:  985 
2023-02-14 00:52:29.274137: train loss : -0.5364 
2023-02-14 00:52:34.597992: validation loss: -0.2696 
2023-02-14 00:52:34.598845: Average global foreground Dice: [0.9167, 0.9427, 0.3688, 0.7827, 0.6728, 0.5513, 0.614, 0.6362, 0.7403, 0.5776, 0.9355] 
2023-02-14 00:52:34.598902: (interpret this as an estimate for the Dice of the different classes. This is not exact.) 
2023-02-14 00:52:35.011994: lr: 0.000215 
2023-02-14 00:52:35.012244: This epoch took 79.033312 s
 
2023-02-14 00:52:35.012288: 
epoch:  986 
2023-02-14 00:53:45.991499: train loss : -0.5681 
2023-02-14 00:53:51.215153: validation loss: -0.2724 
2023-02-14 00:53:51.216112: Average global foreground Dice: [0.9083, 0.9483, 0.3289, 0.8114, 0.6873, 0.533, 0.6619, 0.7322, 0.8047, 0.6093, 0.9339] 
2023-02-14 00:53:51.216181: (interpret this as an estimate for the Dice of the different classes. This is not exact.) 
2023-02-14 00:53:51.646432: lr: 0.000201 
2023-02-14 00:53:51.646680: This epoch took 76.634352 s
 
2023-02-14 00:53:51.646718: 
epoch:  987 
2023-02-14 00:55:07.357223: train loss : -0.5453 
2023-02-14 00:55:12.662561: validation loss: -0.2569 
2023-02-14 00:55:12.665053: Average global foreground Dice: [0.9032, 0.9455, 0.3653, 0.7909, 0.6448, 0.3649, 0.6386, 0.6909, 0.8427, 0.5453, 0.9341] 
2023-02-14 00:55:12.665243: (interpret this as an estimate for the Dice of the different classes. This is not exact.) 
2023-02-14 00:55:13.164199: lr: 0.000187 
2023-02-14 00:55:13.164528: This epoch took 81.517770 s
 
2023-02-14 00:55:13.164570: 
epoch:  988 
2023-02-14 00:56:24.949958: train loss : -0.5460 
2023-02-14 00:56:30.361883: validation loss: -0.2631 
2023-02-14 00:56:30.362951: Average global foreground Dice: [0.8984, 0.9472, 0.3536, 0.7437, 0.6549, 0.5628, 0.6358, 0.7006, 0.7561, 0.611, 0.9401] 
2023-02-14 00:56:30.363017: (interpret this as an estimate for the Dice of the different classes. This is not exact.) 
2023-02-14 00:56:30.853685: lr: 0.000173 
2023-02-14 00:56:30.854089: This epoch took 77.689475 s
 
2023-02-14 00:56:30.854191: 
epoch:  989 
2023-02-14 00:57:43.097873: train loss : -0.5520 
2023-02-14 00:57:48.284304: validation loss: -0.2993 
2023-02-14 00:57:48.285918: Average global foreground Dice: [0.8981, 0.9544, 0.3942, 0.7767, 0.6694, 0.5801, 0.7022, 0.7117, 0.7503, 0.6352, 0.9225] 
2023-02-14 00:57:48.286030: (interpret this as an estimate for the Dice of the different classes. This is not exact.) 
2023-02-14 00:57:48.869800: lr: 0.000158 
2023-02-14 00:57:48.870046: This epoch took 78.015812 s
 
2023-02-14 00:57:48.870084: 
epoch:  990 
2023-02-14 00:58:59.053378: train loss : -0.5653 
2023-02-14 00:59:04.443974: validation loss: -0.2523 
2023-02-14 00:59:04.444983: Average global foreground Dice: [0.8938, 0.9414, 0.3106, 0.8234, 0.665, 0.5485, 0.6363, 0.7043, 0.7943, 0.5771, 0.9336] 
2023-02-14 00:59:04.445048: (interpret this as an estimate for the Dice of the different classes. This is not exact.) 
2023-02-14 00:59:04.889201: lr: 0.000144 
2023-02-14 00:59:04.889480: This epoch took 76.019353 s
 
2023-02-14 00:59:04.889522: 
epoch:  991 
2023-02-14 01:00:24.142560: train loss : -0.5677 
2023-02-14 01:00:29.425730: validation loss: -0.2808 
2023-02-14 01:00:29.426806: Average global foreground Dice: [0.8595, 0.9475, 0.3022, 0.772, 0.6826, 0.5672, 0.6601, 0.7525, 0.8102, 0.6425, 0.9413] 
2023-02-14 01:00:29.426886: (interpret this as an estimate for the Dice of the different classes. This is not exact.) 
2023-02-14 01:00:29.896687: lr: 0.00013 
2023-02-14 01:00:29.896985: This epoch took 85.007420 s
 
2023-02-14 01:00:29.897022: 
epoch:  992 
2023-02-14 01:01:43.217035: train loss : -0.5783 
2023-02-14 01:01:48.442852: validation loss: -0.2479 
2023-02-14 01:01:48.443723: Average global foreground Dice: [0.8926, 0.9486, 0.349, 0.6561, 0.6567, 0.5299, 0.6345, 0.7242, 0.7723, 0.5914, 0.9414] 
2023-02-14 01:01:48.443803: (interpret this as an estimate for the Dice of the different classes. This is not exact.) 
2023-02-14 01:01:48.838323: lr: 0.000115 
2023-02-14 01:01:48.838562: This epoch took 78.941503 s
 
2023-02-14 01:01:48.838601: 
epoch:  993 
2023-02-14 01:03:03.756451: train loss : -0.5734 
2023-02-14 01:03:09.109285: validation loss: -0.3036 
2023-02-14 01:03:09.110529: Average global foreground Dice: [0.8863, 0.9399, 0.3499, 0.8186, 0.7006, 0.6485, 0.6947, 0.7436, 0.8192, 0.6566, 0.9297] 
2023-02-14 01:03:09.110605: (interpret this as an estimate for the Dice of the different classes. This is not exact.) 
2023-02-14 01:03:09.566801: lr: 0.0001 
2023-02-14 01:03:09.567080: This epoch took 80.728440 s
 
2023-02-14 01:03:09.567115: 
epoch:  994 
2023-02-14 01:04:19.667490: train loss : -0.5446 
2023-02-14 01:04:25.044150: validation loss: -0.2999 
2023-02-14 01:04:25.045262: Average global foreground Dice: [0.9061, 0.9533, 0.4076, 0.8086, 0.6612, 0.5118, 0.6662, 0.7086, 0.7904, 0.6141, 0.9325] 
2023-02-14 01:04:25.045676: (interpret this as an estimate for the Dice of the different classes. This is not exact.) 
2023-02-14 01:04:25.540196: lr: 8.5e-05 
2023-02-14 01:04:25.540408: This epoch took 75.973255 s
 
2023-02-14 01:04:25.540443: 
epoch:  995 
2023-02-14 01:05:36.580937: train loss : -0.5512 
2023-02-14 01:05:41.857532: validation loss: -0.2960 
2023-02-14 01:05:41.858615: Average global foreground Dice: [0.865, 0.9478, 0.3653, 0.7501, 0.6827, 0.5737, 0.6882, 0.7437, 0.7719, 0.6672, 0.9368] 
2023-02-14 01:05:41.858686: (interpret this as an estimate for the Dice of the different classes. This is not exact.) 
2023-02-14 01:05:42.311234: lr: 6.9e-05 
2023-02-14 01:05:42.311475: This epoch took 76.770995 s
 
2023-02-14 01:05:42.311511: 
epoch:  996 
2023-02-14 01:07:00.830071: train loss : -0.5485 
2023-02-14 01:07:05.919568: validation loss: -0.3037 
2023-02-14 01:07:05.920616: Average global foreground Dice: [0.8884, 0.9537, 0.3852, 0.7743, 0.6992, 0.6422, 0.6975, 0.7545, 0.8072, 0.6817, 0.9319] 
2023-02-14 01:07:05.920688: (interpret this as an estimate for the Dice of the different classes. This is not exact.) 
2023-02-14 01:07:06.350795: lr: 5.4e-05 
2023-02-14 01:07:06.351024: This epoch took 84.039476 s
 
2023-02-14 01:07:06.351058: 
epoch:  997 
2023-02-14 01:08:26.722623: train loss : -0.5786 
2023-02-14 01:08:31.933804: validation loss: -0.2869 
2023-02-14 01:08:31.935383: Average global foreground Dice: [0.9075, 0.9492, 0.3606, 0.7569, 0.6951, 0.5915, 0.6742, 0.7576, 0.7977, 0.6582, 0.9407] 
2023-02-14 01:08:31.935504: (interpret this as an estimate for the Dice of the different classes. This is not exact.) 
2023-02-14 01:08:32.361302: lr: 3.7e-05 
2023-02-14 01:08:32.361461: This epoch took 86.010366 s
 
2023-02-14 01:08:32.361495: 
epoch:  998 
2023-02-14 01:09:56.681190: train loss : -0.5503 
2023-02-14 01:10:01.946044: validation loss: -0.2595 
2023-02-14 01:10:01.946735: Average global foreground Dice: [0.9075, 0.9526, 0.3332, 0.7815, 0.6774, 0.5611, 0.6064, 0.7006, 0.8025, 0.5466, 0.9279] 
2023-02-14 01:10:01.946803: (interpret this as an estimate for the Dice of the different classes. This is not exact.) 
2023-02-14 01:10:02.394095: lr: 2e-05 
2023-02-14 01:10:02.394229: This epoch took 90.032703 s
 
2023-02-14 01:10:02.394263: 
epoch:  999 
2023-02-14 01:11:28.305188: train loss : -0.5512 
2023-02-14 01:11:33.668606: validation loss: -0.2927 
2023-02-14 01:11:33.669961: Average global foreground Dice: [0.9152, 0.9482, 0.3873, 0.6988, 0.646, 0.5263, 0.6958, 0.7396, 0.7878, 0.6432, 0.9372] 
2023-02-14 01:11:33.670063: (interpret this as an estimate for the Dice of the different classes. This is not exact.) 
2023-02-14 01:11:34.463929: lr: 0.0 
2023-02-14 01:11:34.464112: saving scheduled checkpoint file... 
2023-02-14 01:11:34.506982: saving checkpoint... 
2023-02-14 01:11:35.479785: done, saving took 1.02 seconds 
2023-02-14 01:11:35.490831: done 
2023-02-14 01:11:35.491014: This epoch took 93.096713 s
 
2023-02-14 01:11:35.544068: saving checkpoint... 
2023-02-14 01:11:35.818297: done, saving took 0.33 seconds 
