{
    "dc_per_class_pp_all": {
        "1": 0.0,
        "2": 0.700910025705711,
        "3": 0.0,
        "4": 0.0,
        "5": 0.0,
        "6": 0.0
    },
    "dc_per_class_pp_per_class": {
        "1": 0.0,
        "2": 0.700910025705711,
        "3": 0.5805137500468845,
        "4": 0.5700558559662436,
        "5": 0.6267563510006606,
        "6": 0.8050332942013778
    },
    "dc_per_class_raw": {
        "1": 0.0,
        "2": 0.9842122103225869,
        "3": 0.5805137500468845,
        "4": 0.5700558559662436,
        "5": 0.6267563510006606,
        "6": 0.7941510589190214
    },
    "for_which_classes": [
        6
    ],
    "min_valid_object_sizes": "None",
    "num_samples": 5,
    "validation_final": "validation_raw_postprocessed",
    "validation_raw": "validation_raw"
}