Starting... 
2023-02-13 19:55:20.974137: Using splits from existing split file: /data/jeskal/projects/nnUNet/nnUNet_preprocessed/Task522_T_Mamma_LumL/splits_final.pkl 
2023-02-13 19:55:20.974936: The split file contains 5 splits. 
2023-02-13 19:55:20.974971: Desired fold for training: 0 
2023-02-13 19:55:20.975000: This split has 43 training and 11 validation cases. 
2023-02-13 19:55:21.053497: TRAINING KEYS:
 odict_keys(['AIDCPTATLAS_T_Br_008', 'AIDCPTATLAS_T_Br_010', 'AIDCPTATLAS_T_Br_017', 'AIDCPTATLAS_T_Br_018', 'AIDCPTATLAS_T_Br_023', 'AIDCPTATLAS_T_Br_025', 'AIDCPTATLAS_T_Br_029', 'AIDCPTATLAS_T_Br_034', 'AIDCPTATLAS_T_Br_038', 'AIDCPTATLAS_T_Br_039', 'AIDCPTATLAS_T_Br_040', 'AIDCPTATLAS_T_Br_042', 'AIDCPTATLAS_T_Br_047', 'AIDCPTATLAS_T_Br_048', 'AIDCPTATLAS_T_Br_052', 'AIDCPTATLAS_T_Br_055', 'AIDCPTATLAS_T_Br_057', 'AIDCPTATLAS_T_Br_058', 'AIDCPTATLAS_T_Br_059', 'AIDCPTATLAS_T_Br_068', 'AIDCPTATLAS_T_Br_069', 'AIDCPTATLAS_T_Br_070', 'AIDCPTATLAS_T_Br_073', 'AIDCPTATLAS_T_Br_082', 'AIDCPTATLAS_T_Br_083', 'AIDCPTATLAS_T_Br_092', 'AIDCPTATLAS_T_Br_098', 'AIDCPTATLAS_T_Br_099', 'AIDCPTATLAS_T_Br_101', 'AIDCPTATLAS_T_Br_103', 'AIDCPTATLAS_T_Br_108', 'AIDCPTATLAS_T_Br_118', 'AIDCPTATLAS_T_Br_121', 'AIDCPTATLAS_T_Fliped_Br_016', 'AIDCPTATLAS_T_Fliped_Br_020', 'AIDCPTATLAS_T_Fliped_Br_021', 'AIDCPTATLAS_T_Fliped_Br_044', 'AIDCPTATLAS_T_Fliped_Br_045', 'AIDCPTATLAS_T_Fliped_Br_067', 'AIDCPTATLAS_T_Fliped_Br_105', 'AIDCPTATLAS_T_Fliped_Br_106', 'AIDCPTATLAS_T_Fliped_Br_110', 'AIDCPTATLAS_T_Fliped_Br_113']) 
2023-02-13 19:55:21.053663: VALIDATION KEYS:
 odict_keys(['AIDCPTATLAS_T_Br_028', 'AIDCPTATLAS_T_Br_041', 'AIDCPTATLAS_T_Br_077', 'AIDCPTATLAS_T_Br_084', 'AIDCPTATLAS_T_Br_096', 'AIDCPTATLAS_T_Br_100', 'AIDCPTATLAS_T_Fliped_Br_011', 'AIDCPTATLAS_T_Fliped_Br_015', 'AIDCPTATLAS_T_Fliped_Br_061', 'AIDCPTATLAS_T_Fliped_Br_062', 'AIDCPTATLAS_T_Fliped_Br_078']) 
