{
    "dc_per_class_pp_all": {
        "1": 0.9149366781357808,
        "2": 0.9172962687849658,
        "3": 0.6081749364414845,
        "4": 0.7195351654839368,
        "5": 0.0,
        "6": 0.6539538130802008,
        "7": 0.14946088734652666
    },
    "dc_per_class_pp_per_class": {
        "1": 0.6819621364512026,
        "2": 0.9554536700592902,
        "3": 0.7801404523796225,
        "4": 0.9127631543640297,
        "5": 0.6880380745767227,
        "6": 0.712505124635317,
        "7": 0.13077823497052432
    },
    "dc_per_class_raw": {
        "1": 0.9424261877309722,
        "2": 0.9554536700592902,
        "3": 0.7793228001566171,
        "4": 0.9121543299090501,
        "5": 0.6733087205715806,
        "6": 0.8217175781011727,
        "7": 0.13097348712557755
    },
    "for_which_classes": [
        3,
        4,
        5
    ],
    "min_valid_object_sizes": "None",
    "num_samples": 24,
    "validation_final": "validation_raw_postprocessed",
    "validation_raw": "validation_raw"
}