{
  "task_id": "515",
  "model_name": "AI AUH_DCPT HN OARs v1.0 (07-09-2023)",
  "split_labels": {
    "non_mirrored": [
        {
          "name": "Thyroid",
          "pre_val": 10,
          "post_val": 1
        },
        {
          "name": "SpinalCord",
          "pre_val": 11,
          "post_val": 2
        },
        {
          "name": "PCM_Up",
          "pre_val": 12,
          "post_val": 3
        },
              {
          "name": "PCM_Mid",
          "pre_val": 13,
          "post_val": 4
        },
        {
          "name": "PCM_Low",
          "pre_val": 14,
          "post_val": 5
        },
        {
          "name": "OralCavity",
          "pre_val": 15,
          "post_val": 6
        },
        {
          "name": "Mandible",
          "pre_val": 16,
          "post_val": 7
        },
        {
          "name": "Lips",
          "pre_val": 17,
          "post_val": 8
        },
        {
          "name": "LarynxSG",
          "pre_val": 18,
          "post_val": 9
        },
       {
          "name": "LarynxG",
          "pre_val": 19,
          "post_val": 10
        },
        {
          "name": "Esophagus",
          "pre_val": 20,
          "post_val": 11
        },
        {
          "name": "Brain",
          "pre_val": 21,
          "post_val": 12
        }
    ],
    "mirrored": [
    {
      "name": "Cochlea",
      "pre_val": 1,
      "post_val": [
        13,
        14
      ]
    },
{
      "name": "Lens",
      "pre_val": 2,
      "post_val": [
        15,
        16
      ]
    },
      {
      "name": "EyeBack",
      "pre_val": 3,
      "post_val": [
        17,
        18
      ]
    },
      {
      "name": "EyeFront",
      "pre_val": 4,
      "post_val": [
        19,
        20
      ]
    },
      {
      "name": "Lacrimal",
      "pre_val": 5,
      "post_val": [
        21,
        22
      ]
    },
      {
      "name": "Parotid",
      "pre_val": 6,
      "post_val": [
        23,
        24
      ]
    },
    {
      "name": "BuccalMuc",
      "pre_val": 7,
      "post_val": [
        25,
        26
      ]
    },
    {
      "name": "Submandibular",
      "pre_val": 8,
      "post_val": [
        27,
        28
      ]
    },
          {
      "name": "Carotid",
      "pre_val": 9,
      "post_val": [
        29,
        30
      ]
    }
    ]
},
  "final_contours": {
            "1": {"name": "Thyroid", "color": [165, 161, 55]},
            "2": {"name": "SpinalCord", "color": [0, 150, 0]},
            "3": {"name": "PCM_Up", "color": [119, 0, 255]},
            "4": {"name": "PCM_Mid", "color": [0, 160, 160]},
            "5": {"name": "PCM_Low", "color": [94, 94, 179]},
            "6": {"name": "OralCavity", "color": [244, 146, 96]},
            "7": {"name": "Mandible", "color": [255, 255, 0]},
            "8": {"name": "Lips", "color": [247, 176, 208]},
            "9": {"name": "LarynxSG", "color": [232, 232, 67]},
            "10": {"name": "LarynxG", "color": [232, 191, 67]},
            "11": {"name": "Esophagus", "color": [150, 255, 208]},
            "12": {"name": "Brain", "color": [255, 128, 0]},
            "13": {"name": "Cochlea_L", "color": [0, 128, 255]},
            "14": {"name": "Cochlea_R", "color": [0, 127, 255]},
            "15": {"name": "Lens_L", "color": [0, 255, 0]},
            "16": {"name": "Lens_R", "color": [128, 64, 64]},
            "17": {"name": "EyeBack_L", "color": [0, 128, 128]},
            "18": {"name": "EyeBack_R", "color": [165, 161, 55]},
            "19": {"name": "EyeFront_L", "color": [0, 128, 0]},
            "20": {"name": "EyeFront_R", "color": [165, 161, 55]},
            "21": {"name": "Lacrimal_L", "color": [0, 255, 0]},
            "22": {"name": "Lacrimal_R", "color": [0, 255, 0]},
            "23": {"name": "Parotid_L", "color": [255, 83, 76]},
            "24": {"name": "Parotid_R", "color": [250, 128, 114]},
            "25": {"name": "BuccalMuc_L", "color": [255, 105, 180]},
            "26": {"name": "BuccalMuc_R", "color": [255, 114, 0]},
            "27": {"name": "Submandibular_L", "color": [135, 206, 235]},
            "28": {"name": "Submandibular_R", "color": [127, 255, 212]}
    }
  }
